ARM GAS  C:\Users\DEREKM~1\AppData\Local\Temp\cc6Opqfm.s 			page 1


   1              		.syntax unified
   2              		.cpu cortex-m3
   3              		.fpu softvfp
   4              		.eabi_attribute 20, 1
   5              		.eabi_attribute 21, 1
   6              		.eabi_attribute 23, 3
   7              		.eabi_attribute 24, 1
   8              		.eabi_attribute 25, 1
   9              		.eabi_attribute 26, 1
  10              		.eabi_attribute 30, 6
  11              		.eabi_attribute 34, 1
  12              		.eabi_attribute 18, 4
  13              		.thumb
  14              		.syntax unified
  15              		.file	"BUTTON_1.c"
  16              		.text
  17              	.Ltext0:
  18              		.cfi_sections	.debug_frame
  19              		.section	.text.BUTTON_1_Write,"ax",%progbits
  20              		.align	2
  21              		.global	BUTTON_1_Write
  22              		.thumb
  23              		.thumb_func
  24              		.type	BUTTON_1_Write, %function
  25              	BUTTON_1_Write:
  26              	.LFB0:
  27              		.file 1 "Generated_Source\\PSoC5\\BUTTON_1.c"
   1:Generated_Source\PSoC5/BUTTON_1.c **** /*******************************************************************************
   2:Generated_Source\PSoC5/BUTTON_1.c **** * File Name: BUTTON_1.c  
   3:Generated_Source\PSoC5/BUTTON_1.c **** * Version 2.20
   4:Generated_Source\PSoC5/BUTTON_1.c **** *
   5:Generated_Source\PSoC5/BUTTON_1.c **** * Description:
   6:Generated_Source\PSoC5/BUTTON_1.c **** *  This file contains API to enable firmware control of a Pins component.
   7:Generated_Source\PSoC5/BUTTON_1.c **** *
   8:Generated_Source\PSoC5/BUTTON_1.c **** * Note:
   9:Generated_Source\PSoC5/BUTTON_1.c **** *
  10:Generated_Source\PSoC5/BUTTON_1.c **** ********************************************************************************
  11:Generated_Source\PSoC5/BUTTON_1.c **** * Copyright 2008-2015, Cypress Semiconductor Corporation.  All rights reserved.
  12:Generated_Source\PSoC5/BUTTON_1.c **** * You may use this file only in accordance with the license, terms, conditions, 
  13:Generated_Source\PSoC5/BUTTON_1.c **** * disclaimers, and limitations in the end user license agreement accompanying 
  14:Generated_Source\PSoC5/BUTTON_1.c **** * the software package with which this file was provided.
  15:Generated_Source\PSoC5/BUTTON_1.c **** *******************************************************************************/
  16:Generated_Source\PSoC5/BUTTON_1.c **** 
  17:Generated_Source\PSoC5/BUTTON_1.c **** #include "cytypes.h"
  18:Generated_Source\PSoC5/BUTTON_1.c **** #include "BUTTON_1.h"
  19:Generated_Source\PSoC5/BUTTON_1.c **** 
  20:Generated_Source\PSoC5/BUTTON_1.c **** /* APIs are not generated for P15[7:6] on PSoC 5 */
  21:Generated_Source\PSoC5/BUTTON_1.c **** #if !(CY_PSOC5A &&\
  22:Generated_Source\PSoC5/BUTTON_1.c **** 	 BUTTON_1__PORT == 15 && ((BUTTON_1__MASK & 0xC0) != 0))
  23:Generated_Source\PSoC5/BUTTON_1.c **** 
  24:Generated_Source\PSoC5/BUTTON_1.c **** 
  25:Generated_Source\PSoC5/BUTTON_1.c **** /*******************************************************************************
  26:Generated_Source\PSoC5/BUTTON_1.c **** * Function Name: BUTTON_1_Write
  27:Generated_Source\PSoC5/BUTTON_1.c **** ****************************************************************************//**
  28:Generated_Source\PSoC5/BUTTON_1.c **** *
  29:Generated_Source\PSoC5/BUTTON_1.c **** * \brief Writes the value to the physical port (data output register), masking
  30:Generated_Source\PSoC5/BUTTON_1.c **** *  and shifting the bits appropriately. 
ARM GAS  C:\Users\DEREKM~1\AppData\Local\Temp\cc6Opqfm.s 			page 2


  31:Generated_Source\PSoC5/BUTTON_1.c **** *
  32:Generated_Source\PSoC5/BUTTON_1.c **** * The data output register controls the signal applied to the physical pin in 
  33:Generated_Source\PSoC5/BUTTON_1.c **** * conjunction with the drive mode parameter. This function avoids changing 
  34:Generated_Source\PSoC5/BUTTON_1.c **** * other bits in the port by using the appropriate method (read-modify-write or
  35:Generated_Source\PSoC5/BUTTON_1.c **** * bit banding).
  36:Generated_Source\PSoC5/BUTTON_1.c **** *
  37:Generated_Source\PSoC5/BUTTON_1.c **** * <b>Note</b> This function should not be used on a hardware digital output pin 
  38:Generated_Source\PSoC5/BUTTON_1.c **** * as it is driven by the hardware signal attached to it.
  39:Generated_Source\PSoC5/BUTTON_1.c **** *
  40:Generated_Source\PSoC5/BUTTON_1.c **** * \param value
  41:Generated_Source\PSoC5/BUTTON_1.c **** *  Value to write to the component instance.
  42:Generated_Source\PSoC5/BUTTON_1.c **** *
  43:Generated_Source\PSoC5/BUTTON_1.c **** * \return 
  44:Generated_Source\PSoC5/BUTTON_1.c **** *  None 
  45:Generated_Source\PSoC5/BUTTON_1.c **** *
  46:Generated_Source\PSoC5/BUTTON_1.c **** * \sideeffect
  47:Generated_Source\PSoC5/BUTTON_1.c **** *  If you use read-modify-write operations that are not atomic; the Interrupt 
  48:Generated_Source\PSoC5/BUTTON_1.c **** *  Service Routines (ISR) can cause corruption of this function. An ISR that 
  49:Generated_Source\PSoC5/BUTTON_1.c **** *  interrupts this function and performs writes to the Pins component data 
  50:Generated_Source\PSoC5/BUTTON_1.c **** *  register can cause corrupted port data. To avoid this issue, you should 
  51:Generated_Source\PSoC5/BUTTON_1.c **** *  either use the Per-Pin APIs (primary method) or disable interrupts around 
  52:Generated_Source\PSoC5/BUTTON_1.c **** *  this function.
  53:Generated_Source\PSoC5/BUTTON_1.c **** *
  54:Generated_Source\PSoC5/BUTTON_1.c **** * \funcusage
  55:Generated_Source\PSoC5/BUTTON_1.c **** *  \snippet BUTTON_1_SUT.c usage_BUTTON_1_Write
  56:Generated_Source\PSoC5/BUTTON_1.c **** *******************************************************************************/
  57:Generated_Source\PSoC5/BUTTON_1.c **** void BUTTON_1_Write(uint8 value)
  58:Generated_Source\PSoC5/BUTTON_1.c **** {
  28              		.loc 1 58 0
  29              		.cfi_startproc
  30              		@ args = 0, pretend = 0, frame = 16
  31              		@ frame_needed = 1, uses_anonymous_args = 0
  32              		@ link register save eliminated.
  33 0000 80B4     		push	{r7}
  34              		.cfi_def_cfa_offset 4
  35              		.cfi_offset 7, -4
  36 0002 85B0     		sub	sp, sp, #20
  37              		.cfi_def_cfa_offset 24
  38 0004 00AF     		add	r7, sp, #0
  39              		.cfi_def_cfa_register 7
  40 0006 0346     		mov	r3, r0
  41 0008 FB71     		strb	r3, [r7, #7]
  59:Generated_Source\PSoC5/BUTTON_1.c ****     uint8 staticBits = (BUTTON_1_DR & (uint8)(~BUTTON_1_MASK));
  42              		.loc 1 59 0
  43 000a 0B4B     		ldr	r3, .L2
  44 000c 1B78     		ldrb	r3, [r3]
  45 000e DBB2     		uxtb	r3, r3
  46 0010 23F01003 		bic	r3, r3, #16
  47 0014 FB73     		strb	r3, [r7, #15]
  60:Generated_Source\PSoC5/BUTTON_1.c ****     BUTTON_1_DR = staticBits | ((uint8)(value << BUTTON_1_SHIFT) & BUTTON_1_MASK);
  48              		.loc 1 60 0
  49 0016 0849     		ldr	r1, .L2
  50 0018 FB79     		ldrb	r3, [r7, #7]
  51 001a 1B01     		lsls	r3, r3, #4
  52 001c DBB2     		uxtb	r3, r3
  53 001e 03F01003 		and	r3, r3, #16
  54 0022 DAB2     		uxtb	r2, r3
ARM GAS  C:\Users\DEREKM~1\AppData\Local\Temp\cc6Opqfm.s 			page 3


  55 0024 FB7B     		ldrb	r3, [r7, #15]
  56 0026 1343     		orrs	r3, r3, r2
  57 0028 DBB2     		uxtb	r3, r3
  58 002a 0B70     		strb	r3, [r1]
  61:Generated_Source\PSoC5/BUTTON_1.c **** }
  59              		.loc 1 61 0
  60 002c 00BF     		nop
  61 002e 1437     		adds	r7, r7, #20
  62              		.cfi_def_cfa_offset 4
  63 0030 BD46     		mov	sp, r7
  64              		.cfi_def_cfa_register 13
  65              		@ sp needed
  66 0032 80BC     		pop	{r7}
  67              		.cfi_restore 7
  68              		.cfi_def_cfa_offset 0
  69 0034 7047     		bx	lr
  70              	.L3:
  71 0036 00BF     		.align	2
  72              	.L2:
  73 0038 30510040 		.word	1073762608
  74              		.cfi_endproc
  75              	.LFE0:
  76              		.size	BUTTON_1_Write, .-BUTTON_1_Write
  77              		.section	.text.BUTTON_1_SetDriveMode,"ax",%progbits
  78              		.align	2
  79              		.global	BUTTON_1_SetDriveMode
  80              		.thumb
  81              		.thumb_func
  82              		.type	BUTTON_1_SetDriveMode, %function
  83              	BUTTON_1_SetDriveMode:
  84              	.LFB1:
  62:Generated_Source\PSoC5/BUTTON_1.c **** 
  63:Generated_Source\PSoC5/BUTTON_1.c **** 
  64:Generated_Source\PSoC5/BUTTON_1.c **** /*******************************************************************************
  65:Generated_Source\PSoC5/BUTTON_1.c **** * Function Name: BUTTON_1_SetDriveMode
  66:Generated_Source\PSoC5/BUTTON_1.c **** ****************************************************************************//**
  67:Generated_Source\PSoC5/BUTTON_1.c **** *
  68:Generated_Source\PSoC5/BUTTON_1.c **** * \brief Sets the drive mode for each of the Pins component's pins.
  69:Generated_Source\PSoC5/BUTTON_1.c **** * 
  70:Generated_Source\PSoC5/BUTTON_1.c **** * <b>Note</b> This affects all pins in the Pins component instance. Use the
  71:Generated_Source\PSoC5/BUTTON_1.c **** * Per-Pin APIs if you wish to control individual pin's drive modes.
  72:Generated_Source\PSoC5/BUTTON_1.c **** *
  73:Generated_Source\PSoC5/BUTTON_1.c **** * \param mode
  74:Generated_Source\PSoC5/BUTTON_1.c **** *  Mode for the selected signals. Valid options are documented in 
  75:Generated_Source\PSoC5/BUTTON_1.c **** *  \ref driveMode.
  76:Generated_Source\PSoC5/BUTTON_1.c **** *
  77:Generated_Source\PSoC5/BUTTON_1.c **** * \return
  78:Generated_Source\PSoC5/BUTTON_1.c **** *  None
  79:Generated_Source\PSoC5/BUTTON_1.c **** *
  80:Generated_Source\PSoC5/BUTTON_1.c **** * \sideeffect
  81:Generated_Source\PSoC5/BUTTON_1.c **** *  If you use read-modify-write operations that are not atomic, the ISR can
  82:Generated_Source\PSoC5/BUTTON_1.c **** *  cause corruption of this function. An ISR that interrupts this function 
  83:Generated_Source\PSoC5/BUTTON_1.c **** *  and performs writes to the Pins component Drive Mode registers can cause 
  84:Generated_Source\PSoC5/BUTTON_1.c **** *  corrupted port data. To avoid this issue, you should either use the Per-Pin
  85:Generated_Source\PSoC5/BUTTON_1.c **** *  APIs (primary method) or disable interrupts around this function.
  86:Generated_Source\PSoC5/BUTTON_1.c **** *
  87:Generated_Source\PSoC5/BUTTON_1.c **** * \funcusage
ARM GAS  C:\Users\DEREKM~1\AppData\Local\Temp\cc6Opqfm.s 			page 4


  88:Generated_Source\PSoC5/BUTTON_1.c **** *  \snippet BUTTON_1_SUT.c usage_BUTTON_1_SetDriveMode
  89:Generated_Source\PSoC5/BUTTON_1.c **** *******************************************************************************/
  90:Generated_Source\PSoC5/BUTTON_1.c **** void BUTTON_1_SetDriveMode(uint8 mode)
  91:Generated_Source\PSoC5/BUTTON_1.c **** {
  85              		.loc 1 91 0
  86              		.cfi_startproc
  87              		@ args = 0, pretend = 0, frame = 8
  88              		@ frame_needed = 1, uses_anonymous_args = 0
  89              		@ link register save eliminated.
  90 0000 80B4     		push	{r7}
  91              		.cfi_def_cfa_offset 4
  92              		.cfi_offset 7, -4
  93 0002 83B0     		sub	sp, sp, #12
  94              		.cfi_def_cfa_offset 16
  95 0004 00AF     		add	r7, sp, #0
  96              		.cfi_def_cfa_register 7
  97 0006 0346     		mov	r3, r0
  98 0008 FB71     		strb	r3, [r7, #7]
  92:Generated_Source\PSoC5/BUTTON_1.c **** 	CyPins_SetPinDriveMode(BUTTON_1_0, mode);
  99              		.loc 1 92 0
 100 000a 0B49     		ldr	r1, .L5
 101 000c 0A4B     		ldr	r3, .L5
 102 000e 1B78     		ldrb	r3, [r3]
 103 0010 DBB2     		uxtb	r3, r3
 104 0012 5BB2     		sxtb	r3, r3
 105 0014 23F00E03 		bic	r3, r3, #14
 106 0018 5AB2     		sxtb	r2, r3
 107 001a 97F90730 		ldrsb	r3, [r7, #7]
 108 001e 03F00E03 		and	r3, r3, #14
 109 0022 5BB2     		sxtb	r3, r3
 110 0024 1343     		orrs	r3, r3, r2
 111 0026 5BB2     		sxtb	r3, r3
 112 0028 DBB2     		uxtb	r3, r3
 113 002a 0B70     		strb	r3, [r1]
  93:Generated_Source\PSoC5/BUTTON_1.c **** }
 114              		.loc 1 93 0
 115 002c 00BF     		nop
 116 002e 0C37     		adds	r7, r7, #12
 117              		.cfi_def_cfa_offset 4
 118 0030 BD46     		mov	sp, r7
 119              		.cfi_def_cfa_register 13
 120              		@ sp needed
 121 0032 80BC     		pop	{r7}
 122              		.cfi_restore 7
 123              		.cfi_def_cfa_offset 0
 124 0034 7047     		bx	lr
 125              	.L6:
 126 0036 00BF     		.align	2
 127              	.L5:
 128 0038 1C500040 		.word	1073762332
 129              		.cfi_endproc
 130              	.LFE1:
 131              		.size	BUTTON_1_SetDriveMode, .-BUTTON_1_SetDriveMode
 132              		.section	.text.BUTTON_1_Read,"ax",%progbits
 133              		.align	2
 134              		.global	BUTTON_1_Read
 135              		.thumb
ARM GAS  C:\Users\DEREKM~1\AppData\Local\Temp\cc6Opqfm.s 			page 5


 136              		.thumb_func
 137              		.type	BUTTON_1_Read, %function
 138              	BUTTON_1_Read:
 139              	.LFB2:
  94:Generated_Source\PSoC5/BUTTON_1.c **** 
  95:Generated_Source\PSoC5/BUTTON_1.c **** 
  96:Generated_Source\PSoC5/BUTTON_1.c **** /*******************************************************************************
  97:Generated_Source\PSoC5/BUTTON_1.c **** * Function Name: BUTTON_1_Read
  98:Generated_Source\PSoC5/BUTTON_1.c **** ****************************************************************************//**
  99:Generated_Source\PSoC5/BUTTON_1.c **** *
 100:Generated_Source\PSoC5/BUTTON_1.c **** * \brief Reads the associated physical port (pin status register) and masks 
 101:Generated_Source\PSoC5/BUTTON_1.c **** *  the required bits according to the width and bit position of the component
 102:Generated_Source\PSoC5/BUTTON_1.c **** *  instance. 
 103:Generated_Source\PSoC5/BUTTON_1.c **** *
 104:Generated_Source\PSoC5/BUTTON_1.c **** * The pin's status register returns the current logic level present on the 
 105:Generated_Source\PSoC5/BUTTON_1.c **** * physical pin.
 106:Generated_Source\PSoC5/BUTTON_1.c **** *
 107:Generated_Source\PSoC5/BUTTON_1.c **** * \return 
 108:Generated_Source\PSoC5/BUTTON_1.c **** *  The current value for the pins in the component as a right justified number.
 109:Generated_Source\PSoC5/BUTTON_1.c **** *
 110:Generated_Source\PSoC5/BUTTON_1.c **** * \funcusage
 111:Generated_Source\PSoC5/BUTTON_1.c **** *  \snippet BUTTON_1_SUT.c usage_BUTTON_1_Read  
 112:Generated_Source\PSoC5/BUTTON_1.c **** *******************************************************************************/
 113:Generated_Source\PSoC5/BUTTON_1.c **** uint8 BUTTON_1_Read(void)
 114:Generated_Source\PSoC5/BUTTON_1.c **** {
 140              		.loc 1 114 0
 141              		.cfi_startproc
 142              		@ args = 0, pretend = 0, frame = 0
 143              		@ frame_needed = 1, uses_anonymous_args = 0
 144              		@ link register save eliminated.
 145 0000 80B4     		push	{r7}
 146              		.cfi_def_cfa_offset 4
 147              		.cfi_offset 7, -4
 148 0002 00AF     		add	r7, sp, #0
 149              		.cfi_def_cfa_register 7
 115:Generated_Source\PSoC5/BUTTON_1.c ****     return (BUTTON_1_PS & BUTTON_1_MASK) >> BUTTON_1_SHIFT;
 150              		.loc 1 115 0
 151 0004 054B     		ldr	r3, .L9
 152 0006 1B78     		ldrb	r3, [r3]
 153 0008 DBB2     		uxtb	r3, r3
 154 000a 03F01003 		and	r3, r3, #16
 155 000e 1B09     		lsrs	r3, r3, #4
 156 0010 DBB2     		uxtb	r3, r3
 116:Generated_Source\PSoC5/BUTTON_1.c **** }
 157              		.loc 1 116 0
 158 0012 1846     		mov	r0, r3
 159 0014 BD46     		mov	sp, r7
 160              		.cfi_def_cfa_register 13
 161              		@ sp needed
 162 0016 80BC     		pop	{r7}
 163              		.cfi_restore 7
 164              		.cfi_def_cfa_offset 0
 165 0018 7047     		bx	lr
 166              	.L10:
 167 001a 00BF     		.align	2
 168              	.L9:
 169 001c 31510040 		.word	1073762609
ARM GAS  C:\Users\DEREKM~1\AppData\Local\Temp\cc6Opqfm.s 			page 6


 170              		.cfi_endproc
 171              	.LFE2:
 172              		.size	BUTTON_1_Read, .-BUTTON_1_Read
 173              		.section	.text.BUTTON_1_ReadDataReg,"ax",%progbits
 174              		.align	2
 175              		.global	BUTTON_1_ReadDataReg
 176              		.thumb
 177              		.thumb_func
 178              		.type	BUTTON_1_ReadDataReg, %function
 179              	BUTTON_1_ReadDataReg:
 180              	.LFB3:
 117:Generated_Source\PSoC5/BUTTON_1.c **** 
 118:Generated_Source\PSoC5/BUTTON_1.c **** 
 119:Generated_Source\PSoC5/BUTTON_1.c **** /*******************************************************************************
 120:Generated_Source\PSoC5/BUTTON_1.c **** * Function Name: BUTTON_1_ReadDataReg
 121:Generated_Source\PSoC5/BUTTON_1.c **** ****************************************************************************//**
 122:Generated_Source\PSoC5/BUTTON_1.c **** *
 123:Generated_Source\PSoC5/BUTTON_1.c **** * \brief Reads the associated physical port's data output register and masks 
 124:Generated_Source\PSoC5/BUTTON_1.c **** *  the correct bits according to the width and bit position of the component 
 125:Generated_Source\PSoC5/BUTTON_1.c **** *  instance. 
 126:Generated_Source\PSoC5/BUTTON_1.c **** *
 127:Generated_Source\PSoC5/BUTTON_1.c **** * The data output register controls the signal applied to the physical pin in 
 128:Generated_Source\PSoC5/BUTTON_1.c **** * conjunction with the drive mode parameter. This is not the same as the 
 129:Generated_Source\PSoC5/BUTTON_1.c **** * preferred BUTTON_1_Read() API because the 
 130:Generated_Source\PSoC5/BUTTON_1.c **** * BUTTON_1_ReadDataReg() reads the data register instead of the status 
 131:Generated_Source\PSoC5/BUTTON_1.c **** * register. For output pins this is a useful function to determine the value 
 132:Generated_Source\PSoC5/BUTTON_1.c **** * just written to the pin.
 133:Generated_Source\PSoC5/BUTTON_1.c **** *
 134:Generated_Source\PSoC5/BUTTON_1.c **** * \return 
 135:Generated_Source\PSoC5/BUTTON_1.c **** *  The current value of the data register masked and shifted into a right 
 136:Generated_Source\PSoC5/BUTTON_1.c **** *  justified number for the component instance.
 137:Generated_Source\PSoC5/BUTTON_1.c **** *
 138:Generated_Source\PSoC5/BUTTON_1.c **** * \funcusage
 139:Generated_Source\PSoC5/BUTTON_1.c **** *  \snippet BUTTON_1_SUT.c usage_BUTTON_1_ReadDataReg 
 140:Generated_Source\PSoC5/BUTTON_1.c **** *******************************************************************************/
 141:Generated_Source\PSoC5/BUTTON_1.c **** uint8 BUTTON_1_ReadDataReg(void)
 142:Generated_Source\PSoC5/BUTTON_1.c **** {
 181              		.loc 1 142 0
 182              		.cfi_startproc
 183              		@ args = 0, pretend = 0, frame = 0
 184              		@ frame_needed = 1, uses_anonymous_args = 0
 185              		@ link register save eliminated.
 186 0000 80B4     		push	{r7}
 187              		.cfi_def_cfa_offset 4
 188              		.cfi_offset 7, -4
 189 0002 00AF     		add	r7, sp, #0
 190              		.cfi_def_cfa_register 7
 143:Generated_Source\PSoC5/BUTTON_1.c ****     return (BUTTON_1_DR & BUTTON_1_MASK) >> BUTTON_1_SHIFT;
 191              		.loc 1 143 0
 192 0004 054B     		ldr	r3, .L13
 193 0006 1B78     		ldrb	r3, [r3]
 194 0008 DBB2     		uxtb	r3, r3
 195 000a 03F01003 		and	r3, r3, #16
 196 000e 1B09     		lsrs	r3, r3, #4
 197 0010 DBB2     		uxtb	r3, r3
 144:Generated_Source\PSoC5/BUTTON_1.c **** }
 198              		.loc 1 144 0
ARM GAS  C:\Users\DEREKM~1\AppData\Local\Temp\cc6Opqfm.s 			page 7


 199 0012 1846     		mov	r0, r3
 200 0014 BD46     		mov	sp, r7
 201              		.cfi_def_cfa_register 13
 202              		@ sp needed
 203 0016 80BC     		pop	{r7}
 204              		.cfi_restore 7
 205              		.cfi_def_cfa_offset 0
 206 0018 7047     		bx	lr
 207              	.L14:
 208 001a 00BF     		.align	2
 209              	.L13:
 210 001c 30510040 		.word	1073762608
 211              		.cfi_endproc
 212              	.LFE3:
 213              		.size	BUTTON_1_ReadDataReg, .-BUTTON_1_ReadDataReg
 214              		.section	.text.BUTTON_1_SetInterruptMode,"ax",%progbits
 215              		.align	2
 216              		.global	BUTTON_1_SetInterruptMode
 217              		.thumb
 218              		.thumb_func
 219              		.type	BUTTON_1_SetInterruptMode, %function
 220              	BUTTON_1_SetInterruptMode:
 221              	.LFB4:
 145:Generated_Source\PSoC5/BUTTON_1.c **** 
 146:Generated_Source\PSoC5/BUTTON_1.c **** 
 147:Generated_Source\PSoC5/BUTTON_1.c **** /* If interrupt is connected for this Pins component */ 
 148:Generated_Source\PSoC5/BUTTON_1.c **** #if defined(BUTTON_1_INTSTAT) 
 149:Generated_Source\PSoC5/BUTTON_1.c **** 
 150:Generated_Source\PSoC5/BUTTON_1.c ****     /*******************************************************************************
 151:Generated_Source\PSoC5/BUTTON_1.c ****     * Function Name: BUTTON_1_SetInterruptMode
 152:Generated_Source\PSoC5/BUTTON_1.c ****     ****************************************************************************//**
 153:Generated_Source\PSoC5/BUTTON_1.c ****     *
 154:Generated_Source\PSoC5/BUTTON_1.c ****     * \brief Configures the interrupt mode for each of the Pins component's
 155:Generated_Source\PSoC5/BUTTON_1.c ****     *  pins. Alternatively you may set the interrupt mode for all the pins
 156:Generated_Source\PSoC5/BUTTON_1.c ****     *  specified in the Pins component.
 157:Generated_Source\PSoC5/BUTTON_1.c ****     *
 158:Generated_Source\PSoC5/BUTTON_1.c ****     *  <b>Note</b> The interrupt is port-wide and therefore any enabled pin
 159:Generated_Source\PSoC5/BUTTON_1.c ****     *  interrupt may trigger it.
 160:Generated_Source\PSoC5/BUTTON_1.c ****     *
 161:Generated_Source\PSoC5/BUTTON_1.c ****     * \param position
 162:Generated_Source\PSoC5/BUTTON_1.c ****     *  The pin position as listed in the Pins component. You may OR these to be 
 163:Generated_Source\PSoC5/BUTTON_1.c ****     *  able to configure the interrupt mode of multiple pins within a Pins 
 164:Generated_Source\PSoC5/BUTTON_1.c ****     *  component. Or you may use BUTTON_1_INTR_ALL to configure the
 165:Generated_Source\PSoC5/BUTTON_1.c ****     *  interrupt mode of all the pins in the Pins component.       
 166:Generated_Source\PSoC5/BUTTON_1.c ****     *  - BUTTON_1_0_INTR       (First pin in the list)
 167:Generated_Source\PSoC5/BUTTON_1.c ****     *  - BUTTON_1_1_INTR       (Second pin in the list)
 168:Generated_Source\PSoC5/BUTTON_1.c ****     *  - ...
 169:Generated_Source\PSoC5/BUTTON_1.c ****     *  - BUTTON_1_INTR_ALL     (All pins in Pins component)
 170:Generated_Source\PSoC5/BUTTON_1.c ****     *
 171:Generated_Source\PSoC5/BUTTON_1.c ****     * \param mode
 172:Generated_Source\PSoC5/BUTTON_1.c ****     *  Interrupt mode for the selected pins. Valid options are documented in
 173:Generated_Source\PSoC5/BUTTON_1.c ****     *  \ref intrMode.
 174:Generated_Source\PSoC5/BUTTON_1.c ****     *
 175:Generated_Source\PSoC5/BUTTON_1.c ****     * \return 
 176:Generated_Source\PSoC5/BUTTON_1.c ****     *  None
 177:Generated_Source\PSoC5/BUTTON_1.c ****     *  
 178:Generated_Source\PSoC5/BUTTON_1.c ****     * \sideeffect
ARM GAS  C:\Users\DEREKM~1\AppData\Local\Temp\cc6Opqfm.s 			page 8


 179:Generated_Source\PSoC5/BUTTON_1.c ****     *  It is recommended that the interrupt be disabled before calling this 
 180:Generated_Source\PSoC5/BUTTON_1.c ****     *  function to avoid unintended interrupt requests. Note that the interrupt
 181:Generated_Source\PSoC5/BUTTON_1.c ****     *  type is port wide, and therefore will trigger for any enabled pin on the 
 182:Generated_Source\PSoC5/BUTTON_1.c ****     *  port.
 183:Generated_Source\PSoC5/BUTTON_1.c ****     *
 184:Generated_Source\PSoC5/BUTTON_1.c ****     * \funcusage
 185:Generated_Source\PSoC5/BUTTON_1.c ****     *  \snippet BUTTON_1_SUT.c usage_BUTTON_1_SetInterruptMode
 186:Generated_Source\PSoC5/BUTTON_1.c ****     *******************************************************************************/
 187:Generated_Source\PSoC5/BUTTON_1.c ****     void BUTTON_1_SetInterruptMode(uint16 position, uint16 mode)
 188:Generated_Source\PSoC5/BUTTON_1.c ****     {
 222              		.loc 1 188 0
 223              		.cfi_startproc
 224              		@ args = 0, pretend = 0, frame = 8
 225              		@ frame_needed = 1, uses_anonymous_args = 0
 226              		@ link register save eliminated.
 227 0000 80B4     		push	{r7}
 228              		.cfi_def_cfa_offset 4
 229              		.cfi_offset 7, -4
 230 0002 83B0     		sub	sp, sp, #12
 231              		.cfi_def_cfa_offset 16
 232 0004 00AF     		add	r7, sp, #0
 233              		.cfi_def_cfa_register 7
 234 0006 0346     		mov	r3, r0
 235 0008 0A46     		mov	r2, r1
 236 000a FB80     		strh	r3, [r7, #6]	@ movhi
 237 000c 1346     		mov	r3, r2	@ movhi
 238 000e BB80     		strh	r3, [r7, #4]	@ movhi
 189:Generated_Source\PSoC5/BUTTON_1.c **** 		if((position & BUTTON_1_0_INTR) != 0u) 
 239              		.loc 1 189 0
 240 0010 FB88     		ldrh	r3, [r7, #6]
 241 0012 03F01003 		and	r3, r3, #16
 242 0016 002B     		cmp	r3, #0
 243 0018 03D0     		beq	.L17
 190:Generated_Source\PSoC5/BUTTON_1.c **** 		{ 
 191:Generated_Source\PSoC5/BUTTON_1.c **** 			 BUTTON_1_0_INTTYPE_REG = (uint8)mode; 
 244              		.loc 1 191 0
 245 001a 044B     		ldr	r3, .L18
 246 001c BA88     		ldrh	r2, [r7, #4]	@ movhi
 247 001e D2B2     		uxtb	r2, r2
 248 0020 1A70     		strb	r2, [r3]
 249              	.L17:
 192:Generated_Source\PSoC5/BUTTON_1.c **** 		}
 193:Generated_Source\PSoC5/BUTTON_1.c ****     }
 250              		.loc 1 193 0
 251 0022 00BF     		nop
 252 0024 0C37     		adds	r7, r7, #12
 253              		.cfi_def_cfa_offset 4
 254 0026 BD46     		mov	sp, r7
 255              		.cfi_def_cfa_register 13
 256              		@ sp needed
 257 0028 80BC     		pop	{r7}
 258              		.cfi_restore 7
 259              		.cfi_def_cfa_offset 0
 260 002a 7047     		bx	lr
 261              	.L19:
 262              		.align	2
 263              	.L18:
ARM GAS  C:\Users\DEREKM~1\AppData\Local\Temp\cc6Opqfm.s 			page 9


 264 002c 1C450040 		.word	1073759516
 265              		.cfi_endproc
 266              	.LFE4:
 267              		.size	BUTTON_1_SetInterruptMode, .-BUTTON_1_SetInterruptMode
 268              		.section	.text.BUTTON_1_ClearInterrupt,"ax",%progbits
 269              		.align	2
 270              		.global	BUTTON_1_ClearInterrupt
 271              		.thumb
 272              		.thumb_func
 273              		.type	BUTTON_1_ClearInterrupt, %function
 274              	BUTTON_1_ClearInterrupt:
 275              	.LFB5:
 194:Generated_Source\PSoC5/BUTTON_1.c ****     
 195:Generated_Source\PSoC5/BUTTON_1.c ****     
 196:Generated_Source\PSoC5/BUTTON_1.c ****     /*******************************************************************************
 197:Generated_Source\PSoC5/BUTTON_1.c ****     * Function Name: BUTTON_1_ClearInterrupt
 198:Generated_Source\PSoC5/BUTTON_1.c ****     ****************************************************************************//**
 199:Generated_Source\PSoC5/BUTTON_1.c ****     *
 200:Generated_Source\PSoC5/BUTTON_1.c ****     * \brief Clears any active interrupts attached with the component and returns 
 201:Generated_Source\PSoC5/BUTTON_1.c ****     *  the value of the interrupt status register allowing determination of which
 202:Generated_Source\PSoC5/BUTTON_1.c ****     *  pins generated an interrupt event.
 203:Generated_Source\PSoC5/BUTTON_1.c ****     *
 204:Generated_Source\PSoC5/BUTTON_1.c ****     * \return 
 205:Generated_Source\PSoC5/BUTTON_1.c ****     *  The right-shifted current value of the interrupt status register. Each pin 
 206:Generated_Source\PSoC5/BUTTON_1.c ****     *  has one bit set if it generated an interrupt event. For example, bit 0 is 
 207:Generated_Source\PSoC5/BUTTON_1.c ****     *  for pin 0 and bit 1 is for pin 1 of the Pins component.
 208:Generated_Source\PSoC5/BUTTON_1.c ****     *  
 209:Generated_Source\PSoC5/BUTTON_1.c ****     * \sideeffect
 210:Generated_Source\PSoC5/BUTTON_1.c ****     *  Clears all bits of the physical port's interrupt status register, not just
 211:Generated_Source\PSoC5/BUTTON_1.c ****     *  those associated with the Pins component.
 212:Generated_Source\PSoC5/BUTTON_1.c ****     *
 213:Generated_Source\PSoC5/BUTTON_1.c ****     * \funcusage
 214:Generated_Source\PSoC5/BUTTON_1.c ****     *  \snippet BUTTON_1_SUT.c usage_BUTTON_1_ClearInterrupt
 215:Generated_Source\PSoC5/BUTTON_1.c ****     *******************************************************************************/
 216:Generated_Source\PSoC5/BUTTON_1.c ****     uint8 BUTTON_1_ClearInterrupt(void)
 217:Generated_Source\PSoC5/BUTTON_1.c ****     {
 276              		.loc 1 217 0
 277              		.cfi_startproc
 278              		@ args = 0, pretend = 0, frame = 0
 279              		@ frame_needed = 1, uses_anonymous_args = 0
 280              		@ link register save eliminated.
 281 0000 80B4     		push	{r7}
 282              		.cfi_def_cfa_offset 4
 283              		.cfi_offset 7, -4
 284 0002 00AF     		add	r7, sp, #0
 285              		.cfi_def_cfa_register 7
 218:Generated_Source\PSoC5/BUTTON_1.c ****         return (BUTTON_1_INTSTAT & BUTTON_1_MASK) >> BUTTON_1_SHIFT;
 286              		.loc 1 218 0
 287 0004 054B     		ldr	r3, .L22
 288 0006 1B78     		ldrb	r3, [r3]
 289 0008 DBB2     		uxtb	r3, r3
 290 000a 03F01003 		and	r3, r3, #16
 291 000e 1B09     		lsrs	r3, r3, #4
 292 0010 DBB2     		uxtb	r3, r3
 219:Generated_Source\PSoC5/BUTTON_1.c ****     }
 293              		.loc 1 219 0
 294 0012 1846     		mov	r0, r3
ARM GAS  C:\Users\DEREKM~1\AppData\Local\Temp\cc6Opqfm.s 			page 10


 295 0014 BD46     		mov	sp, r7
 296              		.cfi_def_cfa_register 13
 297              		@ sp needed
 298 0016 80BC     		pop	{r7}
 299              		.cfi_restore 7
 300              		.cfi_def_cfa_offset 0
 301 0018 7047     		bx	lr
 302              	.L23:
 303 001a 00BF     		.align	2
 304              	.L22:
 305 001c 83450040 		.word	1073759619
 306              		.cfi_endproc
 307              	.LFE5:
 308              		.size	BUTTON_1_ClearInterrupt, .-BUTTON_1_ClearInterrupt
 309              		.text
 310              	.Letext0:
 311              		.file 2 "Generated_Source\\PSoC5\\cytypes.h"
 312              		.section	.debug_info,"",%progbits
 313              	.Ldebug_info0:
 314 0000 5F010000 		.4byte	0x15f
 315 0004 0400     		.2byte	0x4
 316 0006 00000000 		.4byte	.Ldebug_abbrev0
 317 000a 04       		.byte	0x4
 318 000b 01       		.uleb128 0x1
 319 000c 1A000000 		.4byte	.LASF23
 320 0010 0C       		.byte	0xc
 321 0011 E3010000 		.4byte	.LASF24
 322 0015 E6000000 		.4byte	.LASF25
 323 0019 00000000 		.4byte	.Ldebug_ranges0+0
 324 001d 00000000 		.4byte	0
 325 0021 00000000 		.4byte	.Ldebug_line0
 326 0025 02       		.uleb128 0x2
 327 0026 01       		.byte	0x1
 328 0027 06       		.byte	0x6
 329 0028 6A020000 		.4byte	.LASF0
 330 002c 02       		.uleb128 0x2
 331 002d 01       		.byte	0x1
 332 002e 08       		.byte	0x8
 333 002f 7E010000 		.4byte	.LASF1
 334 0033 02       		.uleb128 0x2
 335 0034 02       		.byte	0x2
 336 0035 05       		.byte	0x5
 337 0036 42020000 		.4byte	.LASF2
 338 003a 02       		.uleb128 0x2
 339 003b 02       		.byte	0x2
 340 003c 07       		.byte	0x7
 341 003d B9010000 		.4byte	.LASF3
 342 0041 02       		.uleb128 0x2
 343 0042 04       		.byte	0x4
 344 0043 05       		.byte	0x5
 345 0044 61020000 		.4byte	.LASF4
 346 0048 02       		.uleb128 0x2
 347 0049 04       		.byte	0x4
 348 004a 07       		.byte	0x7
 349 004b A7010000 		.4byte	.LASF5
 350 004f 03       		.uleb128 0x3
 351 0050 5B020000 		.4byte	.LASF6
ARM GAS  C:\Users\DEREKM~1\AppData\Local\Temp\cc6Opqfm.s 			page 11


 352 0054 02       		.byte	0x2
 353 0055 E401     		.2byte	0x1e4
 354 0057 2C000000 		.4byte	0x2c
 355 005b 03       		.uleb128 0x3
 356 005c D3010000 		.4byte	.LASF7
 357 0060 02       		.byte	0x2
 358 0061 E501     		.2byte	0x1e5
 359 0063 3A000000 		.4byte	0x3a
 360 0067 02       		.uleb128 0x2
 361 0068 04       		.byte	0x4
 362 0069 04       		.byte	0x4
 363 006a 78010000 		.4byte	.LASF8
 364 006e 02       		.uleb128 0x2
 365 006f 08       		.byte	0x8
 366 0070 04       		.byte	0x4
 367 0071 CC010000 		.4byte	.LASF9
 368 0075 02       		.uleb128 0x2
 369 0076 08       		.byte	0x8
 370 0077 05       		.byte	0x5
 371 0078 2F020000 		.4byte	.LASF10
 372 007c 02       		.uleb128 0x2
 373 007d 08       		.byte	0x8
 374 007e 07       		.byte	0x7
 375 007f 05020000 		.4byte	.LASF11
 376 0083 02       		.uleb128 0x2
 377 0084 01       		.byte	0x1
 378 0085 08       		.byte	0x8
 379 0086 3D020000 		.4byte	.LASF12
 380 008a 03       		.uleb128 0x3
 381 008b A2010000 		.4byte	.LASF13
 382 008f 02       		.byte	0x2
 383 0090 8E02     		.2byte	0x28e
 384 0092 96000000 		.4byte	0x96
 385 0096 04       		.uleb128 0x4
 386 0097 4F000000 		.4byte	0x4f
 387 009b 05       		.uleb128 0x5
 388 009c 4C020000 		.4byte	.LASF14
 389 00a0 01       		.byte	0x1
 390 00a1 39       		.byte	0x39
 391 00a2 00000000 		.4byte	.LFB0
 392 00a6 3C000000 		.4byte	.LFE0-.LFB0
 393 00aa 01       		.uleb128 0x1
 394 00ab 9C       		.byte	0x9c
 395 00ac CD000000 		.4byte	0xcd
 396 00b0 06       		.uleb128 0x6
 397 00b1 A8000000 		.4byte	.LASF16
 398 00b5 01       		.byte	0x1
 399 00b6 39       		.byte	0x39
 400 00b7 4F000000 		.4byte	0x4f
 401 00bb 02       		.uleb128 0x2
 402 00bc 91       		.byte	0x91
 403 00bd 6F       		.sleb128 -17
 404 00be 07       		.uleb128 0x7
 405 00bf AE000000 		.4byte	.LASF26
 406 00c3 01       		.byte	0x1
 407 00c4 3B       		.byte	0x3b
 408 00c5 4F000000 		.4byte	0x4f
ARM GAS  C:\Users\DEREKM~1\AppData\Local\Temp\cc6Opqfm.s 			page 12


 409 00c9 02       		.uleb128 0x2
 410 00ca 91       		.byte	0x91
 411 00cb 77       		.sleb128 -9
 412 00cc 00       		.byte	0
 413 00cd 05       		.uleb128 0x5
 414 00ce 8C010000 		.4byte	.LASF15
 415 00d2 01       		.byte	0x1
 416 00d3 5A       		.byte	0x5a
 417 00d4 00000000 		.4byte	.LFB1
 418 00d8 3C000000 		.4byte	.LFE1-.LFB1
 419 00dc 01       		.uleb128 0x1
 420 00dd 9C       		.byte	0x9c
 421 00de F1000000 		.4byte	0xf1
 422 00e2 06       		.uleb128 0x6
 423 00e3 1C020000 		.4byte	.LASF17
 424 00e7 01       		.byte	0x1
 425 00e8 5A       		.byte	0x5a
 426 00e9 4F000000 		.4byte	0x4f
 427 00ed 02       		.uleb128 0x2
 428 00ee 91       		.byte	0x91
 429 00ef 77       		.sleb128 -9
 430 00f0 00       		.byte	0
 431 00f1 08       		.uleb128 0x8
 432 00f2 21020000 		.4byte	.LASF18
 433 00f6 01       		.byte	0x1
 434 00f7 71       		.byte	0x71
 435 00f8 4F000000 		.4byte	0x4f
 436 00fc 00000000 		.4byte	.LFB2
 437 0100 20000000 		.4byte	.LFE2-.LFB2
 438 0104 01       		.uleb128 0x1
 439 0105 9C       		.byte	0x9c
 440 0106 08       		.uleb128 0x8
 441 0107 B9000000 		.4byte	.LASF19
 442 010b 01       		.byte	0x1
 443 010c 8D       		.byte	0x8d
 444 010d 4F000000 		.4byte	0x4f
 445 0111 00000000 		.4byte	.LFB3
 446 0115 20000000 		.4byte	.LFE3-.LFB3
 447 0119 01       		.uleb128 0x1
 448 011a 9C       		.byte	0x9c
 449 011b 05       		.uleb128 0x5
 450 011c 00000000 		.4byte	.LASF20
 451 0120 01       		.byte	0x1
 452 0121 BB       		.byte	0xbb
 453 0122 00000000 		.4byte	.LFB4
 454 0126 30000000 		.4byte	.LFE4-.LFB4
 455 012a 01       		.uleb128 0x1
 456 012b 9C       		.byte	0x9c
 457 012c 4D010000 		.4byte	0x14d
 458 0130 06       		.uleb128 0x6
 459 0131 DA010000 		.4byte	.LASF21
 460 0135 01       		.byte	0x1
 461 0136 BB       		.byte	0xbb
 462 0137 5B000000 		.4byte	0x5b
 463 013b 02       		.uleb128 0x2
 464 013c 91       		.byte	0x91
 465 013d 76       		.sleb128 -10
ARM GAS  C:\Users\DEREKM~1\AppData\Local\Temp\cc6Opqfm.s 			page 13


 466 013e 06       		.uleb128 0x6
 467 013f 1C020000 		.4byte	.LASF17
 468 0143 01       		.byte	0x1
 469 0144 BB       		.byte	0xbb
 470 0145 5B000000 		.4byte	0x5b
 471 0149 02       		.uleb128 0x2
 472 014a 91       		.byte	0x91
 473 014b 74       		.sleb128 -12
 474 014c 00       		.byte	0
 475 014d 08       		.uleb128 0x8
 476 014e CE000000 		.4byte	.LASF22
 477 0152 01       		.byte	0x1
 478 0153 D8       		.byte	0xd8
 479 0154 4F000000 		.4byte	0x4f
 480 0158 00000000 		.4byte	.LFB5
 481 015c 20000000 		.4byte	.LFE5-.LFB5
 482 0160 01       		.uleb128 0x1
 483 0161 9C       		.byte	0x9c
 484 0162 00       		.byte	0
 485              		.section	.debug_abbrev,"",%progbits
 486              	.Ldebug_abbrev0:
 487 0000 01       		.uleb128 0x1
 488 0001 11       		.uleb128 0x11
 489 0002 01       		.byte	0x1
 490 0003 25       		.uleb128 0x25
 491 0004 0E       		.uleb128 0xe
 492 0005 13       		.uleb128 0x13
 493 0006 0B       		.uleb128 0xb
 494 0007 03       		.uleb128 0x3
 495 0008 0E       		.uleb128 0xe
 496 0009 1B       		.uleb128 0x1b
 497 000a 0E       		.uleb128 0xe
 498 000b 55       		.uleb128 0x55
 499 000c 17       		.uleb128 0x17
 500 000d 11       		.uleb128 0x11
 501 000e 01       		.uleb128 0x1
 502 000f 10       		.uleb128 0x10
 503 0010 17       		.uleb128 0x17
 504 0011 00       		.byte	0
 505 0012 00       		.byte	0
 506 0013 02       		.uleb128 0x2
 507 0014 24       		.uleb128 0x24
 508 0015 00       		.byte	0
 509 0016 0B       		.uleb128 0xb
 510 0017 0B       		.uleb128 0xb
 511 0018 3E       		.uleb128 0x3e
 512 0019 0B       		.uleb128 0xb
 513 001a 03       		.uleb128 0x3
 514 001b 0E       		.uleb128 0xe
 515 001c 00       		.byte	0
 516 001d 00       		.byte	0
 517 001e 03       		.uleb128 0x3
 518 001f 16       		.uleb128 0x16
 519 0020 00       		.byte	0
 520 0021 03       		.uleb128 0x3
 521 0022 0E       		.uleb128 0xe
 522 0023 3A       		.uleb128 0x3a
ARM GAS  C:\Users\DEREKM~1\AppData\Local\Temp\cc6Opqfm.s 			page 14


 523 0024 0B       		.uleb128 0xb
 524 0025 3B       		.uleb128 0x3b
 525 0026 05       		.uleb128 0x5
 526 0027 49       		.uleb128 0x49
 527 0028 13       		.uleb128 0x13
 528 0029 00       		.byte	0
 529 002a 00       		.byte	0
 530 002b 04       		.uleb128 0x4
 531 002c 35       		.uleb128 0x35
 532 002d 00       		.byte	0
 533 002e 49       		.uleb128 0x49
 534 002f 13       		.uleb128 0x13
 535 0030 00       		.byte	0
 536 0031 00       		.byte	0
 537 0032 05       		.uleb128 0x5
 538 0033 2E       		.uleb128 0x2e
 539 0034 01       		.byte	0x1
 540 0035 3F       		.uleb128 0x3f
 541 0036 19       		.uleb128 0x19
 542 0037 03       		.uleb128 0x3
 543 0038 0E       		.uleb128 0xe
 544 0039 3A       		.uleb128 0x3a
 545 003a 0B       		.uleb128 0xb
 546 003b 3B       		.uleb128 0x3b
 547 003c 0B       		.uleb128 0xb
 548 003d 27       		.uleb128 0x27
 549 003e 19       		.uleb128 0x19
 550 003f 11       		.uleb128 0x11
 551 0040 01       		.uleb128 0x1
 552 0041 12       		.uleb128 0x12
 553 0042 06       		.uleb128 0x6
 554 0043 40       		.uleb128 0x40
 555 0044 18       		.uleb128 0x18
 556 0045 9742     		.uleb128 0x2117
 557 0047 19       		.uleb128 0x19
 558 0048 01       		.uleb128 0x1
 559 0049 13       		.uleb128 0x13
 560 004a 00       		.byte	0
 561 004b 00       		.byte	0
 562 004c 06       		.uleb128 0x6
 563 004d 05       		.uleb128 0x5
 564 004e 00       		.byte	0
 565 004f 03       		.uleb128 0x3
 566 0050 0E       		.uleb128 0xe
 567 0051 3A       		.uleb128 0x3a
 568 0052 0B       		.uleb128 0xb
 569 0053 3B       		.uleb128 0x3b
 570 0054 0B       		.uleb128 0xb
 571 0055 49       		.uleb128 0x49
 572 0056 13       		.uleb128 0x13
 573 0057 02       		.uleb128 0x2
 574 0058 18       		.uleb128 0x18
 575 0059 00       		.byte	0
 576 005a 00       		.byte	0
 577 005b 07       		.uleb128 0x7
 578 005c 34       		.uleb128 0x34
 579 005d 00       		.byte	0
ARM GAS  C:\Users\DEREKM~1\AppData\Local\Temp\cc6Opqfm.s 			page 15


 580 005e 03       		.uleb128 0x3
 581 005f 0E       		.uleb128 0xe
 582 0060 3A       		.uleb128 0x3a
 583 0061 0B       		.uleb128 0xb
 584 0062 3B       		.uleb128 0x3b
 585 0063 0B       		.uleb128 0xb
 586 0064 49       		.uleb128 0x49
 587 0065 13       		.uleb128 0x13
 588 0066 02       		.uleb128 0x2
 589 0067 18       		.uleb128 0x18
 590 0068 00       		.byte	0
 591 0069 00       		.byte	0
 592 006a 08       		.uleb128 0x8
 593 006b 2E       		.uleb128 0x2e
 594 006c 00       		.byte	0
 595 006d 3F       		.uleb128 0x3f
 596 006e 19       		.uleb128 0x19
 597 006f 03       		.uleb128 0x3
 598 0070 0E       		.uleb128 0xe
 599 0071 3A       		.uleb128 0x3a
 600 0072 0B       		.uleb128 0xb
 601 0073 3B       		.uleb128 0x3b
 602 0074 0B       		.uleb128 0xb
 603 0075 27       		.uleb128 0x27
 604 0076 19       		.uleb128 0x19
 605 0077 49       		.uleb128 0x49
 606 0078 13       		.uleb128 0x13
 607 0079 11       		.uleb128 0x11
 608 007a 01       		.uleb128 0x1
 609 007b 12       		.uleb128 0x12
 610 007c 06       		.uleb128 0x6
 611 007d 40       		.uleb128 0x40
 612 007e 18       		.uleb128 0x18
 613 007f 9742     		.uleb128 0x2117
 614 0081 19       		.uleb128 0x19
 615 0082 00       		.byte	0
 616 0083 00       		.byte	0
 617 0084 00       		.byte	0
 618              		.section	.debug_aranges,"",%progbits
 619 0000 44000000 		.4byte	0x44
 620 0004 0200     		.2byte	0x2
 621 0006 00000000 		.4byte	.Ldebug_info0
 622 000a 04       		.byte	0x4
 623 000b 00       		.byte	0
 624 000c 0000     		.2byte	0
 625 000e 0000     		.2byte	0
 626 0010 00000000 		.4byte	.LFB0
 627 0014 3C000000 		.4byte	.LFE0-.LFB0
 628 0018 00000000 		.4byte	.LFB1
 629 001c 3C000000 		.4byte	.LFE1-.LFB1
 630 0020 00000000 		.4byte	.LFB2
 631 0024 20000000 		.4byte	.LFE2-.LFB2
 632 0028 00000000 		.4byte	.LFB3
 633 002c 20000000 		.4byte	.LFE3-.LFB3
 634 0030 00000000 		.4byte	.LFB4
 635 0034 30000000 		.4byte	.LFE4-.LFB4
 636 0038 00000000 		.4byte	.LFB5
ARM GAS  C:\Users\DEREKM~1\AppData\Local\Temp\cc6Opqfm.s 			page 16


 637 003c 20000000 		.4byte	.LFE5-.LFB5
 638 0040 00000000 		.4byte	0
 639 0044 00000000 		.4byte	0
 640              		.section	.debug_ranges,"",%progbits
 641              	.Ldebug_ranges0:
 642 0000 00000000 		.4byte	.LFB0
 643 0004 3C000000 		.4byte	.LFE0
 644 0008 00000000 		.4byte	.LFB1
 645 000c 3C000000 		.4byte	.LFE1
 646 0010 00000000 		.4byte	.LFB2
 647 0014 20000000 		.4byte	.LFE2
 648 0018 00000000 		.4byte	.LFB3
 649 001c 20000000 		.4byte	.LFE3
 650 0020 00000000 		.4byte	.LFB4
 651 0024 30000000 		.4byte	.LFE4
 652 0028 00000000 		.4byte	.LFB5
 653 002c 20000000 		.4byte	.LFE5
 654 0030 00000000 		.4byte	0
 655 0034 00000000 		.4byte	0
 656              		.section	.debug_line,"",%progbits
 657              	.Ldebug_line0:
 658 0000 B9000000 		.section	.debug_str,"MS",%progbits,1
 658      02004500 
 658      00000201 
 658      FB0E0D00 
 658      01010101 
 659              	.LASF20:
 660 0000 42555454 		.ascii	"BUTTON_1_SetInterruptMode\000"
 660      4F4E5F31 
 660      5F536574 
 660      496E7465 
 660      72727570 
 661              	.LASF23:
 662 001a 474E5520 		.ascii	"GNU C11 5.4.1 20160609 (release) [ARM/embedded-5-br"
 662      43313120 
 662      352E342E 
 662      31203230 
 662      31363036 
 663 004d 616E6368 		.ascii	"anch revision 237715] -mcpu=cortex-m3 -mthumb -g -O"
 663      20726576 
 663      6973696F 
 663      6E203233 
 663      37373135 
 664 0080 30202D66 		.ascii	"0 -ffunction-sections -ffat-lto-objects\000"
 664      66756E63 
 664      74696F6E 
 664      2D736563 
 664      74696F6E 
 665              	.LASF16:
 666 00a8 76616C75 		.ascii	"value\000"
 666      6500
 667              	.LASF26:
 668 00ae 73746174 		.ascii	"staticBits\000"
 668      69634269 
 668      747300
 669              	.LASF19:
 670 00b9 42555454 		.ascii	"BUTTON_1_ReadDataReg\000"
ARM GAS  C:\Users\DEREKM~1\AppData\Local\Temp\cc6Opqfm.s 			page 17


 670      4F4E5F31 
 670      5F526561 
 670      64446174 
 670      61526567 
 671              	.LASF22:
 672 00ce 42555454 		.ascii	"BUTTON_1_ClearInterrupt\000"
 672      4F4E5F31 
 672      5F436C65 
 672      6172496E 
 672      74657272 
 673              	.LASF25:
 674 00e6 433A5C55 		.ascii	"C:\\Users\\Derek Marsch\\Documents\\SIUE\\491\\free"
 674      73657273 
 674      5C446572 
 674      656B204D 
 674      61727363 
 675 0113 72746F73 		.ascii	"rtos_psoc5\\FreeRTOSv10.2.1_191129\\FreeRTOS\\Demo\\"
 675      5F70736F 
 675      63355C46 
 675      72656552 
 675      544F5376 
 676 0143 434F5254 		.ascii	"CORTEX_CY8C5588_PSoC_Creator_GCC\\FreeRTOS_Demo.cyd"
 676      45585F43 
 676      59384335 
 676      3538385F 
 676      50536F43 
 677 0175 736E00   		.ascii	"sn\000"
 678              	.LASF8:
 679 0178 666C6F61 		.ascii	"float\000"
 679      7400
 680              	.LASF1:
 681 017e 756E7369 		.ascii	"unsigned char\000"
 681      676E6564 
 681      20636861 
 681      7200
 682              	.LASF15:
 683 018c 42555454 		.ascii	"BUTTON_1_SetDriveMode\000"
 683      4F4E5F31 
 683      5F536574 
 683      44726976 
 683      654D6F64 
 684              	.LASF13:
 685 01a2 72656738 		.ascii	"reg8\000"
 685      00
 686              	.LASF5:
 687 01a7 6C6F6E67 		.ascii	"long unsigned int\000"
 687      20756E73 
 687      69676E65 
 687      6420696E 
 687      7400
 688              	.LASF3:
 689 01b9 73686F72 		.ascii	"short unsigned int\000"
 689      7420756E 
 689      7369676E 
 689      65642069 
 689      6E7400
 690              	.LASF9:
ARM GAS  C:\Users\DEREKM~1\AppData\Local\Temp\cc6Opqfm.s 			page 18


 691 01cc 646F7562 		.ascii	"double\000"
 691      6C6500
 692              	.LASF7:
 693 01d3 75696E74 		.ascii	"uint16\000"
 693      313600
 694              	.LASF21:
 695 01da 706F7369 		.ascii	"position\000"
 695      74696F6E 
 695      00
 696              	.LASF24:
 697 01e3 47656E65 		.ascii	"Generated_Source\\PSoC5\\BUTTON_1.c\000"
 697      72617465 
 697      645F536F 
 697      75726365 
 697      5C50536F 
 698              	.LASF11:
 699 0205 6C6F6E67 		.ascii	"long long unsigned int\000"
 699      206C6F6E 
 699      6720756E 
 699      7369676E 
 699      65642069 
 700              	.LASF17:
 701 021c 6D6F6465 		.ascii	"mode\000"
 701      00
 702              	.LASF18:
 703 0221 42555454 		.ascii	"BUTTON_1_Read\000"
 703      4F4E5F31 
 703      5F526561 
 703      6400
 704              	.LASF10:
 705 022f 6C6F6E67 		.ascii	"long long int\000"
 705      206C6F6E 
 705      6720696E 
 705      7400
 706              	.LASF12:
 707 023d 63686172 		.ascii	"char\000"
 707      00
 708              	.LASF2:
 709 0242 73686F72 		.ascii	"short int\000"
 709      7420696E 
 709      7400
 710              	.LASF14:
 711 024c 42555454 		.ascii	"BUTTON_1_Write\000"
 711      4F4E5F31 
 711      5F577269 
 711      746500
 712              	.LASF6:
 713 025b 75696E74 		.ascii	"uint8\000"
 713      3800
 714              	.LASF4:
 715 0261 6C6F6E67 		.ascii	"long int\000"
 715      20696E74 
 715      00
 716              	.LASF0:
 717 026a 7369676E 		.ascii	"signed char\000"
 717      65642063 
 717      68617200 
ARM GAS  C:\Users\DEREKM~1\AppData\Local\Temp\cc6Opqfm.s 			page 19


 718              		.ident	"GCC: (GNU Tools for ARM Embedded Processors) 5.4.1 20160609 (release) [ARM/embedded-5-bran
