ARM GAS  C:\Users\DEREKM~1\AppData\Local\Temp\cctWtALa.s 			page 1


   1              		.syntax unified
   2              		.cpu cortex-m3
   3              		.fpu softvfp
   4              		.eabi_attribute 20, 1
   5              		.eabi_attribute 21, 1
   6              		.eabi_attribute 23, 3
   7              		.eabi_attribute 24, 1
   8              		.eabi_attribute 25, 1
   9              		.eabi_attribute 26, 1
  10              		.eabi_attribute 30, 6
  11              		.eabi_attribute 34, 1
  12              		.eabi_attribute 18, 4
  13              		.thumb
  14              		.syntax unified
  15              		.file	"list.c"
  16              		.text
  17              	.Ltext0:
  18              		.cfi_sections	.debug_frame
  19              		.section	.text.vListInitialise,"ax",%progbits
  20              		.align	2
  21              		.global	vListInitialise
  22              		.thumb
  23              		.thumb_func
  24              		.type	vListInitialise, %function
  25              	vListInitialise:
  26              	.LFB68:
  27              		.file 1 "..\\..\\..\\Source\\list.c"
   1:..\..\..\Source/list.c **** /*
   2:..\..\..\Source/list.c ****  * FreeRTOS Kernel V10.2.1
   3:..\..\..\Source/list.c ****  * Copyright (C) 2019 Amazon.com, Inc. or its affiliates.  All Rights Reserved.
   4:..\..\..\Source/list.c ****  *
   5:..\..\..\Source/list.c ****  * Permission is hereby granted, free of charge, to any person obtaining a copy of
   6:..\..\..\Source/list.c ****  * this software and associated documentation files (the "Software"), to deal in
   7:..\..\..\Source/list.c ****  * the Software without restriction, including without limitation the rights to
   8:..\..\..\Source/list.c ****  * use, copy, modify, merge, publish, distribute, sublicense, and/or sell copies of
   9:..\..\..\Source/list.c ****  * the Software, and to permit persons to whom the Software is furnished to do so,
  10:..\..\..\Source/list.c ****  * subject to the following conditions:
  11:..\..\..\Source/list.c ****  *
  12:..\..\..\Source/list.c ****  * The above copyright notice and this permission notice shall be included in all
  13:..\..\..\Source/list.c ****  * copies or substantial portions of the Software.
  14:..\..\..\Source/list.c ****  *
  15:..\..\..\Source/list.c ****  * THE SOFTWARE IS PROVIDED "AS IS", WITHOUT WARRANTY OF ANY KIND, EXPRESS OR
  16:..\..\..\Source/list.c ****  * IMPLIED, INCLUDING BUT NOT LIMITED TO THE WARRANTIES OF MERCHANTABILITY, FITNESS
  17:..\..\..\Source/list.c ****  * FOR A PARTICULAR PURPOSE AND NONINFRINGEMENT. IN NO EVENT SHALL THE AUTHORS OR
  18:..\..\..\Source/list.c ****  * COPYRIGHT HOLDERS BE LIABLE FOR ANY CLAIM, DAMAGES OR OTHER LIABILITY, WHETHER
  19:..\..\..\Source/list.c ****  * IN AN ACTION OF CONTRACT, TORT OR OTHERWISE, ARISING FROM, OUT OF OR IN
  20:..\..\..\Source/list.c ****  * CONNECTION WITH THE SOFTWARE OR THE USE OR OTHER DEALINGS IN THE SOFTWARE.
  21:..\..\..\Source/list.c ****  *
  22:..\..\..\Source/list.c ****  * http://www.FreeRTOS.org
  23:..\..\..\Source/list.c ****  * http://aws.amazon.com/freertos
  24:..\..\..\Source/list.c ****  *
  25:..\..\..\Source/list.c ****  * 1 tab == 4 spaces!
  26:..\..\..\Source/list.c ****  */
  27:..\..\..\Source/list.c **** 
  28:..\..\..\Source/list.c **** 
  29:..\..\..\Source/list.c **** #include <stdlib.h>
  30:..\..\..\Source/list.c **** #include "FreeRTOS.h"
ARM GAS  C:\Users\DEREKM~1\AppData\Local\Temp\cctWtALa.s 			page 2


  31:..\..\..\Source/list.c **** #include "list.h"
  32:..\..\..\Source/list.c **** 
  33:..\..\..\Source/list.c **** /*-----------------------------------------------------------
  34:..\..\..\Source/list.c ****  * PUBLIC LIST API documented in list.h
  35:..\..\..\Source/list.c ****  *----------------------------------------------------------*/
  36:..\..\..\Source/list.c **** 
  37:..\..\..\Source/list.c **** void vListInitialise( List_t * const pxList )
  38:..\..\..\Source/list.c **** {
  28              		.loc 1 38 0
  29              		.cfi_startproc
  30              		@ args = 0, pretend = 0, frame = 8
  31              		@ frame_needed = 1, uses_anonymous_args = 0
  32              		@ link register save eliminated.
  33 0000 80B4     		push	{r7}
  34              		.cfi_def_cfa_offset 4
  35              		.cfi_offset 7, -4
  36 0002 83B0     		sub	sp, sp, #12
  37              		.cfi_def_cfa_offset 16
  38 0004 00AF     		add	r7, sp, #0
  39              		.cfi_def_cfa_register 7
  40 0006 7860     		str	r0, [r7, #4]
  39:..\..\..\Source/list.c **** 	/* The list structure contains a list item which is used to mark the
  40:..\..\..\Source/list.c **** 	end of the list.  To initialise the list the list end is inserted
  41:..\..\..\Source/list.c **** 	as the only list entry. */
  42:..\..\..\Source/list.c **** 	pxList->pxIndex = ( ListItem_t * ) &( pxList->xListEnd );			/*lint !e826 !e740 !e9087 The mini lis
  41              		.loc 1 42 0
  42 0008 7B68     		ldr	r3, [r7, #4]
  43 000a 03F10802 		add	r2, r3, #8
  44 000e 7B68     		ldr	r3, [r7, #4]
  45 0010 5A60     		str	r2, [r3, #4]
  43:..\..\..\Source/list.c **** 
  44:..\..\..\Source/list.c **** 	/* The list end value is the highest possible value in the list to
  45:..\..\..\Source/list.c **** 	ensure it remains at the end of the list. */
  46:..\..\..\Source/list.c **** 	pxList->xListEnd.xItemValue = portMAX_DELAY;
  46              		.loc 1 46 0
  47 0012 7B68     		ldr	r3, [r7, #4]
  48 0014 4FF0FF32 		mov	r2, #-1
  49 0018 9A60     		str	r2, [r3, #8]
  47:..\..\..\Source/list.c **** 
  48:..\..\..\Source/list.c **** 	/* The list end next and previous pointers point to itself so we know
  49:..\..\..\Source/list.c **** 	when the list is empty. */
  50:..\..\..\Source/list.c **** 	pxList->xListEnd.pxNext = ( ListItem_t * ) &( pxList->xListEnd );	/*lint !e826 !e740 !e9087 The mi
  50              		.loc 1 50 0
  51 001a 7B68     		ldr	r3, [r7, #4]
  52 001c 03F10802 		add	r2, r3, #8
  53 0020 7B68     		ldr	r3, [r7, #4]
  54 0022 DA60     		str	r2, [r3, #12]
  51:..\..\..\Source/list.c **** 	pxList->xListEnd.pxPrevious = ( ListItem_t * ) &( pxList->xListEnd );/*lint !e826 !e740 !e9087 The
  55              		.loc 1 51 0
  56 0024 7B68     		ldr	r3, [r7, #4]
  57 0026 03F10802 		add	r2, r3, #8
  58 002a 7B68     		ldr	r3, [r7, #4]
  59 002c 1A61     		str	r2, [r3, #16]
  52:..\..\..\Source/list.c **** 
  53:..\..\..\Source/list.c **** 	pxList->uxNumberOfItems = ( UBaseType_t ) 0U;
  60              		.loc 1 53 0
  61 002e 7B68     		ldr	r3, [r7, #4]
ARM GAS  C:\Users\DEREKM~1\AppData\Local\Temp\cctWtALa.s 			page 3


  62 0030 0022     		movs	r2, #0
  63 0032 1A60     		str	r2, [r3]
  54:..\..\..\Source/list.c **** 
  55:..\..\..\Source/list.c **** 	/* Write known values into the list if
  56:..\..\..\Source/list.c **** 	configUSE_LIST_DATA_INTEGRITY_CHECK_BYTES is set to 1. */
  57:..\..\..\Source/list.c **** 	listSET_LIST_INTEGRITY_CHECK_1_VALUE( pxList );
  58:..\..\..\Source/list.c **** 	listSET_LIST_INTEGRITY_CHECK_2_VALUE( pxList );
  59:..\..\..\Source/list.c **** }
  64              		.loc 1 59 0
  65 0034 00BF     		nop
  66 0036 0C37     		adds	r7, r7, #12
  67              		.cfi_def_cfa_offset 4
  68 0038 BD46     		mov	sp, r7
  69              		.cfi_def_cfa_register 13
  70              		@ sp needed
  71 003a 80BC     		pop	{r7}
  72              		.cfi_restore 7
  73              		.cfi_def_cfa_offset 0
  74 003c 7047     		bx	lr
  75              		.cfi_endproc
  76              	.LFE68:
  77              		.size	vListInitialise, .-vListInitialise
  78 003e 00BF     		.section	.text.vListInitialiseItem,"ax",%progbits
  79              		.align	2
  80              		.global	vListInitialiseItem
  81              		.thumb
  82              		.thumb_func
  83              		.type	vListInitialiseItem, %function
  84              	vListInitialiseItem:
  85              	.LFB69:
  60:..\..\..\Source/list.c **** /*-----------------------------------------------------------*/
  61:..\..\..\Source/list.c **** 
  62:..\..\..\Source/list.c **** void vListInitialiseItem( ListItem_t * const pxItem )
  63:..\..\..\Source/list.c **** {
  86              		.loc 1 63 0
  87              		.cfi_startproc
  88              		@ args = 0, pretend = 0, frame = 8
  89              		@ frame_needed = 1, uses_anonymous_args = 0
  90              		@ link register save eliminated.
  91 0000 80B4     		push	{r7}
  92              		.cfi_def_cfa_offset 4
  93              		.cfi_offset 7, -4
  94 0002 83B0     		sub	sp, sp, #12
  95              		.cfi_def_cfa_offset 16
  96 0004 00AF     		add	r7, sp, #0
  97              		.cfi_def_cfa_register 7
  98 0006 7860     		str	r0, [r7, #4]
  64:..\..\..\Source/list.c **** 	/* Make sure the list item is not recorded as being on a list. */
  65:..\..\..\Source/list.c **** 	pxItem->pxContainer = NULL;
  99              		.loc 1 65 0
 100 0008 7B68     		ldr	r3, [r7, #4]
 101 000a 0022     		movs	r2, #0
 102 000c 1A61     		str	r2, [r3, #16]
  66:..\..\..\Source/list.c **** 
  67:..\..\..\Source/list.c **** 	/* Write known values into the list item if
  68:..\..\..\Source/list.c **** 	configUSE_LIST_DATA_INTEGRITY_CHECK_BYTES is set to 1. */
  69:..\..\..\Source/list.c **** 	listSET_FIRST_LIST_ITEM_INTEGRITY_CHECK_VALUE( pxItem );
ARM GAS  C:\Users\DEREKM~1\AppData\Local\Temp\cctWtALa.s 			page 4


  70:..\..\..\Source/list.c **** 	listSET_SECOND_LIST_ITEM_INTEGRITY_CHECK_VALUE( pxItem );
  71:..\..\..\Source/list.c **** }
 103              		.loc 1 71 0
 104 000e 00BF     		nop
 105 0010 0C37     		adds	r7, r7, #12
 106              		.cfi_def_cfa_offset 4
 107 0012 BD46     		mov	sp, r7
 108              		.cfi_def_cfa_register 13
 109              		@ sp needed
 110 0014 80BC     		pop	{r7}
 111              		.cfi_restore 7
 112              		.cfi_def_cfa_offset 0
 113 0016 7047     		bx	lr
 114              		.cfi_endproc
 115              	.LFE69:
 116              		.size	vListInitialiseItem, .-vListInitialiseItem
 117              		.section	.text.vListInsertEnd,"ax",%progbits
 118              		.align	2
 119              		.global	vListInsertEnd
 120              		.thumb
 121              		.thumb_func
 122              		.type	vListInsertEnd, %function
 123              	vListInsertEnd:
 124              	.LFB70:
  72:..\..\..\Source/list.c **** /*-----------------------------------------------------------*/
  73:..\..\..\Source/list.c **** 
  74:..\..\..\Source/list.c **** void vListInsertEnd( List_t * const pxList, ListItem_t * const pxNewListItem )
  75:..\..\..\Source/list.c **** {
 125              		.loc 1 75 0
 126              		.cfi_startproc
 127              		@ args = 0, pretend = 0, frame = 16
 128              		@ frame_needed = 1, uses_anonymous_args = 0
 129              		@ link register save eliminated.
 130 0000 80B4     		push	{r7}
 131              		.cfi_def_cfa_offset 4
 132              		.cfi_offset 7, -4
 133 0002 85B0     		sub	sp, sp, #20
 134              		.cfi_def_cfa_offset 24
 135 0004 00AF     		add	r7, sp, #0
 136              		.cfi_def_cfa_register 7
 137 0006 7860     		str	r0, [r7, #4]
 138 0008 3960     		str	r1, [r7]
  76:..\..\..\Source/list.c **** ListItem_t * const pxIndex = pxList->pxIndex;
 139              		.loc 1 76 0
 140 000a 7B68     		ldr	r3, [r7, #4]
 141 000c 5B68     		ldr	r3, [r3, #4]
 142 000e FB60     		str	r3, [r7, #12]
  77:..\..\..\Source/list.c **** 
  78:..\..\..\Source/list.c **** 	/* Only effective when configASSERT() is also defined, these tests may catch
  79:..\..\..\Source/list.c **** 	the list data structures being overwritten in memory.  They will not catch
  80:..\..\..\Source/list.c **** 	data errors caused by incorrect configuration or use of FreeRTOS. */
  81:..\..\..\Source/list.c **** 	listTEST_LIST_INTEGRITY( pxList );
  82:..\..\..\Source/list.c **** 	listTEST_LIST_ITEM_INTEGRITY( pxNewListItem );
  83:..\..\..\Source/list.c **** 
  84:..\..\..\Source/list.c **** 	/* Insert a new list item into pxList, but rather than sort the list,
  85:..\..\..\Source/list.c **** 	makes the new list item the last item to be removed by a call to
  86:..\..\..\Source/list.c **** 	listGET_OWNER_OF_NEXT_ENTRY(). */
ARM GAS  C:\Users\DEREKM~1\AppData\Local\Temp\cctWtALa.s 			page 5


  87:..\..\..\Source/list.c **** 	pxNewListItem->pxNext = pxIndex;
 143              		.loc 1 87 0
 144 0010 3B68     		ldr	r3, [r7]
 145 0012 FA68     		ldr	r2, [r7, #12]
 146 0014 5A60     		str	r2, [r3, #4]
  88:..\..\..\Source/list.c **** 	pxNewListItem->pxPrevious = pxIndex->pxPrevious;
 147              		.loc 1 88 0
 148 0016 FB68     		ldr	r3, [r7, #12]
 149 0018 9A68     		ldr	r2, [r3, #8]
 150 001a 3B68     		ldr	r3, [r7]
 151 001c 9A60     		str	r2, [r3, #8]
  89:..\..\..\Source/list.c **** 
  90:..\..\..\Source/list.c **** 	/* Only used during decision coverage testing. */
  91:..\..\..\Source/list.c **** 	mtCOVERAGE_TEST_DELAY();
  92:..\..\..\Source/list.c **** 
  93:..\..\..\Source/list.c **** 	pxIndex->pxPrevious->pxNext = pxNewListItem;
 152              		.loc 1 93 0
 153 001e FB68     		ldr	r3, [r7, #12]
 154 0020 9B68     		ldr	r3, [r3, #8]
 155 0022 3A68     		ldr	r2, [r7]
 156 0024 5A60     		str	r2, [r3, #4]
  94:..\..\..\Source/list.c **** 	pxIndex->pxPrevious = pxNewListItem;
 157              		.loc 1 94 0
 158 0026 FB68     		ldr	r3, [r7, #12]
 159 0028 3A68     		ldr	r2, [r7]
 160 002a 9A60     		str	r2, [r3, #8]
  95:..\..\..\Source/list.c **** 
  96:..\..\..\Source/list.c **** 	/* Remember which list the item is in. */
  97:..\..\..\Source/list.c **** 	pxNewListItem->pxContainer = pxList;
 161              		.loc 1 97 0
 162 002c 3B68     		ldr	r3, [r7]
 163 002e 7A68     		ldr	r2, [r7, #4]
 164 0030 1A61     		str	r2, [r3, #16]
  98:..\..\..\Source/list.c **** 
  99:..\..\..\Source/list.c **** 	( pxList->uxNumberOfItems )++;
 165              		.loc 1 99 0
 166 0032 7B68     		ldr	r3, [r7, #4]
 167 0034 1B68     		ldr	r3, [r3]
 168 0036 5A1C     		adds	r2, r3, #1
 169 0038 7B68     		ldr	r3, [r7, #4]
 170 003a 1A60     		str	r2, [r3]
 100:..\..\..\Source/list.c **** }
 171              		.loc 1 100 0
 172 003c 00BF     		nop
 173 003e 1437     		adds	r7, r7, #20
 174              		.cfi_def_cfa_offset 4
 175 0040 BD46     		mov	sp, r7
 176              		.cfi_def_cfa_register 13
 177              		@ sp needed
 178 0042 80BC     		pop	{r7}
 179              		.cfi_restore 7
 180              		.cfi_def_cfa_offset 0
 181 0044 7047     		bx	lr
 182              		.cfi_endproc
 183              	.LFE70:
 184              		.size	vListInsertEnd, .-vListInsertEnd
 185 0046 00BF     		.section	.text.vListInsert,"ax",%progbits
ARM GAS  C:\Users\DEREKM~1\AppData\Local\Temp\cctWtALa.s 			page 6


 186              		.align	2
 187              		.global	vListInsert
 188              		.thumb
 189              		.thumb_func
 190              		.type	vListInsert, %function
 191              	vListInsert:
 192              	.LFB71:
 101:..\..\..\Source/list.c **** /*-----------------------------------------------------------*/
 102:..\..\..\Source/list.c **** 
 103:..\..\..\Source/list.c **** void vListInsert( List_t * const pxList, ListItem_t * const pxNewListItem )
 104:..\..\..\Source/list.c **** {
 193              		.loc 1 104 0
 194              		.cfi_startproc
 195              		@ args = 0, pretend = 0, frame = 16
 196              		@ frame_needed = 1, uses_anonymous_args = 0
 197              		@ link register save eliminated.
 198 0000 80B4     		push	{r7}
 199              		.cfi_def_cfa_offset 4
 200              		.cfi_offset 7, -4
 201 0002 85B0     		sub	sp, sp, #20
 202              		.cfi_def_cfa_offset 24
 203 0004 00AF     		add	r7, sp, #0
 204              		.cfi_def_cfa_register 7
 205 0006 7860     		str	r0, [r7, #4]
 206 0008 3960     		str	r1, [r7]
 105:..\..\..\Source/list.c **** ListItem_t *pxIterator;
 106:..\..\..\Source/list.c **** const TickType_t xValueOfInsertion = pxNewListItem->xItemValue;
 207              		.loc 1 106 0
 208 000a 3B68     		ldr	r3, [r7]
 209 000c 1B68     		ldr	r3, [r3]
 210 000e BB60     		str	r3, [r7, #8]
 107:..\..\..\Source/list.c **** 
 108:..\..\..\Source/list.c **** 	/* Only effective when configASSERT() is also defined, these tests may catch
 109:..\..\..\Source/list.c **** 	the list data structures being overwritten in memory.  They will not catch
 110:..\..\..\Source/list.c **** 	data errors caused by incorrect configuration or use of FreeRTOS. */
 111:..\..\..\Source/list.c **** 	listTEST_LIST_INTEGRITY( pxList );
 112:..\..\..\Source/list.c **** 	listTEST_LIST_ITEM_INTEGRITY( pxNewListItem );
 113:..\..\..\Source/list.c **** 
 114:..\..\..\Source/list.c **** 	/* Insert the new list item into the list, sorted in xItemValue order.
 115:..\..\..\Source/list.c **** 
 116:..\..\..\Source/list.c **** 	If the list already contains a list item with the same item value then the
 117:..\..\..\Source/list.c **** 	new list item should be placed after it.  This ensures that TCBs which are
 118:..\..\..\Source/list.c **** 	stored in ready lists (all of which have the same xItemValue value) get a
 119:..\..\..\Source/list.c **** 	share of the CPU.  However, if the xItemValue is the same as the back marker
 120:..\..\..\Source/list.c **** 	the iteration loop below will not end.  Therefore the value is checked
 121:..\..\..\Source/list.c **** 	first, and the algorithm slightly modified if necessary. */
 122:..\..\..\Source/list.c **** 	if( xValueOfInsertion == portMAX_DELAY )
 211              		.loc 1 122 0
 212 0010 BB68     		ldr	r3, [r7, #8]
 213 0012 B3F1FF3F 		cmp	r3, #-1
 214 0016 03D1     		bne	.L5
 123:..\..\..\Source/list.c **** 	{
 124:..\..\..\Source/list.c **** 		pxIterator = pxList->xListEnd.pxPrevious;
 215              		.loc 1 124 0
 216 0018 7B68     		ldr	r3, [r7, #4]
 217 001a 1B69     		ldr	r3, [r3, #16]
 218 001c FB60     		str	r3, [r7, #12]
ARM GAS  C:\Users\DEREKM~1\AppData\Local\Temp\cctWtALa.s 			page 7


 219 001e 0CE0     		b	.L6
 220              	.L5:
 125:..\..\..\Source/list.c **** 	}
 126:..\..\..\Source/list.c **** 	else
 127:..\..\..\Source/list.c **** 	{
 128:..\..\..\Source/list.c **** 		/* *** NOTE ***********************************************************
 129:..\..\..\Source/list.c **** 		If you find your application is crashing here then likely causes are
 130:..\..\..\Source/list.c **** 		listed below.  In addition see https://www.freertos.org/FAQHelp.html for
 131:..\..\..\Source/list.c **** 		more tips, and ensure configASSERT() is defined!
 132:..\..\..\Source/list.c **** 		https://www.freertos.org/a00110.html#configASSERT
 133:..\..\..\Source/list.c **** 
 134:..\..\..\Source/list.c **** 			1) Stack overflow -
 135:..\..\..\Source/list.c **** 			   see https://www.freertos.org/Stacks-and-stack-overflow-checking.html
 136:..\..\..\Source/list.c **** 			2) Incorrect interrupt priority assignment, especially on Cortex-M
 137:..\..\..\Source/list.c **** 			   parts where numerically high priority values denote low actual
 138:..\..\..\Source/list.c **** 			   interrupt priorities, which can seem counter intuitive.  See
 139:..\..\..\Source/list.c **** 			   https://www.freertos.org/RTOS-Cortex-M3-M4.html and the definition
 140:..\..\..\Source/list.c **** 			   of configMAX_SYSCALL_INTERRUPT_PRIORITY on
 141:..\..\..\Source/list.c **** 			   https://www.freertos.org/a00110.html
 142:..\..\..\Source/list.c **** 			3) Calling an API function from within a critical section or when
 143:..\..\..\Source/list.c **** 			   the scheduler is suspended, or calling an API function that does
 144:..\..\..\Source/list.c **** 			   not end in "FromISR" from an interrupt.
 145:..\..\..\Source/list.c **** 			4) Using a queue or semaphore before it has been initialised or
 146:..\..\..\Source/list.c **** 			   before the scheduler has been started (are interrupts firing
 147:..\..\..\Source/list.c **** 			   before vTaskStartScheduler() has been called?).
 148:..\..\..\Source/list.c **** 		**********************************************************************/
 149:..\..\..\Source/list.c **** 
 150:..\..\..\Source/list.c **** 		for( pxIterator = ( ListItem_t * ) &( pxList->xListEnd ); pxIterator->pxNext->xItemValue <= xValu
 221              		.loc 1 150 0
 222 0020 7B68     		ldr	r3, [r7, #4]
 223 0022 0833     		adds	r3, r3, #8
 224 0024 FB60     		str	r3, [r7, #12]
 225 0026 02E0     		b	.L7
 226              	.L8:
 227              		.loc 1 150 0 is_stmt 0 discriminator 3
 228 0028 FB68     		ldr	r3, [r7, #12]
 229 002a 5B68     		ldr	r3, [r3, #4]
 230 002c FB60     		str	r3, [r7, #12]
 231              	.L7:
 232              		.loc 1 150 0 discriminator 1
 233 002e FB68     		ldr	r3, [r7, #12]
 234 0030 5B68     		ldr	r3, [r3, #4]
 235 0032 1A68     		ldr	r2, [r3]
 236 0034 BB68     		ldr	r3, [r7, #8]
 237 0036 9A42     		cmp	r2, r3
 238 0038 F6D9     		bls	.L8
 239              	.L6:
 151:..\..\..\Source/list.c **** 		{
 152:..\..\..\Source/list.c **** 			/* There is nothing to do here, just iterating to the wanted
 153:..\..\..\Source/list.c **** 			insertion position. */
 154:..\..\..\Source/list.c **** 		}
 155:..\..\..\Source/list.c **** 	}
 156:..\..\..\Source/list.c **** 
 157:..\..\..\Source/list.c **** 	pxNewListItem->pxNext = pxIterator->pxNext;
 240              		.loc 1 157 0 is_stmt 1
 241 003a FB68     		ldr	r3, [r7, #12]
 242 003c 5A68     		ldr	r2, [r3, #4]
ARM GAS  C:\Users\DEREKM~1\AppData\Local\Temp\cctWtALa.s 			page 8


 243 003e 3B68     		ldr	r3, [r7]
 244 0040 5A60     		str	r2, [r3, #4]
 158:..\..\..\Source/list.c **** 	pxNewListItem->pxNext->pxPrevious = pxNewListItem;
 245              		.loc 1 158 0
 246 0042 3B68     		ldr	r3, [r7]
 247 0044 5B68     		ldr	r3, [r3, #4]
 248 0046 3A68     		ldr	r2, [r7]
 249 0048 9A60     		str	r2, [r3, #8]
 159:..\..\..\Source/list.c **** 	pxNewListItem->pxPrevious = pxIterator;
 250              		.loc 1 159 0
 251 004a 3B68     		ldr	r3, [r7]
 252 004c FA68     		ldr	r2, [r7, #12]
 253 004e 9A60     		str	r2, [r3, #8]
 160:..\..\..\Source/list.c **** 	pxIterator->pxNext = pxNewListItem;
 254              		.loc 1 160 0
 255 0050 FB68     		ldr	r3, [r7, #12]
 256 0052 3A68     		ldr	r2, [r7]
 257 0054 5A60     		str	r2, [r3, #4]
 161:..\..\..\Source/list.c **** 
 162:..\..\..\Source/list.c **** 	/* Remember which list the item is in.  This allows fast removal of the
 163:..\..\..\Source/list.c **** 	item later. */
 164:..\..\..\Source/list.c **** 	pxNewListItem->pxContainer = pxList;
 258              		.loc 1 164 0
 259 0056 3B68     		ldr	r3, [r7]
 260 0058 7A68     		ldr	r2, [r7, #4]
 261 005a 1A61     		str	r2, [r3, #16]
 165:..\..\..\Source/list.c **** 
 166:..\..\..\Source/list.c **** 	( pxList->uxNumberOfItems )++;
 262              		.loc 1 166 0
 263 005c 7B68     		ldr	r3, [r7, #4]
 264 005e 1B68     		ldr	r3, [r3]
 265 0060 5A1C     		adds	r2, r3, #1
 266 0062 7B68     		ldr	r3, [r7, #4]
 267 0064 1A60     		str	r2, [r3]
 167:..\..\..\Source/list.c **** }
 268              		.loc 1 167 0
 269 0066 00BF     		nop
 270 0068 1437     		adds	r7, r7, #20
 271              		.cfi_def_cfa_offset 4
 272 006a BD46     		mov	sp, r7
 273              		.cfi_def_cfa_register 13
 274              		@ sp needed
 275 006c 80BC     		pop	{r7}
 276              		.cfi_restore 7
 277              		.cfi_def_cfa_offset 0
 278 006e 7047     		bx	lr
 279              		.cfi_endproc
 280              	.LFE71:
 281              		.size	vListInsert, .-vListInsert
 282              		.section	.text.uxListRemove,"ax",%progbits
 283              		.align	2
 284              		.global	uxListRemove
 285              		.thumb
 286              		.thumb_func
 287              		.type	uxListRemove, %function
 288              	uxListRemove:
 289              	.LFB72:
ARM GAS  C:\Users\DEREKM~1\AppData\Local\Temp\cctWtALa.s 			page 9


 168:..\..\..\Source/list.c **** /*-----------------------------------------------------------*/
 169:..\..\..\Source/list.c **** 
 170:..\..\..\Source/list.c **** UBaseType_t uxListRemove( ListItem_t * const pxItemToRemove )
 171:..\..\..\Source/list.c **** {
 290              		.loc 1 171 0
 291              		.cfi_startproc
 292              		@ args = 0, pretend = 0, frame = 16
 293              		@ frame_needed = 1, uses_anonymous_args = 0
 294              		@ link register save eliminated.
 295 0000 80B4     		push	{r7}
 296              		.cfi_def_cfa_offset 4
 297              		.cfi_offset 7, -4
 298 0002 85B0     		sub	sp, sp, #20
 299              		.cfi_def_cfa_offset 24
 300 0004 00AF     		add	r7, sp, #0
 301              		.cfi_def_cfa_register 7
 302 0006 7860     		str	r0, [r7, #4]
 172:..\..\..\Source/list.c **** /* The list item knows which list it is in.  Obtain the list from the list
 173:..\..\..\Source/list.c **** item. */
 174:..\..\..\Source/list.c **** List_t * const pxList = pxItemToRemove->pxContainer;
 303              		.loc 1 174 0
 304 0008 7B68     		ldr	r3, [r7, #4]
 305 000a 1B69     		ldr	r3, [r3, #16]
 306 000c FB60     		str	r3, [r7, #12]
 175:..\..\..\Source/list.c **** 
 176:..\..\..\Source/list.c **** 	pxItemToRemove->pxNext->pxPrevious = pxItemToRemove->pxPrevious;
 307              		.loc 1 176 0
 308 000e 7B68     		ldr	r3, [r7, #4]
 309 0010 5B68     		ldr	r3, [r3, #4]
 310 0012 7A68     		ldr	r2, [r7, #4]
 311 0014 9268     		ldr	r2, [r2, #8]
 312 0016 9A60     		str	r2, [r3, #8]
 177:..\..\..\Source/list.c **** 	pxItemToRemove->pxPrevious->pxNext = pxItemToRemove->pxNext;
 313              		.loc 1 177 0
 314 0018 7B68     		ldr	r3, [r7, #4]
 315 001a 9B68     		ldr	r3, [r3, #8]
 316 001c 7A68     		ldr	r2, [r7, #4]
 317 001e 5268     		ldr	r2, [r2, #4]
 318 0020 5A60     		str	r2, [r3, #4]
 178:..\..\..\Source/list.c **** 
 179:..\..\..\Source/list.c **** 	/* Only used during decision coverage testing. */
 180:..\..\..\Source/list.c **** 	mtCOVERAGE_TEST_DELAY();
 181:..\..\..\Source/list.c **** 
 182:..\..\..\Source/list.c **** 	/* Make sure the index is left pointing to a valid item. */
 183:..\..\..\Source/list.c **** 	if( pxList->pxIndex == pxItemToRemove )
 319              		.loc 1 183 0
 320 0022 FB68     		ldr	r3, [r7, #12]
 321 0024 5A68     		ldr	r2, [r3, #4]
 322 0026 7B68     		ldr	r3, [r7, #4]
 323 0028 9A42     		cmp	r2, r3
 324 002a 03D1     		bne	.L10
 184:..\..\..\Source/list.c **** 	{
 185:..\..\..\Source/list.c **** 		pxList->pxIndex = pxItemToRemove->pxPrevious;
 325              		.loc 1 185 0
 326 002c 7B68     		ldr	r3, [r7, #4]
 327 002e 9A68     		ldr	r2, [r3, #8]
 328 0030 FB68     		ldr	r3, [r7, #12]
ARM GAS  C:\Users\DEREKM~1\AppData\Local\Temp\cctWtALa.s 			page 10


 329 0032 5A60     		str	r2, [r3, #4]
 330              	.L10:
 186:..\..\..\Source/list.c **** 	}
 187:..\..\..\Source/list.c **** 	else
 188:..\..\..\Source/list.c **** 	{
 189:..\..\..\Source/list.c **** 		mtCOVERAGE_TEST_MARKER();
 190:..\..\..\Source/list.c **** 	}
 191:..\..\..\Source/list.c **** 
 192:..\..\..\Source/list.c **** 	pxItemToRemove->pxContainer = NULL;
 331              		.loc 1 192 0
 332 0034 7B68     		ldr	r3, [r7, #4]
 333 0036 0022     		movs	r2, #0
 334 0038 1A61     		str	r2, [r3, #16]
 193:..\..\..\Source/list.c **** 	( pxList->uxNumberOfItems )--;
 335              		.loc 1 193 0
 336 003a FB68     		ldr	r3, [r7, #12]
 337 003c 1B68     		ldr	r3, [r3]
 338 003e 5A1E     		subs	r2, r3, #1
 339 0040 FB68     		ldr	r3, [r7, #12]
 340 0042 1A60     		str	r2, [r3]
 194:..\..\..\Source/list.c **** 
 195:..\..\..\Source/list.c **** 	return pxList->uxNumberOfItems;
 341              		.loc 1 195 0
 342 0044 FB68     		ldr	r3, [r7, #12]
 343 0046 1B68     		ldr	r3, [r3]
 196:..\..\..\Source/list.c **** }
 344              		.loc 1 196 0
 345 0048 1846     		mov	r0, r3
 346 004a 1437     		adds	r7, r7, #20
 347              		.cfi_def_cfa_offset 4
 348 004c BD46     		mov	sp, r7
 349              		.cfi_def_cfa_register 13
 350              		@ sp needed
 351 004e 80BC     		pop	{r7}
 352              		.cfi_restore 7
 353              		.cfi_def_cfa_offset 0
 354 0050 7047     		bx	lr
 355              		.cfi_endproc
 356              	.LFE72:
 357              		.size	uxListRemove, .-uxListRemove
 358 0052 00BF     		.text
 359              	.Letext0:
 360              		.file 2 "./stdint.h"
 361              		.file 3 "../../../Source/portable/GCC/ARM_CM3/portmacro.h"
 362              		.file 4 "../../../Source/include/list.h"
 363              		.file 5 "Generated_Source\\PSoC5/core_cm3.h"
 364              		.section	.debug_info,"",%progbits
 365              	.Ldebug_info0:
 366 0000 CE020000 		.4byte	0x2ce
 367 0004 0400     		.2byte	0x4
 368 0006 00000000 		.4byte	.Ldebug_abbrev0
 369 000a 04       		.byte	0x4
 370 000b 01       		.uleb128 0x1
 371 000c 0B000000 		.4byte	.LASF42
 372 0010 0C       		.byte	0xc
 373 0011 EB000000 		.4byte	.LASF43
 374 0015 0D010000 		.4byte	.LASF44
ARM GAS  C:\Users\DEREKM~1\AppData\Local\Temp\cctWtALa.s 			page 11


 375 0019 00000000 		.4byte	.Ldebug_ranges0+0
 376 001d 00000000 		.4byte	0
 377 0021 00000000 		.4byte	.Ldebug_line0
 378 0025 02       		.uleb128 0x2
 379 0026 04       		.byte	0x4
 380 0027 07       		.byte	0x7
 381 0028 3C020000 		.4byte	.LASF0
 382 002c 03       		.uleb128 0x3
 383 002d 04       		.byte	0x4
 384 002e 05       		.byte	0x5
 385 002f 696E7400 		.ascii	"int\000"
 386 0033 02       		.uleb128 0x2
 387 0034 08       		.byte	0x8
 388 0035 05       		.byte	0x5
 389 0036 A9020000 		.4byte	.LASF1
 390 003a 02       		.uleb128 0x2
 391 003b 08       		.byte	0x8
 392 003c 04       		.byte	0x4
 393 003d 94020000 		.4byte	.LASF2
 394 0041 02       		.uleb128 0x2
 395 0042 01       		.byte	0x1
 396 0043 06       		.byte	0x6
 397 0044 00030000 		.4byte	.LASF3
 398 0048 02       		.uleb128 0x2
 399 0049 01       		.byte	0x1
 400 004a 08       		.byte	0x8
 401 004b AD010000 		.4byte	.LASF4
 402 004f 02       		.uleb128 0x2
 403 0050 02       		.byte	0x2
 404 0051 05       		.byte	0x5
 405 0052 C7020000 		.4byte	.LASF5
 406 0056 02       		.uleb128 0x2
 407 0057 02       		.byte	0x2
 408 0058 07       		.byte	0x7
 409 0059 C7000000 		.4byte	.LASF6
 410 005d 02       		.uleb128 0x2
 411 005e 04       		.byte	0x4
 412 005f 05       		.byte	0x5
 413 0060 DA020000 		.4byte	.LASF7
 414 0064 02       		.uleb128 0x2
 415 0065 04       		.byte	0x4
 416 0066 07       		.byte	0x7
 417 0067 BB010000 		.4byte	.LASF8
 418 006b 02       		.uleb128 0x2
 419 006c 08       		.byte	0x8
 420 006d 07       		.byte	0x7
 421 006e 6B020000 		.4byte	.LASF9
 422 0072 02       		.uleb128 0x2
 423 0073 04       		.byte	0x4
 424 0074 07       		.byte	0x7
 425 0075 A0020000 		.4byte	.LASF10
 426 0079 04       		.uleb128 0x4
 427 007a 04       		.byte	0x4
 428 007b 02       		.uleb128 0x2
 429 007c 01       		.byte	0x1
 430 007d 08       		.byte	0x8
 431 007e B7020000 		.4byte	.LASF11
ARM GAS  C:\Users\DEREKM~1\AppData\Local\Temp\cctWtALa.s 			page 12


 432 0082 05       		.uleb128 0x5
 433 0083 9F010000 		.4byte	.LASF12
 434 0087 02       		.byte	0x2
 435 0088 18       		.byte	0x18
 436 0089 5D000000 		.4byte	0x5d
 437 008d 05       		.uleb128 0x5
 438 008e D1020000 		.4byte	.LASF13
 439 0092 02       		.byte	0x2
 440 0093 19       		.byte	0x19
 441 0094 64000000 		.4byte	0x64
 442 0098 02       		.uleb128 0x2
 443 0099 04       		.byte	0x4
 444 009a 04       		.byte	0x4
 445 009b A7010000 		.4byte	.LASF14
 446 009f 02       		.uleb128 0x2
 447 00a0 08       		.byte	0x8
 448 00a1 04       		.byte	0x4
 449 00a2 0F020000 		.4byte	.LASF15
 450 00a6 05       		.uleb128 0x5
 451 00a7 19030000 		.4byte	.LASF16
 452 00ab 03       		.byte	0x3
 453 00ac 39       		.byte	0x39
 454 00ad 64000000 		.4byte	0x64
 455 00b1 05       		.uleb128 0x5
 456 00b2 00000000 		.4byte	.LASF17
 457 00b6 03       		.byte	0x3
 458 00b7 3F       		.byte	0x3f
 459 00b8 8D000000 		.4byte	0x8d
 460 00bc 06       		.uleb128 0x6
 461 00bd 02010000 		.4byte	.LASF23
 462 00c1 14       		.byte	0x14
 463 00c2 04       		.byte	0x4
 464 00c3 8C       		.byte	0x8c
 465 00c4 05010000 		.4byte	0x105
 466 00c8 07       		.uleb128 0x7
 467 00c9 BC000000 		.4byte	.LASF18
 468 00cd 04       		.byte	0x4
 469 00ce 8F       		.byte	0x8f
 470 00cf B1000000 		.4byte	0xb1
 471 00d3 00       		.byte	0
 472 00d4 07       		.uleb128 0x7
 473 00d5 35020000 		.4byte	.LASF19
 474 00d9 04       		.byte	0x4
 475 00da 90       		.byte	0x90
 476 00db 05010000 		.4byte	0x105
 477 00df 04       		.byte	0x4
 478 00e0 07       		.uleb128 0x7
 479 00e1 DC010000 		.4byte	.LASF20
 480 00e5 04       		.byte	0x4
 481 00e6 91       		.byte	0x91
 482 00e7 05010000 		.4byte	0x105
 483 00eb 08       		.byte	0x8
 484 00ec 07       		.uleb128 0x7
 485 00ed E3000000 		.4byte	.LASF21
 486 00f1 04       		.byte	0x4
 487 00f2 92       		.byte	0x92
 488 00f3 79000000 		.4byte	0x79
ARM GAS  C:\Users\DEREKM~1\AppData\Local\Temp\cctWtALa.s 			page 13


 489 00f7 0C       		.byte	0xc
 490 00f8 07       		.uleb128 0x7
 491 00f9 99000000 		.4byte	.LASF22
 492 00fd 04       		.byte	0x4
 493 00fe 93       		.byte	0x93
 494 00ff 3C010000 		.4byte	0x13c
 495 0103 10       		.byte	0x10
 496 0104 00       		.byte	0
 497 0105 08       		.uleb128 0x8
 498 0106 04       		.byte	0x4
 499 0107 BC000000 		.4byte	0xbc
 500 010b 06       		.uleb128 0x6
 501 010c 13030000 		.4byte	.LASF24
 502 0110 14       		.byte	0x14
 503 0111 04       		.byte	0x4
 504 0112 A4       		.byte	0xa4
 505 0113 3C010000 		.4byte	0x13c
 506 0117 07       		.uleb128 0x7
 507 0118 16020000 		.4byte	.LASF25
 508 011c 04       		.byte	0x4
 509 011d A7       		.byte	0xa7
 510 011e 89010000 		.4byte	0x189
 511 0122 00       		.byte	0
 512 0123 07       		.uleb128 0x7
 513 0124 A5000000 		.4byte	.LASF26
 514 0128 04       		.byte	0x4
 515 0129 A8       		.byte	0xa8
 516 012a 8E010000 		.4byte	0x18e
 517 012e 04       		.byte	0x4
 518 012f 07       		.uleb128 0x7
 519 0130 DA000000 		.4byte	.LASF27
 520 0134 04       		.byte	0x4
 521 0135 A9       		.byte	0xa9
 522 0136 7E010000 		.4byte	0x17e
 523 013a 08       		.byte	0x8
 524 013b 00       		.byte	0
 525 013c 08       		.uleb128 0x8
 526 013d 04       		.byte	0x4
 527 013e 0B010000 		.4byte	0x10b
 528 0142 05       		.uleb128 0x5
 529 0143 89020000 		.4byte	.LASF28
 530 0147 04       		.byte	0x4
 531 0148 96       		.byte	0x96
 532 0149 BC000000 		.4byte	0xbc
 533 014d 06       		.uleb128 0x6
 534 014e F0020000 		.4byte	.LASF29
 535 0152 0C       		.byte	0xc
 536 0153 04       		.byte	0x4
 537 0154 98       		.byte	0x98
 538 0155 7E010000 		.4byte	0x17e
 539 0159 07       		.uleb128 0x7
 540 015a BC000000 		.4byte	.LASF18
 541 015e 04       		.byte	0x4
 542 015f 9B       		.byte	0x9b
 543 0160 B1000000 		.4byte	0xb1
 544 0164 00       		.byte	0
 545 0165 07       		.uleb128 0x7
ARM GAS  C:\Users\DEREKM~1\AppData\Local\Temp\cctWtALa.s 			page 14


 546 0166 35020000 		.4byte	.LASF19
 547 016a 04       		.byte	0x4
 548 016b 9C       		.byte	0x9c
 549 016c 05010000 		.4byte	0x105
 550 0170 04       		.byte	0x4
 551 0171 07       		.uleb128 0x7
 552 0172 DC010000 		.4byte	.LASF20
 553 0176 04       		.byte	0x4
 554 0177 9D       		.byte	0x9d
 555 0178 05010000 		.4byte	0x105
 556 017c 08       		.byte	0x8
 557 017d 00       		.byte	0
 558 017e 05       		.uleb128 0x5
 559 017f AD000000 		.4byte	.LASF30
 560 0183 04       		.byte	0x4
 561 0184 9F       		.byte	0x9f
 562 0185 4D010000 		.4byte	0x14d
 563 0189 09       		.uleb128 0x9
 564 018a A6000000 		.4byte	0xa6
 565 018e 08       		.uleb128 0x8
 566 018f 04       		.byte	0x4
 567 0190 42010000 		.4byte	0x142
 568 0194 05       		.uleb128 0x5
 569 0195 08020000 		.4byte	.LASF31
 570 0199 04       		.byte	0x4
 571 019a AB       		.byte	0xab
 572 019b 0B010000 		.4byte	0x10b
 573 019f 0A       		.uleb128 0xa
 574 01a0 49020000 		.4byte	.LASF32
 575 01a4 01       		.byte	0x1
 576 01a5 25       		.byte	0x25
 577 01a6 00000000 		.4byte	.LFB68
 578 01aa 3E000000 		.4byte	.LFE68-.LFB68
 579 01ae 01       		.uleb128 0x1
 580 01af 9C       		.byte	0x9c
 581 01b0 C3010000 		.4byte	0x1c3
 582 01b4 0B       		.uleb128 0xb
 583 01b5 0C030000 		.4byte	.LASF34
 584 01b9 01       		.byte	0x1
 585 01ba 25       		.byte	0x25
 586 01bb C9010000 		.4byte	0x1c9
 587 01bf 02       		.uleb128 0x2
 588 01c0 91       		.byte	0x91
 589 01c1 74       		.sleb128 -12
 590 01c2 00       		.byte	0
 591 01c3 08       		.uleb128 0x8
 592 01c4 04       		.byte	0x4
 593 01c5 94010000 		.4byte	0x194
 594 01c9 0C       		.uleb128 0xc
 595 01ca C3010000 		.4byte	0x1c3
 596 01ce 0A       		.uleb128 0xa
 597 01cf F4010000 		.4byte	.LASF33
 598 01d3 01       		.byte	0x1
 599 01d4 3E       		.byte	0x3e
 600 01d5 00000000 		.4byte	.LFB69
 601 01d9 18000000 		.4byte	.LFE69-.LFB69
 602 01dd 01       		.uleb128 0x1
ARM GAS  C:\Users\DEREKM~1\AppData\Local\Temp\cctWtALa.s 			page 15


 603 01de 9C       		.byte	0x9c
 604 01df F2010000 		.4byte	0x1f2
 605 01e3 0B       		.uleb128 0xb
 606 01e4 82020000 		.4byte	.LASF35
 607 01e8 01       		.byte	0x1
 608 01e9 3E       		.byte	0x3e
 609 01ea F2010000 		.4byte	0x1f2
 610 01ee 02       		.uleb128 0x2
 611 01ef 91       		.byte	0x91
 612 01f0 74       		.sleb128 -12
 613 01f1 00       		.byte	0
 614 01f2 0C       		.uleb128 0xc
 615 01f3 8E010000 		.4byte	0x18e
 616 01f7 0A       		.uleb128 0xa
 617 01f8 26020000 		.4byte	.LASF36
 618 01fc 01       		.byte	0x1
 619 01fd 4A       		.byte	0x4a
 620 01fe 00000000 		.4byte	.LFB70
 621 0202 46000000 		.4byte	.LFE70-.LFB70
 622 0206 01       		.uleb128 0x1
 623 0207 9C       		.byte	0x9c
 624 0208 37020000 		.4byte	0x237
 625 020c 0B       		.uleb128 0xb
 626 020d 0C030000 		.4byte	.LASF34
 627 0211 01       		.byte	0x1
 628 0212 4A       		.byte	0x4a
 629 0213 C9010000 		.4byte	0x1c9
 630 0217 02       		.uleb128 0x2
 631 0218 91       		.byte	0x91
 632 0219 6C       		.sleb128 -20
 633 021a 0B       		.uleb128 0xb
 634 021b 25030000 		.4byte	.LASF37
 635 021f 01       		.byte	0x1
 636 0220 4A       		.byte	0x4a
 637 0221 F2010000 		.4byte	0x1f2
 638 0225 02       		.uleb128 0x2
 639 0226 91       		.byte	0x91
 640 0227 68       		.sleb128 -24
 641 0228 0D       		.uleb128 0xd
 642 0229 A5000000 		.4byte	.LASF26
 643 022d 01       		.byte	0x1
 644 022e 4C       		.byte	0x4c
 645 022f F2010000 		.4byte	0x1f2
 646 0233 02       		.uleb128 0x2
 647 0234 91       		.byte	0x91
 648 0235 74       		.sleb128 -12
 649 0236 00       		.byte	0
 650 0237 0A       		.uleb128 0xa
 651 0238 33030000 		.4byte	.LASF38
 652 023c 01       		.byte	0x1
 653 023d 67       		.byte	0x67
 654 023e 00000000 		.4byte	.LFB71
 655 0242 70000000 		.4byte	.LFE71-.LFB71
 656 0246 01       		.uleb128 0x1
 657 0247 9C       		.byte	0x9c
 658 0248 85020000 		.4byte	0x285
 659 024c 0B       		.uleb128 0xb
ARM GAS  C:\Users\DEREKM~1\AppData\Local\Temp\cctWtALa.s 			page 16


 660 024d 0C030000 		.4byte	.LASF34
 661 0251 01       		.byte	0x1
 662 0252 67       		.byte	0x67
 663 0253 C9010000 		.4byte	0x1c9
 664 0257 02       		.uleb128 0x2
 665 0258 91       		.byte	0x91
 666 0259 6C       		.sleb128 -20
 667 025a 0B       		.uleb128 0xb
 668 025b 25030000 		.4byte	.LASF37
 669 025f 01       		.byte	0x1
 670 0260 67       		.byte	0x67
 671 0261 F2010000 		.4byte	0x1f2
 672 0265 02       		.uleb128 0x2
 673 0266 91       		.byte	0x91
 674 0267 68       		.sleb128 -24
 675 0268 0D       		.uleb128 0xd
 676 0269 BC020000 		.4byte	.LASF39
 677 026d 01       		.byte	0x1
 678 026e 69       		.byte	0x69
 679 026f 8E010000 		.4byte	0x18e
 680 0273 02       		.uleb128 0x2
 681 0274 91       		.byte	0x91
 682 0275 74       		.sleb128 -12
 683 0276 0D       		.uleb128 0xd
 684 0277 59020000 		.4byte	.LASF40
 685 027b 01       		.byte	0x1
 686 027c 6A       		.byte	0x6a
 687 027d 85020000 		.4byte	0x285
 688 0281 02       		.uleb128 0x2
 689 0282 91       		.byte	0x91
 690 0283 70       		.sleb128 -16
 691 0284 00       		.byte	0
 692 0285 0C       		.uleb128 0xc
 693 0286 B1000000 		.4byte	0xb1
 694 028a 0E       		.uleb128 0xe
 695 028b E3020000 		.4byte	.LASF45
 696 028f 01       		.byte	0x1
 697 0290 AA       		.byte	0xaa
 698 0291 A6000000 		.4byte	0xa6
 699 0295 00000000 		.4byte	.LFB72
 700 0299 52000000 		.4byte	.LFE72-.LFB72
 701 029d 01       		.uleb128 0x1
 702 029e 9C       		.byte	0x9c
 703 029f C0020000 		.4byte	0x2c0
 704 02a3 0B       		.uleb128 0xb
 705 02a4 CD010000 		.4byte	.LASF41
 706 02a8 01       		.byte	0x1
 707 02a9 AA       		.byte	0xaa
 708 02aa F2010000 		.4byte	0x1f2
 709 02ae 02       		.uleb128 0x2
 710 02af 91       		.byte	0x91
 711 02b0 6C       		.sleb128 -20
 712 02b1 0D       		.uleb128 0xd
 713 02b2 0C030000 		.4byte	.LASF34
 714 02b6 01       		.byte	0x1
 715 02b7 AE       		.byte	0xae
 716 02b8 C9010000 		.4byte	0x1c9
ARM GAS  C:\Users\DEREKM~1\AppData\Local\Temp\cctWtALa.s 			page 17


 717 02bc 02       		.uleb128 0x2
 718 02bd 91       		.byte	0x91
 719 02be 74       		.sleb128 -12
 720 02bf 00       		.byte	0
 721 02c0 0F       		.uleb128 0xf
 722 02c1 E7010000 		.4byte	.LASF46
 723 02c5 05       		.byte	0x5
 724 02c6 1207     		.2byte	0x712
 725 02c8 CC020000 		.4byte	0x2cc
 726 02cc 09       		.uleb128 0x9
 727 02cd 82000000 		.4byte	0x82
 728 02d1 00       		.byte	0
 729              		.section	.debug_abbrev,"",%progbits
 730              	.Ldebug_abbrev0:
 731 0000 01       		.uleb128 0x1
 732 0001 11       		.uleb128 0x11
 733 0002 01       		.byte	0x1
 734 0003 25       		.uleb128 0x25
 735 0004 0E       		.uleb128 0xe
 736 0005 13       		.uleb128 0x13
 737 0006 0B       		.uleb128 0xb
 738 0007 03       		.uleb128 0x3
 739 0008 0E       		.uleb128 0xe
 740 0009 1B       		.uleb128 0x1b
 741 000a 0E       		.uleb128 0xe
 742 000b 55       		.uleb128 0x55
 743 000c 17       		.uleb128 0x17
 744 000d 11       		.uleb128 0x11
 745 000e 01       		.uleb128 0x1
 746 000f 10       		.uleb128 0x10
 747 0010 17       		.uleb128 0x17
 748 0011 00       		.byte	0
 749 0012 00       		.byte	0
 750 0013 02       		.uleb128 0x2
 751 0014 24       		.uleb128 0x24
 752 0015 00       		.byte	0
 753 0016 0B       		.uleb128 0xb
 754 0017 0B       		.uleb128 0xb
 755 0018 3E       		.uleb128 0x3e
 756 0019 0B       		.uleb128 0xb
 757 001a 03       		.uleb128 0x3
 758 001b 0E       		.uleb128 0xe
 759 001c 00       		.byte	0
 760 001d 00       		.byte	0
 761 001e 03       		.uleb128 0x3
 762 001f 24       		.uleb128 0x24
 763 0020 00       		.byte	0
 764 0021 0B       		.uleb128 0xb
 765 0022 0B       		.uleb128 0xb
 766 0023 3E       		.uleb128 0x3e
 767 0024 0B       		.uleb128 0xb
 768 0025 03       		.uleb128 0x3
 769 0026 08       		.uleb128 0x8
 770 0027 00       		.byte	0
 771 0028 00       		.byte	0
 772 0029 04       		.uleb128 0x4
 773 002a 0F       		.uleb128 0xf
ARM GAS  C:\Users\DEREKM~1\AppData\Local\Temp\cctWtALa.s 			page 18


 774 002b 00       		.byte	0
 775 002c 0B       		.uleb128 0xb
 776 002d 0B       		.uleb128 0xb
 777 002e 00       		.byte	0
 778 002f 00       		.byte	0
 779 0030 05       		.uleb128 0x5
 780 0031 16       		.uleb128 0x16
 781 0032 00       		.byte	0
 782 0033 03       		.uleb128 0x3
 783 0034 0E       		.uleb128 0xe
 784 0035 3A       		.uleb128 0x3a
 785 0036 0B       		.uleb128 0xb
 786 0037 3B       		.uleb128 0x3b
 787 0038 0B       		.uleb128 0xb
 788 0039 49       		.uleb128 0x49
 789 003a 13       		.uleb128 0x13
 790 003b 00       		.byte	0
 791 003c 00       		.byte	0
 792 003d 06       		.uleb128 0x6
 793 003e 13       		.uleb128 0x13
 794 003f 01       		.byte	0x1
 795 0040 03       		.uleb128 0x3
 796 0041 0E       		.uleb128 0xe
 797 0042 0B       		.uleb128 0xb
 798 0043 0B       		.uleb128 0xb
 799 0044 3A       		.uleb128 0x3a
 800 0045 0B       		.uleb128 0xb
 801 0046 3B       		.uleb128 0x3b
 802 0047 0B       		.uleb128 0xb
 803 0048 01       		.uleb128 0x1
 804 0049 13       		.uleb128 0x13
 805 004a 00       		.byte	0
 806 004b 00       		.byte	0
 807 004c 07       		.uleb128 0x7
 808 004d 0D       		.uleb128 0xd
 809 004e 00       		.byte	0
 810 004f 03       		.uleb128 0x3
 811 0050 0E       		.uleb128 0xe
 812 0051 3A       		.uleb128 0x3a
 813 0052 0B       		.uleb128 0xb
 814 0053 3B       		.uleb128 0x3b
 815 0054 0B       		.uleb128 0xb
 816 0055 49       		.uleb128 0x49
 817 0056 13       		.uleb128 0x13
 818 0057 38       		.uleb128 0x38
 819 0058 0B       		.uleb128 0xb
 820 0059 00       		.byte	0
 821 005a 00       		.byte	0
 822 005b 08       		.uleb128 0x8
 823 005c 0F       		.uleb128 0xf
 824 005d 00       		.byte	0
 825 005e 0B       		.uleb128 0xb
 826 005f 0B       		.uleb128 0xb
 827 0060 49       		.uleb128 0x49
 828 0061 13       		.uleb128 0x13
 829 0062 00       		.byte	0
 830 0063 00       		.byte	0
ARM GAS  C:\Users\DEREKM~1\AppData\Local\Temp\cctWtALa.s 			page 19


 831 0064 09       		.uleb128 0x9
 832 0065 35       		.uleb128 0x35
 833 0066 00       		.byte	0
 834 0067 49       		.uleb128 0x49
 835 0068 13       		.uleb128 0x13
 836 0069 00       		.byte	0
 837 006a 00       		.byte	0
 838 006b 0A       		.uleb128 0xa
 839 006c 2E       		.uleb128 0x2e
 840 006d 01       		.byte	0x1
 841 006e 3F       		.uleb128 0x3f
 842 006f 19       		.uleb128 0x19
 843 0070 03       		.uleb128 0x3
 844 0071 0E       		.uleb128 0xe
 845 0072 3A       		.uleb128 0x3a
 846 0073 0B       		.uleb128 0xb
 847 0074 3B       		.uleb128 0x3b
 848 0075 0B       		.uleb128 0xb
 849 0076 27       		.uleb128 0x27
 850 0077 19       		.uleb128 0x19
 851 0078 11       		.uleb128 0x11
 852 0079 01       		.uleb128 0x1
 853 007a 12       		.uleb128 0x12
 854 007b 06       		.uleb128 0x6
 855 007c 40       		.uleb128 0x40
 856 007d 18       		.uleb128 0x18
 857 007e 9742     		.uleb128 0x2117
 858 0080 19       		.uleb128 0x19
 859 0081 01       		.uleb128 0x1
 860 0082 13       		.uleb128 0x13
 861 0083 00       		.byte	0
 862 0084 00       		.byte	0
 863 0085 0B       		.uleb128 0xb
 864 0086 05       		.uleb128 0x5
 865 0087 00       		.byte	0
 866 0088 03       		.uleb128 0x3
 867 0089 0E       		.uleb128 0xe
 868 008a 3A       		.uleb128 0x3a
 869 008b 0B       		.uleb128 0xb
 870 008c 3B       		.uleb128 0x3b
 871 008d 0B       		.uleb128 0xb
 872 008e 49       		.uleb128 0x49
 873 008f 13       		.uleb128 0x13
 874 0090 02       		.uleb128 0x2
 875 0091 18       		.uleb128 0x18
 876 0092 00       		.byte	0
 877 0093 00       		.byte	0
 878 0094 0C       		.uleb128 0xc
 879 0095 26       		.uleb128 0x26
 880 0096 00       		.byte	0
 881 0097 49       		.uleb128 0x49
 882 0098 13       		.uleb128 0x13
 883 0099 00       		.byte	0
 884 009a 00       		.byte	0
 885 009b 0D       		.uleb128 0xd
 886 009c 34       		.uleb128 0x34
 887 009d 00       		.byte	0
ARM GAS  C:\Users\DEREKM~1\AppData\Local\Temp\cctWtALa.s 			page 20


 888 009e 03       		.uleb128 0x3
 889 009f 0E       		.uleb128 0xe
 890 00a0 3A       		.uleb128 0x3a
 891 00a1 0B       		.uleb128 0xb
 892 00a2 3B       		.uleb128 0x3b
 893 00a3 0B       		.uleb128 0xb
 894 00a4 49       		.uleb128 0x49
 895 00a5 13       		.uleb128 0x13
 896 00a6 02       		.uleb128 0x2
 897 00a7 18       		.uleb128 0x18
 898 00a8 00       		.byte	0
 899 00a9 00       		.byte	0
 900 00aa 0E       		.uleb128 0xe
 901 00ab 2E       		.uleb128 0x2e
 902 00ac 01       		.byte	0x1
 903 00ad 3F       		.uleb128 0x3f
 904 00ae 19       		.uleb128 0x19
 905 00af 03       		.uleb128 0x3
 906 00b0 0E       		.uleb128 0xe
 907 00b1 3A       		.uleb128 0x3a
 908 00b2 0B       		.uleb128 0xb
 909 00b3 3B       		.uleb128 0x3b
 910 00b4 0B       		.uleb128 0xb
 911 00b5 27       		.uleb128 0x27
 912 00b6 19       		.uleb128 0x19
 913 00b7 49       		.uleb128 0x49
 914 00b8 13       		.uleb128 0x13
 915 00b9 11       		.uleb128 0x11
 916 00ba 01       		.uleb128 0x1
 917 00bb 12       		.uleb128 0x12
 918 00bc 06       		.uleb128 0x6
 919 00bd 40       		.uleb128 0x40
 920 00be 18       		.uleb128 0x18
 921 00bf 9742     		.uleb128 0x2117
 922 00c1 19       		.uleb128 0x19
 923 00c2 01       		.uleb128 0x1
 924 00c3 13       		.uleb128 0x13
 925 00c4 00       		.byte	0
 926 00c5 00       		.byte	0
 927 00c6 0F       		.uleb128 0xf
 928 00c7 34       		.uleb128 0x34
 929 00c8 00       		.byte	0
 930 00c9 03       		.uleb128 0x3
 931 00ca 0E       		.uleb128 0xe
 932 00cb 3A       		.uleb128 0x3a
 933 00cc 0B       		.uleb128 0xb
 934 00cd 3B       		.uleb128 0x3b
 935 00ce 05       		.uleb128 0x5
 936 00cf 49       		.uleb128 0x49
 937 00d0 13       		.uleb128 0x13
 938 00d1 3F       		.uleb128 0x3f
 939 00d2 19       		.uleb128 0x19
 940 00d3 3C       		.uleb128 0x3c
 941 00d4 19       		.uleb128 0x19
 942 00d5 00       		.byte	0
 943 00d6 00       		.byte	0
 944 00d7 00       		.byte	0
ARM GAS  C:\Users\DEREKM~1\AppData\Local\Temp\cctWtALa.s 			page 21


 945              		.section	.debug_aranges,"",%progbits
 946 0000 3C000000 		.4byte	0x3c
 947 0004 0200     		.2byte	0x2
 948 0006 00000000 		.4byte	.Ldebug_info0
 949 000a 04       		.byte	0x4
 950 000b 00       		.byte	0
 951 000c 0000     		.2byte	0
 952 000e 0000     		.2byte	0
 953 0010 00000000 		.4byte	.LFB68
 954 0014 3E000000 		.4byte	.LFE68-.LFB68
 955 0018 00000000 		.4byte	.LFB69
 956 001c 18000000 		.4byte	.LFE69-.LFB69
 957 0020 00000000 		.4byte	.LFB70
 958 0024 46000000 		.4byte	.LFE70-.LFB70
 959 0028 00000000 		.4byte	.LFB71
 960 002c 70000000 		.4byte	.LFE71-.LFB71
 961 0030 00000000 		.4byte	.LFB72
 962 0034 52000000 		.4byte	.LFE72-.LFB72
 963 0038 00000000 		.4byte	0
 964 003c 00000000 		.4byte	0
 965              		.section	.debug_ranges,"",%progbits
 966              	.Ldebug_ranges0:
 967 0000 00000000 		.4byte	.LFB68
 968 0004 3E000000 		.4byte	.LFE68
 969 0008 00000000 		.4byte	.LFB69
 970 000c 18000000 		.4byte	.LFE69
 971 0010 00000000 		.4byte	.LFB70
 972 0014 46000000 		.4byte	.LFE70
 973 0018 00000000 		.4byte	.LFB71
 974 001c 70000000 		.4byte	.LFE71
 975 0020 00000000 		.4byte	.LFB72
 976 0024 52000000 		.4byte	.LFE72
 977 0028 00000000 		.4byte	0
 978 002c 00000000 		.4byte	0
 979              		.section	.debug_line,"",%progbits
 980              	.Ldebug_line0:
 981 0000 40010000 		.section	.debug_str,"MS",%progbits,1
 981      0200B600 
 981      00000201 
 981      FB0E0D00 
 981      01010101 
 982              	.LASF17:
 983 0000 5469636B 		.ascii	"TickType_t\000"
 983      54797065 
 983      5F7400
 984              	.LASF42:
 985 000b 474E5520 		.ascii	"GNU C11 5.4.1 20160609 (release) [ARM/embedded-5-br"
 985      43313120 
 985      352E342E 
 985      31203230 
 985      31363036 
 986 003e 616E6368 		.ascii	"anch revision 237715] -mcpu=cortex-m3 -mthumb -g -O"
 986      20726576 
 986      6973696F 
 986      6E203233 
 986      37373135 
 987 0071 30202D66 		.ascii	"0 -ffunction-sections -ffat-lto-objects\000"
ARM GAS  C:\Users\DEREKM~1\AppData\Local\Temp\cctWtALa.s 			page 22


 987      66756E63 
 987      74696F6E 
 987      2D736563 
 987      74696F6E 
 988              	.LASF22:
 989 0099 7076436F 		.ascii	"pvContainer\000"
 989      6E746169 
 989      6E657200 
 990              	.LASF26:
 991 00a5 7078496E 		.ascii	"pxIndex\000"
 991      64657800 
 992              	.LASF30:
 993 00ad 4D696E69 		.ascii	"MiniListItem_t\000"
 993      4C697374 
 993      4974656D 
 993      5F7400
 994              	.LASF18:
 995 00bc 78497465 		.ascii	"xItemValue\000"
 995      6D56616C 
 995      756500
 996              	.LASF6:
 997 00c7 73686F72 		.ascii	"short unsigned int\000"
 997      7420756E 
 997      7369676E 
 997      65642069 
 997      6E7400
 998              	.LASF27:
 999 00da 784C6973 		.ascii	"xListEnd\000"
 999      74456E64 
 999      00
 1000              	.LASF21:
 1001 00e3 70764F77 		.ascii	"pvOwner\000"
 1001      6E657200 
 1002              	.LASF43:
 1003 00eb 2E2E5C2E 		.ascii	"..\\..\\..\\Source\\list.c\000"
 1003      2E5C2E2E 
 1003      5C536F75 
 1003      7263655C 
 1003      6C697374 
 1004              	.LASF23:
 1005 0102 784C4953 		.ascii	"xLIST_ITEM\000"
 1005      545F4954 
 1005      454D00
 1006              	.LASF44:
 1007 010d 433A5C55 		.ascii	"C:\\Users\\Derek Marsch\\Documents\\SIUE\\491\\free"
 1007      73657273 
 1007      5C446572 
 1007      656B204D 
 1007      61727363 
 1008 013a 72746F73 		.ascii	"rtos_psoc5\\FreeRTOSv10.2.1_191129\\FreeRTOS\\Demo\\"
 1008      5F70736F 
 1008      63355C46 
 1008      72656552 
 1008      544F5376 
 1009 016a 434F5254 		.ascii	"CORTEX_CY8C5588_PSoC_Creator_GCC\\FreeRTOS_Demo.cyd"
 1009      45585F43 
 1009      59384335 
ARM GAS  C:\Users\DEREKM~1\AppData\Local\Temp\cctWtALa.s 			page 23


 1009      3538385F 
 1009      50536F43 
 1010 019c 736E00   		.ascii	"sn\000"
 1011              	.LASF12:
 1012 019f 696E7433 		.ascii	"int32_t\000"
 1012      325F7400 
 1013              	.LASF14:
 1014 01a7 666C6F61 		.ascii	"float\000"
 1014      7400
 1015              	.LASF4:
 1016 01ad 756E7369 		.ascii	"unsigned char\000"
 1016      676E6564 
 1016      20636861 
 1016      7200
 1017              	.LASF8:
 1018 01bb 6C6F6E67 		.ascii	"long unsigned int\000"
 1018      20756E73 
 1018      69676E65 
 1018      6420696E 
 1018      7400
 1019              	.LASF41:
 1020 01cd 70784974 		.ascii	"pxItemToRemove\000"
 1020      656D546F 
 1020      52656D6F 
 1020      766500
 1021              	.LASF20:
 1022 01dc 70785072 		.ascii	"pxPrevious\000"
 1022      6576696F 
 1022      757300
 1023              	.LASF46:
 1024 01e7 49544D5F 		.ascii	"ITM_RxBuffer\000"
 1024      52784275 
 1024      66666572 
 1024      00
 1025              	.LASF33:
 1026 01f4 764C6973 		.ascii	"vListInitialiseItem\000"
 1026      74496E69 
 1026      7469616C 
 1026      69736549 
 1026      74656D00 
 1027              	.LASF31:
 1028 0208 4C697374 		.ascii	"List_t\000"
 1028      5F7400
 1029              	.LASF15:
 1030 020f 646F7562 		.ascii	"double\000"
 1030      6C6500
 1031              	.LASF25:
 1032 0216 75784E75 		.ascii	"uxNumberOfItems\000"
 1032      6D626572 
 1032      4F664974 
 1032      656D7300 
 1033              	.LASF36:
 1034 0226 764C6973 		.ascii	"vListInsertEnd\000"
 1034      74496E73 
 1034      65727445 
 1034      6E6400
 1035              	.LASF19:
ARM GAS  C:\Users\DEREKM~1\AppData\Local\Temp\cctWtALa.s 			page 24


 1036 0235 70784E65 		.ascii	"pxNext\000"
 1036      787400
 1037              	.LASF0:
 1038 023c 756E7369 		.ascii	"unsigned int\000"
 1038      676E6564 
 1038      20696E74 
 1038      00
 1039              	.LASF32:
 1040 0249 764C6973 		.ascii	"vListInitialise\000"
 1040      74496E69 
 1040      7469616C 
 1040      69736500 
 1041              	.LASF40:
 1042 0259 7856616C 		.ascii	"xValueOfInsertion\000"
 1042      75654F66 
 1042      496E7365 
 1042      7274696F 
 1042      6E00
 1043              	.LASF9:
 1044 026b 6C6F6E67 		.ascii	"long long unsigned int\000"
 1044      206C6F6E 
 1044      6720756E 
 1044      7369676E 
 1044      65642069 
 1045              	.LASF35:
 1046 0282 70784974 		.ascii	"pxItem\000"
 1046      656D00
 1047              	.LASF28:
 1048 0289 4C697374 		.ascii	"ListItem_t\000"
 1048      4974656D 
 1048      5F7400
 1049              	.LASF2:
 1050 0294 6C6F6E67 		.ascii	"long double\000"
 1050      20646F75 
 1050      626C6500 
 1051              	.LASF10:
 1052 02a0 73697A65 		.ascii	"sizetype\000"
 1052      74797065 
 1052      00
 1053              	.LASF1:
 1054 02a9 6C6F6E67 		.ascii	"long long int\000"
 1054      206C6F6E 
 1054      6720696E 
 1054      7400
 1055              	.LASF11:
 1056 02b7 63686172 		.ascii	"char\000"
 1056      00
 1057              	.LASF39:
 1058 02bc 70784974 		.ascii	"pxIterator\000"
 1058      65726174 
 1058      6F7200
 1059              	.LASF5:
 1060 02c7 73686F72 		.ascii	"short int\000"
 1060      7420696E 
 1060      7400
 1061              	.LASF13:
 1062 02d1 75696E74 		.ascii	"uint32_t\000"
ARM GAS  C:\Users\DEREKM~1\AppData\Local\Temp\cctWtALa.s 			page 25


 1062      33325F74 
 1062      00
 1063              	.LASF7:
 1064 02da 6C6F6E67 		.ascii	"long int\000"
 1064      20696E74 
 1064      00
 1065              	.LASF45:
 1066 02e3 75784C69 		.ascii	"uxListRemove\000"
 1066      73745265 
 1066      6D6F7665 
 1066      00
 1067              	.LASF29:
 1068 02f0 784D494E 		.ascii	"xMINI_LIST_ITEM\000"
 1068      495F4C49 
 1068      53545F49 
 1068      54454D00 
 1069              	.LASF3:
 1070 0300 7369676E 		.ascii	"signed char\000"
 1070      65642063 
 1070      68617200 
 1071              	.LASF34:
 1072 030c 70784C69 		.ascii	"pxList\000"
 1072      737400
 1073              	.LASF24:
 1074 0313 784C4953 		.ascii	"xLIST\000"
 1074      5400
 1075              	.LASF16:
 1076 0319 55426173 		.ascii	"UBaseType_t\000"
 1076      65547970 
 1076      655F7400 
 1077              	.LASF37:
 1078 0325 70784E65 		.ascii	"pxNewListItem\000"
 1078      774C6973 
 1078      74497465 
 1078      6D00
 1079              	.LASF38:
 1080 0333 764C6973 		.ascii	"vListInsert\000"
 1080      74496E73 
 1080      65727400 
 1081              		.ident	"GCC: (GNU Tools for ARM Embedded Processors) 5.4.1 20160609 (release) [ARM/embedded-5-bran
