ARM GAS  C:\Users\DEREKM~1\AppData\Local\Temp\ccBMzeMc.s 			page 1


   1              		.syntax unified
   2              		.cpu cortex-m3
   3              		.fpu softvfp
   4              		.eabi_attribute 20, 1
   5              		.eabi_attribute 21, 1
   6              		.eabi_attribute 23, 3
   7              		.eabi_attribute 24, 1
   8              		.eabi_attribute 25, 1
   9              		.eabi_attribute 26, 1
  10              		.eabi_attribute 30, 6
  11              		.eabi_attribute 34, 1
  12              		.eabi_attribute 18, 4
  13              		.thumb
  14              		.syntax unified
  15              		.file	"Serial.c"
  16              		.text
  17              	.Ltext0:
  18              		.cfi_sections	.debug_frame
  19              		.bss
  20              		.align	2
  21              	xSerialTxQueue:
  22 0000 00000000 		.space	4
  23              		.align	2
  24              	xSerialRxQueue:
  25 0004 00000000 		.space	4
  26              		.section	.text.xSerialPortInitMinimal,"ax",%progbits
  27              		.align	2
  28              		.global	xSerialPortInitMinimal
  29              		.thumb
  30              		.thumb_func
  31              		.type	xSerialPortInitMinimal, %function
  32              	xSerialPortInitMinimal:
  33              	.LFB68:
  34              		.file 1 "Serial.c"
   1:Serial.c      **** /*
   2:Serial.c      ****  * FreeRTOS Kernel V10.2.1
   3:Serial.c      ****  * Copyright (C) 2019 Amazon.com, Inc. or its affiliates.  All Rights Reserved.
   4:Serial.c      ****  *
   5:Serial.c      ****  * Permission is hereby granted, free of charge, to any person obtaining a copy of
   6:Serial.c      ****  * this software and associated documentation files (the "Software"), to deal in
   7:Serial.c      ****  * the Software without restriction, including without limitation the rights to
   8:Serial.c      ****  * use, copy, modify, merge, publish, distribute, sublicense, and/or sell copies of
   9:Serial.c      ****  * the Software, and to permit persons to whom the Software is furnished to do so,
  10:Serial.c      ****  * subject to the following conditions:
  11:Serial.c      ****  *
  12:Serial.c      ****  * The above copyright notice and this permission notice shall be included in all
  13:Serial.c      ****  * copies or substantial portions of the Software.
  14:Serial.c      ****  *
  15:Serial.c      ****  * THE SOFTWARE IS PROVIDED "AS IS", WITHOUT WARRANTY OF ANY KIND, EXPRESS OR
  16:Serial.c      ****  * IMPLIED, INCLUDING BUT NOT LIMITED TO THE WARRANTIES OF MERCHANTABILITY, FITNESS
  17:Serial.c      ****  * FOR A PARTICULAR PURPOSE AND NONINFRINGEMENT. IN NO EVENT SHALL THE AUTHORS OR
  18:Serial.c      ****  * COPYRIGHT HOLDERS BE LIABLE FOR ANY CLAIM, DAMAGES OR OTHER LIABILITY, WHETHER
  19:Serial.c      ****  * IN AN ACTION OF CONTRACT, TORT OR OTHERWISE, ARISING FROM, OUT OF OR IN
  20:Serial.c      ****  * CONNECTION WITH THE SOFTWARE OR THE USE OR OTHER DEALINGS IN THE SOFTWARE.
  21:Serial.c      ****  *
  22:Serial.c      ****  * http://www.FreeRTOS.org
  23:Serial.c      ****  * http://aws.amazon.com/freertos
ARM GAS  C:\Users\DEREKM~1\AppData\Local\Temp\ccBMzeMc.s 			page 2


  24:Serial.c      ****  *
  25:Serial.c      ****  * 1 tab == 4 spaces!
  26:Serial.c      ****  */
  27:Serial.c      **** 
  28:Serial.c      **** #include <device.h>
  29:Serial.c      **** #include "FreeRTOS.h"
  30:Serial.c      **** #include "queue.h"
  31:Serial.c      **** #include "task.h"
  32:Serial.c      **** #include "serial.h"
  33:Serial.c      **** /*---------------------------------------------------------------------------*/
  34:Serial.c      **** 
  35:Serial.c      **** #define serialSTRING_DELAY_TICKS		( portMAX_DELAY )
  36:Serial.c      **** /*---------------------------------------------------------------------------*/
  37:Serial.c      **** 
  38:Serial.c      **** CY_ISR_PROTO( vUartRxISR );
  39:Serial.c      **** CY_ISR_PROTO( vUartTxISR );
  40:Serial.c      **** /*---------------------------------------------------------------------------*/
  41:Serial.c      **** 
  42:Serial.c      **** static QueueHandle_t xSerialTxQueue = NULL;
  43:Serial.c      **** static QueueHandle_t xSerialRxQueue = NULL;
  44:Serial.c      **** /*---------------------------------------------------------------------------*/
  45:Serial.c      **** 
  46:Serial.c      **** xComPortHandle xSerialPortInitMinimal( unsigned long ulWantedBaud, unsigned portBASE_TYPE uxQueueLe
  47:Serial.c      **** {
  35              		.loc 1 47 0
  36              		.cfi_startproc
  37              		@ args = 0, pretend = 0, frame = 8
  38              		@ frame_needed = 1, uses_anonymous_args = 0
  39 0000 80B5     		push	{r7, lr}
  40              		.cfi_def_cfa_offset 8
  41              		.cfi_offset 7, -8
  42              		.cfi_offset 14, -4
  43 0002 82B0     		sub	sp, sp, #8
  44              		.cfi_def_cfa_offset 16
  45 0004 00AF     		add	r7, sp, #0
  46              		.cfi_def_cfa_register 7
  47 0006 7860     		str	r0, [r7, #4]
  48 0008 3960     		str	r1, [r7]
  48:Serial.c      **** 	/* Configure Rx. */
  49:Serial.c      **** 	xSerialRxQueue = xQueueCreate( uxQueueLength, sizeof( signed char ) );	
  49              		.loc 1 49 0
  50 000a 0022     		movs	r2, #0
  51 000c 0121     		movs	r1, #1
  52 000e 3868     		ldr	r0, [r7]
  53 0010 FFF7FEFF 		bl	xQueueGenericCreate
  54 0014 0246     		mov	r2, r0
  55 0016 134B     		ldr	r3, .L5
  56 0018 1A60     		str	r2, [r3]
  50:Serial.c      **** 	isr_UART1_RX_BYTE_RECEIVED_ClearPending();
  57              		.loc 1 50 0
  58 001a FFF7FEFF 		bl	isr_UART1_RX_BYTE_RECEIVED_ClearPending
  51:Serial.c      **** 	isr_UART1_RX_BYTE_RECEIVED_StartEx(vUartRxISR);
  59              		.loc 1 51 0
  60 001e 1248     		ldr	r0, .L5+4
  61 0020 FFF7FEFF 		bl	isr_UART1_RX_BYTE_RECEIVED_StartEx
  52:Serial.c      **** 
  53:Serial.c      **** 	/* Configure Tx */
ARM GAS  C:\Users\DEREKM~1\AppData\Local\Temp\ccBMzeMc.s 			page 3


  54:Serial.c      **** 	xSerialTxQueue = xQueueCreate( uxQueueLength, sizeof( signed char ) );
  62              		.loc 1 54 0
  63 0024 0022     		movs	r2, #0
  64 0026 0121     		movs	r1, #1
  65 0028 3868     		ldr	r0, [r7]
  66 002a FFF7FEFF 		bl	xQueueGenericCreate
  67 002e 0246     		mov	r2, r0
  68 0030 0E4B     		ldr	r3, .L5+8
  69 0032 1A60     		str	r2, [r3]
  55:Serial.c      **** 	isr_UART1_TX_BYTE_COMPLETE_ClearPending() ;
  70              		.loc 1 55 0
  71 0034 FFF7FEFF 		bl	isr_UART1_TX_BYTE_COMPLETE_ClearPending
  56:Serial.c      **** 	isr_UART1_TX_BYTE_COMPLETE_StartEx(vUartTxISR);
  72              		.loc 1 56 0
  73 0038 0D48     		ldr	r0, .L5+12
  74 003a FFF7FEFF 		bl	isr_UART1_TX_BYTE_COMPLETE_StartEx
  57:Serial.c      **** 
  58:Serial.c      **** 	/* Clear the interrupt modes for the Tx for the time being. */
  59:Serial.c      **** 	UART_1_SetTxInterruptMode( 0 );
  75              		.loc 1 59 0
  76 003e 0020     		movs	r0, #0
  77 0040 FFF7FEFF 		bl	UART_1_SetTxInterruptMode
  60:Serial.c      **** 
  61:Serial.c      **** 	/* Both configured successfully. */
  62:Serial.c      **** 	return ( xComPortHandle )( xSerialTxQueue && xSerialRxQueue );
  78              		.loc 1 62 0
  79 0044 094B     		ldr	r3, .L5+8
  80 0046 1B68     		ldr	r3, [r3]
  81 0048 002B     		cmp	r3, #0
  82 004a 05D0     		beq	.L2
  83              		.loc 1 62 0 is_stmt 0 discriminator 1
  84 004c 054B     		ldr	r3, .L5
  85 004e 1B68     		ldr	r3, [r3]
  86 0050 002B     		cmp	r3, #0
  87 0052 01D0     		beq	.L2
  88              		.loc 1 62 0 discriminator 3
  89 0054 0123     		movs	r3, #1
  90 0056 00E0     		b	.L3
  91              	.L2:
  92              		.loc 1 62 0 discriminator 4
  93 0058 0023     		movs	r3, #0
  94              	.L3:
  63:Serial.c      **** }
  95              		.loc 1 63 0 is_stmt 1 discriminator 6
  96 005a 1846     		mov	r0, r3
  97 005c 0837     		adds	r7, r7, #8
  98              		.cfi_def_cfa_offset 8
  99 005e BD46     		mov	sp, r7
 100              		.cfi_def_cfa_register 13
 101              		@ sp needed
 102 0060 80BD     		pop	{r7, pc}
 103              	.L6:
 104 0062 00BF     		.align	2
 105              	.L5:
 106 0064 04000000 		.word	xSerialRxQueue
 107 0068 00000000 		.word	vUartRxISR
 108 006c 00000000 		.word	xSerialTxQueue
ARM GAS  C:\Users\DEREKM~1\AppData\Local\Temp\ccBMzeMc.s 			page 4


 109 0070 00000000 		.word	vUartTxISR
 110              		.cfi_endproc
 111              	.LFE68:
 112              		.size	xSerialPortInitMinimal, .-xSerialPortInitMinimal
 113              		.section	.text.vSerialPutString,"ax",%progbits
 114              		.align	2
 115              		.global	vSerialPutString
 116              		.thumb
 117              		.thumb_func
 118              		.type	vSerialPutString, %function
 119              	vSerialPutString:
 120              	.LFB69:
  64:Serial.c      **** /*---------------------------------------------------------------------------*/
  65:Serial.c      **** 
  66:Serial.c      **** void vSerialPutString( xComPortHandle pxPort, const signed char * const pcString, unsigned short us
  67:Serial.c      **** {
 121              		.loc 1 67 0
 122              		.cfi_startproc
 123              		@ args = 0, pretend = 0, frame = 24
 124              		@ frame_needed = 1, uses_anonymous_args = 0
 125 0000 80B5     		push	{r7, lr}
 126              		.cfi_def_cfa_offset 8
 127              		.cfi_offset 7, -8
 128              		.cfi_offset 14, -4
 129 0002 86B0     		sub	sp, sp, #24
 130              		.cfi_def_cfa_offset 32
 131 0004 00AF     		add	r7, sp, #0
 132              		.cfi_def_cfa_register 7
 133 0006 F860     		str	r0, [r7, #12]
 134 0008 B960     		str	r1, [r7, #8]
 135 000a 1346     		mov	r3, r2
 136 000c FB80     		strh	r3, [r7, #6]	@ movhi
  68:Serial.c      **** unsigned short usIndex = 0;
 137              		.loc 1 68 0
 138 000e 0023     		movs	r3, #0
 139 0010 FB82     		strh	r3, [r7, #22]	@ movhi
  69:Serial.c      **** 
  70:Serial.c      **** 	for( usIndex = 0; usIndex < usStringLength; usIndex++ )
 140              		.loc 1 70 0
 141 0012 0023     		movs	r3, #0
 142 0014 FB82     		strh	r3, [r7, #22]	@ movhi
 143 0016 14E0     		b	.L8
 144              	.L11:
  71:Serial.c      **** 	{
  72:Serial.c      **** 		/* Check for pre-mature end of line. */
  73:Serial.c      **** 		if( '\0' == pcString[ usIndex ] )
 145              		.loc 1 73 0
 146 0018 FB8A     		ldrh	r3, [r7, #22]
 147 001a BA68     		ldr	r2, [r7, #8]
 148 001c 1344     		add	r3, r3, r2
 149 001e 93F90030 		ldrsb	r3, [r3]
 150 0022 002B     		cmp	r3, #0
 151 0024 12D0     		beq	.L12
  74:Serial.c      **** 		{
  75:Serial.c      **** 			break;
  76:Serial.c      **** 		}
  77:Serial.c      **** 		
ARM GAS  C:\Users\DEREKM~1\AppData\Local\Temp\ccBMzeMc.s 			page 5


  78:Serial.c      **** 		/* Send out, one character at a time. */
  79:Serial.c      **** 		if( pdTRUE != xSerialPutChar( NULL, pcString[ usIndex ], serialSTRING_DELAY_TICKS ) )
 152              		.loc 1 79 0
 153 0026 FB8A     		ldrh	r3, [r7, #22]
 154 0028 BA68     		ldr	r2, [r7, #8]
 155 002a 1344     		add	r3, r3, r2
 156 002c 93F90030 		ldrsb	r3, [r3]
 157 0030 4FF0FF32 		mov	r2, #-1
 158 0034 1946     		mov	r1, r3
 159 0036 0020     		movs	r0, #0
 160 0038 FFF7FEFF 		bl	xSerialPutChar
  70:Serial.c      **** 	{
 161              		.loc 1 70 0
 162 003c FB8A     		ldrh	r3, [r7, #22]
 163 003e 0133     		adds	r3, r3, #1
 164 0040 FB82     		strh	r3, [r7, #22]	@ movhi
 165              	.L8:
  70:Serial.c      **** 	{
 166              		.loc 1 70 0 is_stmt 0 discriminator 1
 167 0042 FA8A     		ldrh	r2, [r7, #22]
 168 0044 FB88     		ldrh	r3, [r7, #6]
 169 0046 9A42     		cmp	r2, r3
 170 0048 E6D3     		bcc	.L11
  80:Serial.c      **** 		{
  81:Serial.c      **** 			/* Failed to send, this will be picked up in the receive comtest task. */
  82:Serial.c      **** 		}
  83:Serial.c      **** 	}
  84:Serial.c      **** }
 171              		.loc 1 84 0 is_stmt 1
 172 004a 00E0     		b	.L10
 173              	.L12:
  75:Serial.c      **** 		}
 174              		.loc 1 75 0
 175 004c 00BF     		nop
 176              	.L10:
 177              		.loc 1 84 0
 178 004e 00BF     		nop
 179 0050 1837     		adds	r7, r7, #24
 180              		.cfi_def_cfa_offset 8
 181 0052 BD46     		mov	sp, r7
 182              		.cfi_def_cfa_register 13
 183              		@ sp needed
 184 0054 80BD     		pop	{r7, pc}
 185              		.cfi_endproc
 186              	.LFE69:
 187              		.size	vSerialPutString, .-vSerialPutString
 188 0056 00BF     		.section	.text.xSerialGetChar,"ax",%progbits
 189              		.align	2
 190              		.global	xSerialGetChar
 191              		.thumb
 192              		.thumb_func
 193              		.type	xSerialGetChar, %function
 194              	xSerialGetChar:
 195              	.LFB70:
  85:Serial.c      **** /*---------------------------------------------------------------------------*/
  86:Serial.c      **** 
  87:Serial.c      **** signed portBASE_TYPE xSerialGetChar( xComPortHandle pxPort, signed char *pcRxedChar, TickType_t xBl
ARM GAS  C:\Users\DEREKM~1\AppData\Local\Temp\ccBMzeMc.s 			page 6


  88:Serial.c      **** {
 196              		.loc 1 88 0
 197              		.cfi_startproc
 198              		@ args = 0, pretend = 0, frame = 24
 199              		@ frame_needed = 1, uses_anonymous_args = 0
 200 0000 80B5     		push	{r7, lr}
 201              		.cfi_def_cfa_offset 8
 202              		.cfi_offset 7, -8
 203              		.cfi_offset 14, -4
 204 0002 86B0     		sub	sp, sp, #24
 205              		.cfi_def_cfa_offset 32
 206 0004 00AF     		add	r7, sp, #0
 207              		.cfi_def_cfa_register 7
 208 0006 F860     		str	r0, [r7, #12]
 209 0008 B960     		str	r1, [r7, #8]
 210 000a 7A60     		str	r2, [r7, #4]
  89:Serial.c      **** portBASE_TYPE xReturn = pdFALSE;
 211              		.loc 1 89 0
 212 000c 0023     		movs	r3, #0
 213 000e 7B61     		str	r3, [r7, #20]
  90:Serial.c      **** 
  91:Serial.c      **** 	if( pdTRUE == xQueueReceive( xSerialRxQueue, pcRxedChar, xBlockTime ) )
 214              		.loc 1 91 0
 215 0010 084B     		ldr	r3, .L16
 216 0012 1B68     		ldr	r3, [r3]
 217 0014 7A68     		ldr	r2, [r7, #4]
 218 0016 B968     		ldr	r1, [r7, #8]
 219 0018 1846     		mov	r0, r3
 220 001a FFF7FEFF 		bl	xQueueReceive
 221 001e 0346     		mov	r3, r0
 222 0020 012B     		cmp	r3, #1
 223 0022 01D1     		bne	.L14
  92:Serial.c      **** 	{
  93:Serial.c      **** 		/* Picked up a character. */
  94:Serial.c      **** 		xReturn = pdTRUE;
 224              		.loc 1 94 0
 225 0024 0123     		movs	r3, #1
 226 0026 7B61     		str	r3, [r7, #20]
 227              	.L14:
  95:Serial.c      **** 	}
  96:Serial.c      **** 	return xReturn;
 228              		.loc 1 96 0
 229 0028 7B69     		ldr	r3, [r7, #20]
  97:Serial.c      **** }
 230              		.loc 1 97 0
 231 002a 1846     		mov	r0, r3
 232 002c 1837     		adds	r7, r7, #24
 233              		.cfi_def_cfa_offset 8
 234 002e BD46     		mov	sp, r7
 235              		.cfi_def_cfa_register 13
 236              		@ sp needed
 237 0030 80BD     		pop	{r7, pc}
 238              	.L17:
 239 0032 00BF     		.align	2
 240              	.L16:
 241 0034 04000000 		.word	xSerialRxQueue
 242              		.cfi_endproc
ARM GAS  C:\Users\DEREKM~1\AppData\Local\Temp\ccBMzeMc.s 			page 7


 243              	.LFE70:
 244              		.size	xSerialGetChar, .-xSerialGetChar
 245              		.section	.text.xSerialPutChar,"ax",%progbits
 246              		.align	2
 247              		.global	xSerialPutChar
 248              		.thumb
 249              		.thumb_func
 250              		.type	xSerialPutChar, %function
 251              	xSerialPutChar:
 252              	.LFB71:
  98:Serial.c      **** /*---------------------------------------------------------------------------*/
  99:Serial.c      **** 
 100:Serial.c      **** signed portBASE_TYPE xSerialPutChar( xComPortHandle pxPort, signed char cOutChar, TickType_t xBlock
 101:Serial.c      **** {
 253              		.loc 1 101 0
 254              		.cfi_startproc
 255              		@ args = 0, pretend = 0, frame = 24
 256              		@ frame_needed = 1, uses_anonymous_args = 0
 257 0000 80B5     		push	{r7, lr}
 258              		.cfi_def_cfa_offset 8
 259              		.cfi_offset 7, -8
 260              		.cfi_offset 14, -4
 261 0002 86B0     		sub	sp, sp, #24
 262              		.cfi_def_cfa_offset 32
 263 0004 00AF     		add	r7, sp, #0
 264              		.cfi_def_cfa_register 7
 265 0006 F860     		str	r0, [r7, #12]
 266 0008 0B46     		mov	r3, r1
 267 000a 7A60     		str	r2, [r7, #4]
 268 000c FB72     		strb	r3, [r7, #11]
 102:Serial.c      **** portBASE_TYPE xReturn = pdFALSE;
 269              		.loc 1 102 0
 270 000e 0023     		movs	r3, #0
 271 0010 7B61     		str	r3, [r7, #20]
 103:Serial.c      **** 
 104:Serial.c      **** 	/* The ISR is processing characters is so just add to the end of the queue. */
 105:Serial.c      **** 	if( pdTRUE == xQueueSend( xSerialTxQueue, &cOutChar, xBlockTime ) )
 272              		.loc 1 105 0
 273 0012 0E4B     		ldr	r3, .L22
 274 0014 1868     		ldr	r0, [r3]
 275 0016 07F10B01 		add	r1, r7, #11
 276 001a 0023     		movs	r3, #0
 277 001c 7A68     		ldr	r2, [r7, #4]
 278 001e FFF7FEFF 		bl	xQueueGenericSend
 279 0022 0346     		mov	r3, r0
 280 0024 012B     		cmp	r3, #1
 281 0026 02D1     		bne	.L19
 106:Serial.c      **** 	{	
 107:Serial.c      **** 		xReturn = pdTRUE;
 282              		.loc 1 107 0
 283 0028 0123     		movs	r3, #1
 284 002a 7B61     		str	r3, [r7, #20]
 285 002c 01E0     		b	.L20
 286              	.L19:
 108:Serial.c      **** 	}
 109:Serial.c      **** 	else
 110:Serial.c      **** 	{
ARM GAS  C:\Users\DEREKM~1\AppData\Local\Temp\ccBMzeMc.s 			page 8


 111:Serial.c      **** 		/* The queue is probably full. */
 112:Serial.c      **** 		xReturn = pdFALSE;
 287              		.loc 1 112 0
 288 002e 0023     		movs	r3, #0
 289 0030 7B61     		str	r3, [r7, #20]
 290              	.L20:
 113:Serial.c      **** 	}
 114:Serial.c      **** 
 115:Serial.c      **** 	/* Make sure that the interrupt will fire in the case where:
 116:Serial.c      **** 	    Currently sending so the Tx Complete will fire.
 117:Serial.c      **** 	    Not sending so the Empty will fire.	*/
 118:Serial.c      **** 	taskENTER_CRITICAL();
 291              		.loc 1 118 0
 292 0032 FFF7FEFF 		bl	vPortEnterCritical
 119:Serial.c      **** 		UART_1_SetTxInterruptMode( UART_1_TX_STS_COMPLETE | UART_1_TX_STS_FIFO_EMPTY );
 293              		.loc 1 119 0
 294 0036 0320     		movs	r0, #3
 295 0038 FFF7FEFF 		bl	UART_1_SetTxInterruptMode
 120:Serial.c      **** 	taskEXIT_CRITICAL();
 296              		.loc 1 120 0
 297 003c FFF7FEFF 		bl	vPortExitCritical
 121:Serial.c      **** 	
 122:Serial.c      **** 	return xReturn;
 298              		.loc 1 122 0
 299 0040 7B69     		ldr	r3, [r7, #20]
 123:Serial.c      **** }
 300              		.loc 1 123 0
 301 0042 1846     		mov	r0, r3
 302 0044 1837     		adds	r7, r7, #24
 303              		.cfi_def_cfa_offset 8
 304 0046 BD46     		mov	sp, r7
 305              		.cfi_def_cfa_register 13
 306              		@ sp needed
 307 0048 80BD     		pop	{r7, pc}
 308              	.L23:
 309 004a 00BF     		.align	2
 310              	.L22:
 311 004c 00000000 		.word	xSerialTxQueue
 312              		.cfi_endproc
 313              	.LFE71:
 314              		.size	xSerialPutChar, .-xSerialPutChar
 315              		.section	.text.vUartRxISR,"ax",%progbits
 316              		.align	2
 317              		.global	vUartRxISR
 318              		.thumb
 319              		.thumb_func
 320              		.type	vUartRxISR, %function
 321              	vUartRxISR:
 322              	.LFB72:
 124:Serial.c      **** /*---------------------------------------------------------------------------*/
 125:Serial.c      **** 
 126:Serial.c      **** CY_ISR(vUartRxISR)
 127:Serial.c      **** {
 323              		.loc 1 127 0
 324              		.cfi_startproc
 325              		@ args = 0, pretend = 0, frame = 24
 326              		@ frame_needed = 1, uses_anonymous_args = 0
ARM GAS  C:\Users\DEREKM~1\AppData\Local\Temp\ccBMzeMc.s 			page 9


 327 0000 80B5     		push	{r7, lr}
 328              		.cfi_def_cfa_offset 8
 329              		.cfi_offset 7, -8
 330              		.cfi_offset 14, -4
 331 0002 86B0     		sub	sp, sp, #24
 332              		.cfi_def_cfa_offset 32
 333 0004 00AF     		add	r7, sp, #0
 334              		.cfi_def_cfa_register 7
 128:Serial.c      **** portBASE_TYPE xHigherPriorityTaskWoken = pdFALSE;
 335              		.loc 1 128 0
 336 0006 0023     		movs	r3, #0
 337 0008 7B60     		str	r3, [r7, #4]
 129:Serial.c      **** volatile unsigned char ucStatus = 0;
 338              		.loc 1 129 0
 339 000a 0023     		movs	r3, #0
 340 000c FB70     		strb	r3, [r7, #3]
 130:Serial.c      **** signed char cInChar = 0;
 341              		.loc 1 130 0
 342 000e 0023     		movs	r3, #0
 343 0010 BB70     		strb	r3, [r7, #2]
 131:Serial.c      **** unsigned long ulMask = 0;
 344              		.loc 1 131 0
 345 0012 0023     		movs	r3, #0
 346 0014 7B61     		str	r3, [r7, #20]
 132:Serial.c      **** 
 133:Serial.c      **** 	/* Read the status to acknowledge. */
 134:Serial.c      **** 	ucStatus = UART_1_ReadRxStatus();
 347              		.loc 1 134 0
 348 0016 FFF7FEFF 		bl	UART_1_ReadRxStatus
 349 001a 0346     		mov	r3, r0
 350 001c FB70     		strb	r3, [r7, #3]
 135:Serial.c      **** 
 136:Serial.c      **** 	/* Only interested in a character being received. */
 137:Serial.c      **** 	if( 0 != ( ucStatus & UART_1_RX_STS_FIFO_NOTEMPTY ) )
 351              		.loc 1 137 0
 352 001e FB78     		ldrb	r3, [r7, #3]
 353 0020 DBB2     		uxtb	r3, r3
 354 0022 03F02003 		and	r3, r3, #32
 355 0026 002B     		cmp	r3, #0
 356 0028 1ED0     		beq	.L25
 138:Serial.c      **** 	{
 139:Serial.c      **** 		/* Get the character. */
 140:Serial.c      **** 		cInChar = UART_1_GetChar();
 357              		.loc 1 140 0
 358 002a FFF7FEFF 		bl	UART_1_GetChar
 359 002e 0346     		mov	r3, r0
 360 0030 5BB2     		sxtb	r3, r3
 361 0032 BB70     		strb	r3, [r7, #2]
 362              	.LBB10:
 363              	.LBB11:
 364              		.file 2 "../../../Source/portable/GCC/ARM_CM3/portmacro.h"
   1:../../../Source/portable/GCC/ARM_CM3/portmacro.h **** /*
   2:../../../Source/portable/GCC/ARM_CM3/portmacro.h ****  * FreeRTOS Kernel V10.2.1
   3:../../../Source/portable/GCC/ARM_CM3/portmacro.h ****  * Copyright (C) 2019 Amazon.com, Inc. or its affiliates.  All Rights Reserved.
   4:../../../Source/portable/GCC/ARM_CM3/portmacro.h ****  *
   5:../../../Source/portable/GCC/ARM_CM3/portmacro.h ****  * Permission is hereby granted, free of charge, to any person obtaining a copy of
   6:../../../Source/portable/GCC/ARM_CM3/portmacro.h ****  * this software and associated documentation files (the "Software"), to deal in
ARM GAS  C:\Users\DEREKM~1\AppData\Local\Temp\ccBMzeMc.s 			page 10


   7:../../../Source/portable/GCC/ARM_CM3/portmacro.h ****  * the Software without restriction, including without limitation the rights to
   8:../../../Source/portable/GCC/ARM_CM3/portmacro.h ****  * use, copy, modify, merge, publish, distribute, sublicense, and/or sell copies of
   9:../../../Source/portable/GCC/ARM_CM3/portmacro.h ****  * the Software, and to permit persons to whom the Software is furnished to do so,
  10:../../../Source/portable/GCC/ARM_CM3/portmacro.h ****  * subject to the following conditions:
  11:../../../Source/portable/GCC/ARM_CM3/portmacro.h ****  *
  12:../../../Source/portable/GCC/ARM_CM3/portmacro.h ****  * The above copyright notice and this permission notice shall be included in all
  13:../../../Source/portable/GCC/ARM_CM3/portmacro.h ****  * copies or substantial portions of the Software.
  14:../../../Source/portable/GCC/ARM_CM3/portmacro.h ****  *
  15:../../../Source/portable/GCC/ARM_CM3/portmacro.h ****  * THE SOFTWARE IS PROVIDED "AS IS", WITHOUT WARRANTY OF ANY KIND, EXPRESS OR
  16:../../../Source/portable/GCC/ARM_CM3/portmacro.h ****  * IMPLIED, INCLUDING BUT NOT LIMITED TO THE WARRANTIES OF MERCHANTABILITY, FITNESS
  17:../../../Source/portable/GCC/ARM_CM3/portmacro.h ****  * FOR A PARTICULAR PURPOSE AND NONINFRINGEMENT. IN NO EVENT SHALL THE AUTHORS OR
  18:../../../Source/portable/GCC/ARM_CM3/portmacro.h ****  * COPYRIGHT HOLDERS BE LIABLE FOR ANY CLAIM, DAMAGES OR OTHER LIABILITY, WHETHER
  19:../../../Source/portable/GCC/ARM_CM3/portmacro.h ****  * IN AN ACTION OF CONTRACT, TORT OR OTHERWISE, ARISING FROM, OUT OF OR IN
  20:../../../Source/portable/GCC/ARM_CM3/portmacro.h ****  * CONNECTION WITH THE SOFTWARE OR THE USE OR OTHER DEALINGS IN THE SOFTWARE.
  21:../../../Source/portable/GCC/ARM_CM3/portmacro.h ****  *
  22:../../../Source/portable/GCC/ARM_CM3/portmacro.h ****  * http://www.FreeRTOS.org
  23:../../../Source/portable/GCC/ARM_CM3/portmacro.h ****  * http://aws.amazon.com/freertos
  24:../../../Source/portable/GCC/ARM_CM3/portmacro.h ****  *
  25:../../../Source/portable/GCC/ARM_CM3/portmacro.h ****  * 1 tab == 4 spaces!
  26:../../../Source/portable/GCC/ARM_CM3/portmacro.h ****  */
  27:../../../Source/portable/GCC/ARM_CM3/portmacro.h **** 
  28:../../../Source/portable/GCC/ARM_CM3/portmacro.h **** 
  29:../../../Source/portable/GCC/ARM_CM3/portmacro.h **** #ifndef PORTMACRO_H
  30:../../../Source/portable/GCC/ARM_CM3/portmacro.h **** #define PORTMACRO_H
  31:../../../Source/portable/GCC/ARM_CM3/portmacro.h **** 
  32:../../../Source/portable/GCC/ARM_CM3/portmacro.h **** #ifdef __cplusplus
  33:../../../Source/portable/GCC/ARM_CM3/portmacro.h **** extern "C" {
  34:../../../Source/portable/GCC/ARM_CM3/portmacro.h **** #endif
  35:../../../Source/portable/GCC/ARM_CM3/portmacro.h **** 
  36:../../../Source/portable/GCC/ARM_CM3/portmacro.h **** /*-----------------------------------------------------------
  37:../../../Source/portable/GCC/ARM_CM3/portmacro.h ****  * Port specific definitions.
  38:../../../Source/portable/GCC/ARM_CM3/portmacro.h ****  *
  39:../../../Source/portable/GCC/ARM_CM3/portmacro.h ****  * The settings in this file configure FreeRTOS correctly for the
  40:../../../Source/portable/GCC/ARM_CM3/portmacro.h ****  * given hardware and compiler.
  41:../../../Source/portable/GCC/ARM_CM3/portmacro.h ****  *
  42:../../../Source/portable/GCC/ARM_CM3/portmacro.h ****  * These settings should not be altered.
  43:../../../Source/portable/GCC/ARM_CM3/portmacro.h ****  *-----------------------------------------------------------
  44:../../../Source/portable/GCC/ARM_CM3/portmacro.h ****  */
  45:../../../Source/portable/GCC/ARM_CM3/portmacro.h **** 
  46:../../../Source/portable/GCC/ARM_CM3/portmacro.h **** /* Type definitions. */
  47:../../../Source/portable/GCC/ARM_CM3/portmacro.h **** #define portCHAR		char
  48:../../../Source/portable/GCC/ARM_CM3/portmacro.h **** #define portFLOAT		float
  49:../../../Source/portable/GCC/ARM_CM3/portmacro.h **** #define portDOUBLE		double
  50:../../../Source/portable/GCC/ARM_CM3/portmacro.h **** #define portLONG		long
  51:../../../Source/portable/GCC/ARM_CM3/portmacro.h **** #define portSHORT		short
  52:../../../Source/portable/GCC/ARM_CM3/portmacro.h **** #define portSTACK_TYPE	uint32_t
  53:../../../Source/portable/GCC/ARM_CM3/portmacro.h **** #define portBASE_TYPE	long
  54:../../../Source/portable/GCC/ARM_CM3/portmacro.h **** 
  55:../../../Source/portable/GCC/ARM_CM3/portmacro.h **** typedef portSTACK_TYPE StackType_t;
  56:../../../Source/portable/GCC/ARM_CM3/portmacro.h **** typedef long BaseType_t;
  57:../../../Source/portable/GCC/ARM_CM3/portmacro.h **** typedef unsigned long UBaseType_t;
  58:../../../Source/portable/GCC/ARM_CM3/portmacro.h **** 
  59:../../../Source/portable/GCC/ARM_CM3/portmacro.h **** #if( configUSE_16_BIT_TICKS == 1 )
  60:../../../Source/portable/GCC/ARM_CM3/portmacro.h **** 	typedef uint16_t TickType_t;
  61:../../../Source/portable/GCC/ARM_CM3/portmacro.h **** 	#define portMAX_DELAY ( TickType_t ) 0xffff
  62:../../../Source/portable/GCC/ARM_CM3/portmacro.h **** #else
  63:../../../Source/portable/GCC/ARM_CM3/portmacro.h **** 	typedef uint32_t TickType_t;
ARM GAS  C:\Users\DEREKM~1\AppData\Local\Temp\ccBMzeMc.s 			page 11


  64:../../../Source/portable/GCC/ARM_CM3/portmacro.h **** 	#define portMAX_DELAY ( TickType_t ) 0xffffffffUL
  65:../../../Source/portable/GCC/ARM_CM3/portmacro.h **** 
  66:../../../Source/portable/GCC/ARM_CM3/portmacro.h **** 	/* 32-bit tick type on a 32-bit architecture, so reads of the tick count do
  67:../../../Source/portable/GCC/ARM_CM3/portmacro.h **** 	not need to be guarded with a critical section. */
  68:../../../Source/portable/GCC/ARM_CM3/portmacro.h **** 	#define portTICK_TYPE_IS_ATOMIC 1
  69:../../../Source/portable/GCC/ARM_CM3/portmacro.h **** #endif
  70:../../../Source/portable/GCC/ARM_CM3/portmacro.h **** /*-----------------------------------------------------------*/
  71:../../../Source/portable/GCC/ARM_CM3/portmacro.h **** 
  72:../../../Source/portable/GCC/ARM_CM3/portmacro.h **** /* Architecture specifics. */
  73:../../../Source/portable/GCC/ARM_CM3/portmacro.h **** #define portSTACK_GROWTH			( -1 )
  74:../../../Source/portable/GCC/ARM_CM3/portmacro.h **** #define portTICK_PERIOD_MS			( ( TickType_t ) 1000 / configTICK_RATE_HZ )
  75:../../../Source/portable/GCC/ARM_CM3/portmacro.h **** #define portBYTE_ALIGNMENT			8
  76:../../../Source/portable/GCC/ARM_CM3/portmacro.h **** /*-----------------------------------------------------------*/
  77:../../../Source/portable/GCC/ARM_CM3/portmacro.h **** 
  78:../../../Source/portable/GCC/ARM_CM3/portmacro.h **** /* Scheduler utilities. */
  79:../../../Source/portable/GCC/ARM_CM3/portmacro.h **** #define portYIELD() 															\
  80:../../../Source/portable/GCC/ARM_CM3/portmacro.h **** {																				\
  81:../../../Source/portable/GCC/ARM_CM3/portmacro.h **** 	/* Set a PendSV to request a context switch. */								\
  82:../../../Source/portable/GCC/ARM_CM3/portmacro.h **** 	portNVIC_INT_CTRL_REG = portNVIC_PENDSVSET_BIT;								\
  83:../../../Source/portable/GCC/ARM_CM3/portmacro.h **** 																				\
  84:../../../Source/portable/GCC/ARM_CM3/portmacro.h **** 	/* Barriers are normally not required but do ensure the code is completely	\
  85:../../../Source/portable/GCC/ARM_CM3/portmacro.h **** 	within the specified behaviour for the architecture. */						\
  86:../../../Source/portable/GCC/ARM_CM3/portmacro.h **** 	__asm volatile( "dsb" ::: "memory" );										\
  87:../../../Source/portable/GCC/ARM_CM3/portmacro.h **** 	__asm volatile( "isb" );													\
  88:../../../Source/portable/GCC/ARM_CM3/portmacro.h **** }
  89:../../../Source/portable/GCC/ARM_CM3/portmacro.h **** 
  90:../../../Source/portable/GCC/ARM_CM3/portmacro.h **** #define portNVIC_INT_CTRL_REG		( * ( ( volatile uint32_t * ) 0xe000ed04 ) )
  91:../../../Source/portable/GCC/ARM_CM3/portmacro.h **** #define portNVIC_PENDSVSET_BIT		( 1UL << 28UL )
  92:../../../Source/portable/GCC/ARM_CM3/portmacro.h **** #define portEND_SWITCHING_ISR( xSwitchRequired ) if( xSwitchRequired != pdFALSE ) portYIELD()
  93:../../../Source/portable/GCC/ARM_CM3/portmacro.h **** #define portYIELD_FROM_ISR( x ) portEND_SWITCHING_ISR( x )
  94:../../../Source/portable/GCC/ARM_CM3/portmacro.h **** /*-----------------------------------------------------------*/
  95:../../../Source/portable/GCC/ARM_CM3/portmacro.h **** 
  96:../../../Source/portable/GCC/ARM_CM3/portmacro.h **** /* Critical section management. */
  97:../../../Source/portable/GCC/ARM_CM3/portmacro.h **** extern void vPortEnterCritical( void );
  98:../../../Source/portable/GCC/ARM_CM3/portmacro.h **** extern void vPortExitCritical( void );
  99:../../../Source/portable/GCC/ARM_CM3/portmacro.h **** #define portSET_INTERRUPT_MASK_FROM_ISR()		ulPortRaiseBASEPRI()
 100:../../../Source/portable/GCC/ARM_CM3/portmacro.h **** #define portCLEAR_INTERRUPT_MASK_FROM_ISR(x)	vPortSetBASEPRI(x)
 101:../../../Source/portable/GCC/ARM_CM3/portmacro.h **** #define portDISABLE_INTERRUPTS()				vPortRaiseBASEPRI()
 102:../../../Source/portable/GCC/ARM_CM3/portmacro.h **** #define portENABLE_INTERRUPTS()					vPortSetBASEPRI(0)
 103:../../../Source/portable/GCC/ARM_CM3/portmacro.h **** #define portENTER_CRITICAL()					vPortEnterCritical()
 104:../../../Source/portable/GCC/ARM_CM3/portmacro.h **** #define portEXIT_CRITICAL()						vPortExitCritical()
 105:../../../Source/portable/GCC/ARM_CM3/portmacro.h **** 
 106:../../../Source/portable/GCC/ARM_CM3/portmacro.h **** /*-----------------------------------------------------------*/
 107:../../../Source/portable/GCC/ARM_CM3/portmacro.h **** 
 108:../../../Source/portable/GCC/ARM_CM3/portmacro.h **** /* Task function macros as described on the FreeRTOS.org WEB site.  These are
 109:../../../Source/portable/GCC/ARM_CM3/portmacro.h **** not necessary for to use this port.  They are defined so the common demo files
 110:../../../Source/portable/GCC/ARM_CM3/portmacro.h **** (which build with all the ports) will build. */
 111:../../../Source/portable/GCC/ARM_CM3/portmacro.h **** #define portTASK_FUNCTION_PROTO( vFunction, pvParameters ) void vFunction( void *pvParameters )
 112:../../../Source/portable/GCC/ARM_CM3/portmacro.h **** #define portTASK_FUNCTION( vFunction, pvParameters ) void vFunction( void *pvParameters )
 113:../../../Source/portable/GCC/ARM_CM3/portmacro.h **** /*-----------------------------------------------------------*/
 114:../../../Source/portable/GCC/ARM_CM3/portmacro.h **** 
 115:../../../Source/portable/GCC/ARM_CM3/portmacro.h **** /* Tickless idle/low power functionality. */
 116:../../../Source/portable/GCC/ARM_CM3/portmacro.h **** #ifndef portSUPPRESS_TICKS_AND_SLEEP
 117:../../../Source/portable/GCC/ARM_CM3/portmacro.h **** 	extern void vPortSuppressTicksAndSleep( TickType_t xExpectedIdleTime );
 118:../../../Source/portable/GCC/ARM_CM3/portmacro.h **** 	#define portSUPPRESS_TICKS_AND_SLEEP( xExpectedIdleTime ) vPortSuppressTicksAndSleep( xExpectedIdl
 119:../../../Source/portable/GCC/ARM_CM3/portmacro.h **** #endif
 120:../../../Source/portable/GCC/ARM_CM3/portmacro.h **** /*-----------------------------------------------------------*/
ARM GAS  C:\Users\DEREKM~1\AppData\Local\Temp\ccBMzeMc.s 			page 12


 121:../../../Source/portable/GCC/ARM_CM3/portmacro.h **** 
 122:../../../Source/portable/GCC/ARM_CM3/portmacro.h **** /* Architecture specific optimisations. */
 123:../../../Source/portable/GCC/ARM_CM3/portmacro.h **** #ifndef configUSE_PORT_OPTIMISED_TASK_SELECTION
 124:../../../Source/portable/GCC/ARM_CM3/portmacro.h **** 	#define configUSE_PORT_OPTIMISED_TASK_SELECTION 1
 125:../../../Source/portable/GCC/ARM_CM3/portmacro.h **** #endif
 126:../../../Source/portable/GCC/ARM_CM3/portmacro.h **** 
 127:../../../Source/portable/GCC/ARM_CM3/portmacro.h **** #if configUSE_PORT_OPTIMISED_TASK_SELECTION == 1
 128:../../../Source/portable/GCC/ARM_CM3/portmacro.h **** 
 129:../../../Source/portable/GCC/ARM_CM3/portmacro.h **** 	/* Generic helper function. */
 130:../../../Source/portable/GCC/ARM_CM3/portmacro.h **** 	__attribute__( ( always_inline ) ) static inline uint8_t ucPortCountLeadingZeros( uint32_t ulBitma
 131:../../../Source/portable/GCC/ARM_CM3/portmacro.h **** 	{
 132:../../../Source/portable/GCC/ARM_CM3/portmacro.h **** 	uint8_t ucReturn;
 133:../../../Source/portable/GCC/ARM_CM3/portmacro.h **** 
 134:../../../Source/portable/GCC/ARM_CM3/portmacro.h **** 		__asm volatile ( "clz %0, %1" : "=r" ( ucReturn ) : "r" ( ulBitmap ) : "memory" );
 135:../../../Source/portable/GCC/ARM_CM3/portmacro.h **** 		return ucReturn;
 136:../../../Source/portable/GCC/ARM_CM3/portmacro.h **** 	}
 137:../../../Source/portable/GCC/ARM_CM3/portmacro.h **** 
 138:../../../Source/portable/GCC/ARM_CM3/portmacro.h **** 	/* Check the configuration. */
 139:../../../Source/portable/GCC/ARM_CM3/portmacro.h **** 	#if( configMAX_PRIORITIES > 32 )
 140:../../../Source/portable/GCC/ARM_CM3/portmacro.h **** 		#error configUSE_PORT_OPTIMISED_TASK_SELECTION can only be set to 1 when configMAX_PRIORITIES is 
 141:../../../Source/portable/GCC/ARM_CM3/portmacro.h **** 	#endif
 142:../../../Source/portable/GCC/ARM_CM3/portmacro.h **** 
 143:../../../Source/portable/GCC/ARM_CM3/portmacro.h **** 	/* Store/clear the ready priorities in a bit map. */
 144:../../../Source/portable/GCC/ARM_CM3/portmacro.h **** 	#define portRECORD_READY_PRIORITY( uxPriority, uxReadyPriorities ) ( uxReadyPriorities ) |= ( 1UL 
 145:../../../Source/portable/GCC/ARM_CM3/portmacro.h **** 	#define portRESET_READY_PRIORITY( uxPriority, uxReadyPriorities ) ( uxReadyPriorities ) &= ~( 1UL 
 146:../../../Source/portable/GCC/ARM_CM3/portmacro.h **** 
 147:../../../Source/portable/GCC/ARM_CM3/portmacro.h **** 	/*-----------------------------------------------------------*/
 148:../../../Source/portable/GCC/ARM_CM3/portmacro.h **** 
 149:../../../Source/portable/GCC/ARM_CM3/portmacro.h **** 	#define portGET_HIGHEST_PRIORITY( uxTopPriority, uxReadyPriorities ) uxTopPriority = ( 31UL - ( ui
 150:../../../Source/portable/GCC/ARM_CM3/portmacro.h **** 
 151:../../../Source/portable/GCC/ARM_CM3/portmacro.h **** #endif /* configUSE_PORT_OPTIMISED_TASK_SELECTION */
 152:../../../Source/portable/GCC/ARM_CM3/portmacro.h **** 
 153:../../../Source/portable/GCC/ARM_CM3/portmacro.h **** /*-----------------------------------------------------------*/
 154:../../../Source/portable/GCC/ARM_CM3/portmacro.h **** 
 155:../../../Source/portable/GCC/ARM_CM3/portmacro.h **** #ifdef configASSERT
 156:../../../Source/portable/GCC/ARM_CM3/portmacro.h **** 	void vPortValidateInterruptPriority( void );
 157:../../../Source/portable/GCC/ARM_CM3/portmacro.h **** 	#define portASSERT_IF_INTERRUPT_PRIORITY_INVALID() 	vPortValidateInterruptPriority()
 158:../../../Source/portable/GCC/ARM_CM3/portmacro.h **** #endif
 159:../../../Source/portable/GCC/ARM_CM3/portmacro.h **** 
 160:../../../Source/portable/GCC/ARM_CM3/portmacro.h **** /* portNOP() is not required by this port. */
 161:../../../Source/portable/GCC/ARM_CM3/portmacro.h **** #define portNOP()
 162:../../../Source/portable/GCC/ARM_CM3/portmacro.h **** 
 163:../../../Source/portable/GCC/ARM_CM3/portmacro.h **** #define portINLINE	__inline
 164:../../../Source/portable/GCC/ARM_CM3/portmacro.h **** 
 165:../../../Source/portable/GCC/ARM_CM3/portmacro.h **** #ifndef portFORCE_INLINE
 166:../../../Source/portable/GCC/ARM_CM3/portmacro.h **** 	#define portFORCE_INLINE inline __attribute__(( always_inline))
 167:../../../Source/portable/GCC/ARM_CM3/portmacro.h **** #endif
 168:../../../Source/portable/GCC/ARM_CM3/portmacro.h **** 
 169:../../../Source/portable/GCC/ARM_CM3/portmacro.h **** portFORCE_INLINE static BaseType_t xPortIsInsideInterrupt( void )
 170:../../../Source/portable/GCC/ARM_CM3/portmacro.h **** {
 171:../../../Source/portable/GCC/ARM_CM3/portmacro.h **** uint32_t ulCurrentInterrupt;
 172:../../../Source/portable/GCC/ARM_CM3/portmacro.h **** BaseType_t xReturn;
 173:../../../Source/portable/GCC/ARM_CM3/portmacro.h **** 
 174:../../../Source/portable/GCC/ARM_CM3/portmacro.h **** 	/* Obtain the number of the currently executing interrupt. */
 175:../../../Source/portable/GCC/ARM_CM3/portmacro.h **** 	__asm volatile( "mrs %0, ipsr" : "=r"( ulCurrentInterrupt ) :: "memory" );
 176:../../../Source/portable/GCC/ARM_CM3/portmacro.h **** 
 177:../../../Source/portable/GCC/ARM_CM3/portmacro.h **** 	if( ulCurrentInterrupt == 0 )
ARM GAS  C:\Users\DEREKM~1\AppData\Local\Temp\ccBMzeMc.s 			page 13


 178:../../../Source/portable/GCC/ARM_CM3/portmacro.h **** 	{
 179:../../../Source/portable/GCC/ARM_CM3/portmacro.h **** 		xReturn = pdFALSE;
 180:../../../Source/portable/GCC/ARM_CM3/portmacro.h **** 	}
 181:../../../Source/portable/GCC/ARM_CM3/portmacro.h **** 	else
 182:../../../Source/portable/GCC/ARM_CM3/portmacro.h **** 	{
 183:../../../Source/portable/GCC/ARM_CM3/portmacro.h **** 		xReturn = pdTRUE;
 184:../../../Source/portable/GCC/ARM_CM3/portmacro.h **** 	}
 185:../../../Source/portable/GCC/ARM_CM3/portmacro.h **** 
 186:../../../Source/portable/GCC/ARM_CM3/portmacro.h **** 	return xReturn;
 187:../../../Source/portable/GCC/ARM_CM3/portmacro.h **** }
 188:../../../Source/portable/GCC/ARM_CM3/portmacro.h **** 
 189:../../../Source/portable/GCC/ARM_CM3/portmacro.h **** /*-----------------------------------------------------------*/
 190:../../../Source/portable/GCC/ARM_CM3/portmacro.h **** 
 191:../../../Source/portable/GCC/ARM_CM3/portmacro.h **** portFORCE_INLINE static void vPortRaiseBASEPRI( void )
 192:../../../Source/portable/GCC/ARM_CM3/portmacro.h **** {
 193:../../../Source/portable/GCC/ARM_CM3/portmacro.h **** uint32_t ulNewBASEPRI;
 194:../../../Source/portable/GCC/ARM_CM3/portmacro.h **** 
 195:../../../Source/portable/GCC/ARM_CM3/portmacro.h **** 	__asm volatile
 196:../../../Source/portable/GCC/ARM_CM3/portmacro.h **** 	(
 197:../../../Source/portable/GCC/ARM_CM3/portmacro.h **** 		"	mov %0, %1												\n" \
 198:../../../Source/portable/GCC/ARM_CM3/portmacro.h **** 		"	msr basepri, %0											\n" \
 199:../../../Source/portable/GCC/ARM_CM3/portmacro.h **** 		"	isb														\n" \
 200:../../../Source/portable/GCC/ARM_CM3/portmacro.h **** 		"	dsb														\n" \
 201:../../../Source/portable/GCC/ARM_CM3/portmacro.h **** 		:"=r" (ulNewBASEPRI) : "i" ( configMAX_SYSCALL_INTERRUPT_PRIORITY ) : "memory"
 202:../../../Source/portable/GCC/ARM_CM3/portmacro.h **** 	);
 203:../../../Source/portable/GCC/ARM_CM3/portmacro.h **** }
 204:../../../Source/portable/GCC/ARM_CM3/portmacro.h **** 
 205:../../../Source/portable/GCC/ARM_CM3/portmacro.h **** /*-----------------------------------------------------------*/
 206:../../../Source/portable/GCC/ARM_CM3/portmacro.h **** 
 207:../../../Source/portable/GCC/ARM_CM3/portmacro.h **** portFORCE_INLINE static uint32_t ulPortRaiseBASEPRI( void )
 208:../../../Source/portable/GCC/ARM_CM3/portmacro.h **** {
 209:../../../Source/portable/GCC/ARM_CM3/portmacro.h **** uint32_t ulOriginalBASEPRI, ulNewBASEPRI;
 210:../../../Source/portable/GCC/ARM_CM3/portmacro.h **** 
 211:../../../Source/portable/GCC/ARM_CM3/portmacro.h **** 	__asm volatile
 365              		.loc 2 211 0
 366              		.syntax unified
 367              	@ 211 "../../../Source/portable/GCC/ARM_CM3/portmacro.h" 1
 368 0034 EFF31182 			mrs r2, basepri											
 369 0038 4FF0A003 		mov r3, #160												
 370 003c 83F31188 		msr basepri, r3											
 371 0040 BFF36F8F 		isb														
 372 0044 BFF34F8F 		dsb														
 373              	
 374              	@ 0 "" 2
 375              		.thumb
 376              		.syntax unified
 377 0048 FA60     		str	r2, [r7, #12]
 378 004a BB60     		str	r3, [r7, #8]
 212:../../../Source/portable/GCC/ARM_CM3/portmacro.h **** 	(
 213:../../../Source/portable/GCC/ARM_CM3/portmacro.h **** 		"	mrs %0, basepri											\n" \
 214:../../../Source/portable/GCC/ARM_CM3/portmacro.h **** 		"	mov %1, %2												\n" \
 215:../../../Source/portable/GCC/ARM_CM3/portmacro.h **** 		"	msr basepri, %1											\n" \
 216:../../../Source/portable/GCC/ARM_CM3/portmacro.h **** 		"	isb														\n" \
 217:../../../Source/portable/GCC/ARM_CM3/portmacro.h **** 		"	dsb														\n" \
 218:../../../Source/portable/GCC/ARM_CM3/portmacro.h **** 		:"=r" (ulOriginalBASEPRI), "=r" (ulNewBASEPRI) : "i" ( configMAX_SYSCALL_INTERRUPT_PRIORITY ) : "
 219:../../../Source/portable/GCC/ARM_CM3/portmacro.h **** 	);
 220:../../../Source/portable/GCC/ARM_CM3/portmacro.h **** 
ARM GAS  C:\Users\DEREKM~1\AppData\Local\Temp\ccBMzeMc.s 			page 14


 221:../../../Source/portable/GCC/ARM_CM3/portmacro.h **** 	/* This return will not be reached but is necessary to prevent compiler
 222:../../../Source/portable/GCC/ARM_CM3/portmacro.h **** 	warnings. */
 223:../../../Source/portable/GCC/ARM_CM3/portmacro.h **** 	return ulOriginalBASEPRI;
 379              		.loc 2 223 0
 380 004c FB68     		ldr	r3, [r7, #12]
 381              	.LBE11:
 382              	.LBE10:
 141:Serial.c      **** 		
 142:Serial.c      **** 		/* Mask off the other RTOS interrupts to interact with the queue. */
 143:Serial.c      **** 		ulMask = portSET_INTERRUPT_MASK_FROM_ISR();
 383              		.loc 1 143 0
 384 004e 7B61     		str	r3, [r7, #20]
 144:Serial.c      **** 		{
 145:Serial.c      **** 			/* Try to deliver the character. */
 146:Serial.c      **** 			if( pdTRUE != xQueueSendFromISR( xSerialRxQueue, &cInChar, &xHigherPriorityTaskWoken ) )
 385              		.loc 1 146 0
 386 0050 0D4B     		ldr	r3, .L29
 387 0052 1868     		ldr	r0, [r3]
 388 0054 3A1D     		adds	r2, r7, #4
 389 0056 B91C     		adds	r1, r7, #2
 390 0058 0023     		movs	r3, #0
 391 005a FFF7FEFF 		bl	xQueueGenericSendFromISR
 392 005e 7B69     		ldr	r3, [r7, #20]
 393 0060 3B61     		str	r3, [r7, #16]
 394              	.LBB12:
 395              	.LBB13:
 224:../../../Source/portable/GCC/ARM_CM3/portmacro.h **** }
 225:../../../Source/portable/GCC/ARM_CM3/portmacro.h **** /*-----------------------------------------------------------*/
 226:../../../Source/portable/GCC/ARM_CM3/portmacro.h **** 
 227:../../../Source/portable/GCC/ARM_CM3/portmacro.h **** portFORCE_INLINE static void vPortSetBASEPRI( uint32_t ulNewMaskValue )
 228:../../../Source/portable/GCC/ARM_CM3/portmacro.h **** {
 229:../../../Source/portable/GCC/ARM_CM3/portmacro.h **** 	__asm volatile
 396              		.loc 2 229 0
 397 0062 3B69     		ldr	r3, [r7, #16]
 398              		.syntax unified
 399              	@ 229 "../../../Source/portable/GCC/ARM_CM3/portmacro.h" 1
 400 0064 83F31188 			msr basepri, r3	
 401              	@ 0 "" 2
 402              		.thumb
 403              		.syntax unified
 404              	.L25:
 405              	.LBE13:
 406              	.LBE12:
 147:Serial.c      **** 			{
 148:Serial.c      **** 				/* Run out of space. */
 149:Serial.c      **** 			}
 150:Serial.c      **** 		}
 151:Serial.c      **** 		portCLEAR_INTERRUPT_MASK_FROM_ISR( ulMask );
 152:Serial.c      **** 	}
 153:Serial.c      **** 
 154:Serial.c      **** 	/* If we delivered the character then a context switch might be required.
 155:Serial.c      **** 	xHigherPriorityTaskWoken was set to pdFALSE on interrupt entry.  If calling 
 156:Serial.c      **** 	xQueueSendFromISR() caused a task to unblock, and the unblocked task has
 157:Serial.c      **** 	a priority equal to or higher than the currently running task (the task this
 158:Serial.c      **** 	ISR interrupted), then xHigherPriorityTaskWoken will have been set to pdTRUE and
 159:Serial.c      **** 	portEND_SWITCHING_ISR() will request a context switch to the newly unblocked
 160:Serial.c      **** 	task. */
ARM GAS  C:\Users\DEREKM~1\AppData\Local\Temp\ccBMzeMc.s 			page 15


 161:Serial.c      **** 	portEND_SWITCHING_ISR( xHigherPriorityTaskWoken );
 407              		.loc 1 161 0
 408 0068 7B68     		ldr	r3, [r7, #4]
 409 006a 002B     		cmp	r3, #0
 410 006c 07D0     		beq	.L28
 411              		.loc 1 161 0 is_stmt 0 discriminator 1
 412 006e 074B     		ldr	r3, .L29+4
 413 0070 4FF08052 		mov	r2, #268435456
 414 0074 1A60     		str	r2, [r3]
 415              		.syntax unified
 416              	@ 161 "Serial.c" 1
 417 0076 BFF34F8F 		dsb
 418              	@ 0 "" 2
 419              	@ 161 "Serial.c" 1
 420 007a BFF36F8F 		isb
 421              	@ 0 "" 2
 422              		.thumb
 423              		.syntax unified
 424              	.L28:
 162:Serial.c      **** }
 425              		.loc 1 162 0 is_stmt 1
 426 007e 00BF     		nop
 427 0080 1837     		adds	r7, r7, #24
 428              		.cfi_def_cfa_offset 8
 429 0082 BD46     		mov	sp, r7
 430              		.cfi_def_cfa_register 13
 431              		@ sp needed
 432 0084 80BD     		pop	{r7, pc}
 433              	.L30:
 434 0086 00BF     		.align	2
 435              	.L29:
 436 0088 04000000 		.word	xSerialRxQueue
 437 008c 04ED00E0 		.word	-536810236
 438              		.cfi_endproc
 439              	.LFE72:
 440              		.size	vUartRxISR, .-vUartRxISR
 441              		.section	.text.vUartTxISR,"ax",%progbits
 442              		.align	2
 443              		.global	vUartTxISR
 444              		.thumb
 445              		.thumb_func
 446              		.type	vUartTxISR, %function
 447              	vUartTxISR:
 448              	.LFB73:
 163:Serial.c      **** /*---------------------------------------------------------------------------*/
 164:Serial.c      **** 
 165:Serial.c      **** CY_ISR(vUartTxISR)
 166:Serial.c      **** {
 449              		.loc 1 166 0
 450              		.cfi_startproc
 451              		@ args = 0, pretend = 0, frame = 24
 452              		@ frame_needed = 1, uses_anonymous_args = 0
 453 0000 80B5     		push	{r7, lr}
 454              		.cfi_def_cfa_offset 8
 455              		.cfi_offset 7, -8
 456              		.cfi_offset 14, -4
 457 0002 86B0     		sub	sp, sp, #24
ARM GAS  C:\Users\DEREKM~1\AppData\Local\Temp\ccBMzeMc.s 			page 16


 458              		.cfi_def_cfa_offset 32
 459 0004 00AF     		add	r7, sp, #0
 460              		.cfi_def_cfa_register 7
 167:Serial.c      **** portBASE_TYPE xHigherPriorityTaskWoken = pdFALSE;
 461              		.loc 1 167 0
 462 0006 0023     		movs	r3, #0
 463 0008 7B60     		str	r3, [r7, #4]
 168:Serial.c      **** volatile unsigned char ucStatus = 0;
 464              		.loc 1 168 0
 465 000a 0023     		movs	r3, #0
 466 000c FB70     		strb	r3, [r7, #3]
 169:Serial.c      **** signed char cOutChar = 0;
 467              		.loc 1 169 0
 468 000e 0023     		movs	r3, #0
 469 0010 BB70     		strb	r3, [r7, #2]
 170:Serial.c      **** unsigned long ulMask = 0;
 470              		.loc 1 170 0
 471 0012 0023     		movs	r3, #0
 472 0014 7B61     		str	r3, [r7, #20]
 171:Serial.c      **** 
 172:Serial.c      **** 	/* Read the status to acknowledge. */
 173:Serial.c      **** 	ucStatus = UART_1_ReadTxStatus();
 473              		.loc 1 173 0
 474 0016 FFF7FEFF 		bl	UART_1_ReadTxStatus
 475 001a 0346     		mov	r3, r0
 476 001c FB70     		strb	r3, [r7, #3]
 174:Serial.c      **** 	
 175:Serial.c      **** 	/* Check to see whether this is a genuine interrupt. */
 176:Serial.c      **** 	if( ( 0 != ( ucStatus & UART_1_TX_STS_COMPLETE ) ) || ( 0 != ( ucStatus & UART_1_TX_STS_FIFO_EMPTY
 477              		.loc 1 176 0
 478 001e FB78     		ldrb	r3, [r7, #3]
 479 0020 DBB2     		uxtb	r3, r3
 480 0022 03F00103 		and	r3, r3, #1
 481 0026 002B     		cmp	r3, #0
 482 0028 05D1     		bne	.L32
 483              		.loc 1 176 0 is_stmt 0 discriminator 1
 484 002a FB78     		ldrb	r3, [r7, #3]
 485 002c DBB2     		uxtb	r3, r3
 486 002e 03F00203 		and	r3, r3, #2
 487 0032 002B     		cmp	r3, #0
 488 0034 29D0     		beq	.L33
 489              	.L32:
 490              	.LBB14:
 491              	.LBB15:
 211:../../../Source/portable/GCC/ARM_CM3/portmacro.h **** 	(
 492              		.loc 2 211 0 is_stmt 1
 493              		.syntax unified
 494              	@ 211 "../../../Source/portable/GCC/ARM_CM3/portmacro.h" 1
 495 0036 EFF31182 			mrs r2, basepri											
 496 003a 4FF0A003 		mov r3, #160												
 497 003e 83F31188 		msr basepri, r3											
 498 0042 BFF36F8F 		isb														
 499 0046 BFF34F8F 		dsb														
 500              	
 501              	@ 0 "" 2
 502              		.thumb
 503              		.syntax unified
ARM GAS  C:\Users\DEREKM~1\AppData\Local\Temp\ccBMzeMc.s 			page 17


 504 004a FA60     		str	r2, [r7, #12]
 505 004c BB60     		str	r3, [r7, #8]
 223:../../../Source/portable/GCC/ARM_CM3/portmacro.h **** }
 506              		.loc 2 223 0
 507 004e FB68     		ldr	r3, [r7, #12]
 508              	.LBE15:
 509              	.LBE14:
 177:Serial.c      **** 	{	
 178:Serial.c      **** 		/* Mask off the other RTOS interrupts to interact with the queue. */
 179:Serial.c      **** 		ulMask = portSET_INTERRUPT_MASK_FROM_ISR();
 510              		.loc 1 179 0
 511 0050 7B61     		str	r3, [r7, #20]
 180:Serial.c      **** 		{
 181:Serial.c      **** 			if( pdTRUE == xQueueReceiveFromISR( xSerialTxQueue, &cOutChar, &xHigherPriorityTaskWoken ) )
 512              		.loc 1 181 0
 513 0052 154B     		ldr	r3, .L39
 514 0054 1B68     		ldr	r3, [r3]
 515 0056 3A1D     		adds	r2, r7, #4
 516 0058 B91C     		adds	r1, r7, #2
 517 005a 1846     		mov	r0, r3
 518 005c FFF7FEFF 		bl	xQueueReceiveFromISR
 519 0060 0346     		mov	r3, r0
 520 0062 012B     		cmp	r3, #1
 521 0064 09D1     		bne	.L35
 182:Serial.c      **** 			{
 183:Serial.c      **** 				/* Send the next character. */
 184:Serial.c      **** 				UART_1_PutChar( cOutChar );			
 522              		.loc 1 184 0
 523 0066 97F90230 		ldrsb	r3, [r7, #2]
 524 006a DBB2     		uxtb	r3, r3
 525 006c 1846     		mov	r0, r3
 526 006e FFF7FEFF 		bl	UART_1_PutChar
 185:Serial.c      **** 
 186:Serial.c      **** 				/* If we are firing, then the only interrupt we are interested in
 187:Serial.c      **** 				is the Complete. The application code will add the Empty interrupt
 188:Serial.c      **** 				when there is something else to be done. */
 189:Serial.c      **** 				UART_1_SetTxInterruptMode( UART_1_TX_STS_COMPLETE );
 527              		.loc 1 189 0
 528 0072 0120     		movs	r0, #1
 529 0074 FFF7FEFF 		bl	UART_1_SetTxInterruptMode
 530 0078 02E0     		b	.L36
 531              	.L35:
 190:Serial.c      **** 			}
 191:Serial.c      **** 			else
 192:Serial.c      **** 			{
 193:Serial.c      **** 				/* There is no work left so disable the interrupt until the application 
 194:Serial.c      **** 				puts more into the queue. */
 195:Serial.c      **** 				UART_1_SetTxInterruptMode( 0 );
 532              		.loc 1 195 0
 533 007a 0020     		movs	r0, #0
 534 007c FFF7FEFF 		bl	UART_1_SetTxInterruptMode
 535              	.L36:
 536 0080 7B69     		ldr	r3, [r7, #20]
 537 0082 3B61     		str	r3, [r7, #16]
 538              	.LBB16:
 539              	.LBB17:
 540              		.loc 2 229 0
ARM GAS  C:\Users\DEREKM~1\AppData\Local\Temp\ccBMzeMc.s 			page 18


 541 0084 3B69     		ldr	r3, [r7, #16]
 542              		.syntax unified
 543              	@ 229 "../../../Source/portable/GCC/ARM_CM3/portmacro.h" 1
 544 0086 83F31188 			msr basepri, r3	
 545              	@ 0 "" 2
 546              		.thumb
 547              		.syntax unified
 548              	.L33:
 549              	.LBE17:
 550              	.LBE16:
 196:Serial.c      **** 			}
 197:Serial.c      **** 		}
 198:Serial.c      **** 		portCLEAR_INTERRUPT_MASK_FROM_ISR( ulMask );
 199:Serial.c      **** 	}
 200:Serial.c      **** 
 201:Serial.c      **** 	/* If we delivered the character then a context switch might be required.
 202:Serial.c      **** 	xHigherPriorityTaskWoken was set to pdFALSE on interrupt entry.  If calling 
 203:Serial.c      **** 	xQueueSendFromISR() caused a task to unblock, and the unblocked task has
 204:Serial.c      **** 	a priority equal to or higher than the currently running task (the task this
 205:Serial.c      **** 	ISR interrupted), then xHigherPriorityTaskWoken will have been set to pdTRUE and
 206:Serial.c      **** 	portEND_SWITCHING_ISR() will request a context switch to the newly unblocked
 207:Serial.c      **** 	task. */
 208:Serial.c      **** 	portEND_SWITCHING_ISR( xHigherPriorityTaskWoken );
 551              		.loc 1 208 0
 552 008a 7B68     		ldr	r3, [r7, #4]
 553 008c 002B     		cmp	r3, #0
 554 008e 07D0     		beq	.L38
 555              		.loc 1 208 0 is_stmt 0 discriminator 1
 556 0090 064B     		ldr	r3, .L39+4
 557 0092 4FF08052 		mov	r2, #268435456
 558 0096 1A60     		str	r2, [r3]
 559              		.syntax unified
 560              	@ 208 "Serial.c" 1
 561 0098 BFF34F8F 		dsb
 562              	@ 0 "" 2
 563              	@ 208 "Serial.c" 1
 564 009c BFF36F8F 		isb
 565              	@ 0 "" 2
 566              		.thumb
 567              		.syntax unified
 568              	.L38:
 209:Serial.c      **** }
 569              		.loc 1 209 0 is_stmt 1
 570 00a0 00BF     		nop
 571 00a2 1837     		adds	r7, r7, #24
 572              		.cfi_def_cfa_offset 8
 573 00a4 BD46     		mov	sp, r7
 574              		.cfi_def_cfa_register 13
 575              		@ sp needed
 576 00a6 80BD     		pop	{r7, pc}
 577              	.L40:
 578              		.align	2
 579              	.L39:
 580 00a8 00000000 		.word	xSerialTxQueue
 581 00ac 04ED00E0 		.word	-536810236
 582              		.cfi_endproc
 583              	.LFE73:
ARM GAS  C:\Users\DEREKM~1\AppData\Local\Temp\ccBMzeMc.s 			page 19


 584              		.size	vUartTxISR, .-vUartTxISR
 585              		.text
 586              	.Letext0:
 587              		.file 3 "c:\\program files (x86)\\cypress\\psoc creator\\4.2\\psoc creator\\import\\gnu\\arm\\5.4.
 588              		.file 4 "c:\\program files (x86)\\cypress\\psoc creator\\4.2\\psoc creator\\import\\gnu\\arm\\5.4.
 589              		.file 5 "Generated_Source\\PSoC5/cytypes.h"
 590              		.file 6 "../../../Source/include/queue.h"
 591              		.file 7 "../../Common/include/serial.h"
 592              		.file 8 "Generated_Source\\PSoC5/core_cm3.h"
 593              		.section	.debug_info,"",%progbits
 594              	.Ldebug_info0:
 595 0000 EF030000 		.4byte	0x3ef
 596 0004 0400     		.2byte	0x4
 597 0006 00000000 		.4byte	.Ldebug_abbrev0
 598 000a 04       		.byte	0x4
 599 000b 01       		.uleb128 0x1
 600 000c 22000000 		.4byte	.LASF49
 601 0010 0C       		.byte	0xc
 602 0011 CF010000 		.4byte	.LASF50
 603 0015 94020000 		.4byte	.LASF51
 604 0019 00000000 		.4byte	.Ldebug_ranges0+0
 605 001d 00000000 		.4byte	0
 606 0021 00000000 		.4byte	.Ldebug_line0
 607 0025 02       		.uleb128 0x2
 608 0026 01       		.byte	0x1
 609 0027 06       		.byte	0x6
 610 0028 A1030000 		.4byte	.LASF0
 611 002c 03       		.uleb128 0x3
 612 002d CE000000 		.4byte	.LASF4
 613 0031 03       		.byte	0x3
 614 0032 1D       		.byte	0x1d
 615 0033 37000000 		.4byte	0x37
 616 0037 02       		.uleb128 0x2
 617 0038 01       		.byte	0x1
 618 0039 08       		.byte	0x8
 619 003a 4C010000 		.4byte	.LASF1
 620 003e 02       		.uleb128 0x2
 621 003f 02       		.byte	0x2
 622 0040 05       		.byte	0x5
 623 0041 38030000 		.4byte	.LASF2
 624 0045 02       		.uleb128 0x2
 625 0046 02       		.byte	0x2
 626 0047 07       		.byte	0x7
 627 0048 7E010000 		.4byte	.LASF3
 628 004c 03       		.uleb128 0x3
 629 004d F2000000 		.4byte	.LASF5
 630 0051 03       		.byte	0x3
 631 0052 3F       		.byte	0x3f
 632 0053 57000000 		.4byte	0x57
 633 0057 02       		.uleb128 0x2
 634 0058 04       		.byte	0x4
 635 0059 05       		.byte	0x5
 636 005a 91010000 		.4byte	.LASF6
 637 005e 03       		.uleb128 0x3
 638 005f 61010000 		.4byte	.LASF7
 639 0063 03       		.byte	0x3
 640 0064 41       		.byte	0x41
ARM GAS  C:\Users\DEREKM~1\AppData\Local\Temp\ccBMzeMc.s 			page 20


 641 0065 69000000 		.4byte	0x69
 642 0069 02       		.uleb128 0x2
 643 006a 04       		.byte	0x4
 644 006b 07       		.byte	0x7
 645 006c 6C010000 		.4byte	.LASF8
 646 0070 02       		.uleb128 0x2
 647 0071 08       		.byte	0x8
 648 0072 05       		.byte	0x5
 649 0073 67020000 		.4byte	.LASF9
 650 0077 02       		.uleb128 0x2
 651 0078 08       		.byte	0x8
 652 0079 07       		.byte	0x7
 653 007a 0B020000 		.4byte	.LASF10
 654 007e 04       		.uleb128 0x4
 655 007f 04       		.byte	0x4
 656 0080 05       		.byte	0x5
 657 0081 696E7400 		.ascii	"int\000"
 658 0085 02       		.uleb128 0x2
 659 0086 04       		.byte	0x4
 660 0087 07       		.byte	0x7
 661 0088 F5010000 		.4byte	.LASF11
 662 008c 03       		.uleb128 0x3
 663 008d 22020000 		.4byte	.LASF12
 664 0091 04       		.byte	0x4
 665 0092 18       		.byte	0x18
 666 0093 2C000000 		.4byte	0x2c
 667 0097 03       		.uleb128 0x3
 668 0098 17030000 		.4byte	.LASF13
 669 009c 04       		.byte	0x4
 670 009d 2C       		.byte	0x2c
 671 009e 4C000000 		.4byte	0x4c
 672 00a2 03       		.uleb128 0x3
 673 00a3 6E030000 		.4byte	.LASF14
 674 00a7 04       		.byte	0x4
 675 00a8 30       		.byte	0x30
 676 00a9 5E000000 		.4byte	0x5e
 677 00ad 05       		.uleb128 0x5
 678 00ae 42030000 		.4byte	.LASF15
 679 00b2 05       		.byte	0x5
 680 00b3 E401     		.2byte	0x1e4
 681 00b5 37000000 		.4byte	0x37
 682 00b9 02       		.uleb128 0x2
 683 00ba 04       		.byte	0x4
 684 00bb 04       		.byte	0x4
 685 00bc 46010000 		.4byte	.LASF16
 686 00c0 02       		.uleb128 0x2
 687 00c1 08       		.byte	0x8
 688 00c2 04       		.byte	0x4
 689 00c3 BB010000 		.4byte	.LASF17
 690 00c7 02       		.uleb128 0x2
 691 00c8 01       		.byte	0x1
 692 00c9 08       		.byte	0x8
 693 00ca 75020000 		.4byte	.LASF18
 694 00ce 02       		.uleb128 0x2
 695 00cf 08       		.byte	0x8
 696 00d0 04       		.byte	0x4
 697 00d1 8D030000 		.4byte	.LASF19
ARM GAS  C:\Users\DEREKM~1\AppData\Local\Temp\ccBMzeMc.s 			page 21


 698 00d5 02       		.uleb128 0x2
 699 00d6 04       		.byte	0x4
 700 00d7 07       		.byte	0x7
 701 00d8 5E020000 		.4byte	.LASF20
 702 00dc 06       		.uleb128 0x6
 703 00dd 04       		.byte	0x4
 704 00de 03       		.uleb128 0x3
 705 00df AD030000 		.4byte	.LASF21
 706 00e3 02       		.byte	0x2
 707 00e4 38       		.byte	0x38
 708 00e5 57000000 		.4byte	0x57
 709 00e9 03       		.uleb128 0x3
 710 00ea C3000000 		.4byte	.LASF22
 711 00ee 02       		.byte	0x2
 712 00ef 3F       		.byte	0x3f
 713 00f0 A2000000 		.4byte	0xa2
 714 00f4 03       		.uleb128 0x3
 715 00f5 FC000000 		.4byte	.LASF23
 716 00f9 06       		.byte	0x6
 717 00fa 2F       		.byte	0x2f
 718 00fb FF000000 		.4byte	0xff
 719 00ff 07       		.uleb128 0x7
 720 0100 04       		.byte	0x4
 721 0101 05010000 		.4byte	0x105
 722 0105 08       		.uleb128 0x8
 723 0106 E5010000 		.4byte	.LASF52
 724 010a 03       		.uleb128 0x3
 725 010b E3000000 		.4byte	.LASF24
 726 010f 07       		.byte	0x7
 727 0110 1F       		.byte	0x1f
 728 0111 DC000000 		.4byte	0xdc
 729 0115 09       		.uleb128 0x9
 730 0116 B0000000 		.4byte	.LASF53
 731 011a 02       		.byte	0x2
 732 011b CF       		.byte	0xcf
 733 011c A2000000 		.4byte	0xa2
 734 0120 03       		.byte	0x3
 735 0121 3C010000 		.4byte	0x13c
 736 0125 0A       		.uleb128 0xa
 737 0126 82020000 		.4byte	.LASF25
 738 012a 02       		.byte	0x2
 739 012b D1       		.byte	0xd1
 740 012c A2000000 		.4byte	0xa2
 741 0130 0A       		.uleb128 0xa
 742 0131 C2010000 		.4byte	.LASF26
 743 0135 02       		.byte	0x2
 744 0136 D1       		.byte	0xd1
 745 0137 A2000000 		.4byte	0xa2
 746 013b 00       		.byte	0
 747 013c 0B       		.uleb128 0xb
 748 013d 5E030000 		.4byte	.LASF54
 749 0141 02       		.byte	0x2
 750 0142 E3       		.byte	0xe3
 751 0143 03       		.byte	0x3
 752 0144 54010000 		.4byte	0x154
 753 0148 0C       		.uleb128 0xc
 754 0149 77030000 		.4byte	.LASF55
ARM GAS  C:\Users\DEREKM~1\AppData\Local\Temp\ccBMzeMc.s 			page 22


 755 014d 02       		.byte	0x2
 756 014e E3       		.byte	0xe3
 757 014f A2000000 		.4byte	0xa2
 758 0153 00       		.byte	0
 759 0154 0D       		.uleb128 0xd
 760 0155 0B000000 		.4byte	.LASF32
 761 0159 01       		.byte	0x1
 762 015a 2E       		.byte	0x2e
 763 015b 0A010000 		.4byte	0x10a
 764 015f 00000000 		.4byte	.LFB68
 765 0163 74000000 		.4byte	.LFE68-.LFB68
 766 0167 01       		.uleb128 0x1
 767 0168 9C       		.byte	0x9c
 768 0169 8A010000 		.4byte	0x18a
 769 016d 0E       		.uleb128 0xe
 770 016e 19010000 		.4byte	.LASF27
 771 0172 01       		.byte	0x1
 772 0173 2E       		.byte	0x2e
 773 0174 69000000 		.4byte	0x69
 774 0178 02       		.uleb128 0x2
 775 0179 91       		.byte	0x91
 776 017a 74       		.sleb128 -12
 777 017b 0E       		.uleb128 0xe
 778 017c 48030000 		.4byte	.LASF28
 779 0180 01       		.byte	0x1
 780 0181 2E       		.byte	0x2e
 781 0182 69000000 		.4byte	0x69
 782 0186 02       		.uleb128 0x2
 783 0187 91       		.byte	0x91
 784 0188 70       		.sleb128 -16
 785 0189 00       		.byte	0
 786 018a 0F       		.uleb128 0xf
 787 018b 26010000 		.4byte	.LASF40
 788 018f 01       		.byte	0x1
 789 0190 42       		.byte	0x42
 790 0191 00000000 		.4byte	.LFB69
 791 0195 56000000 		.4byte	.LFE69-.LFB69
 792 0199 01       		.uleb128 0x1
 793 019a 9C       		.byte	0x9c
 794 019b D8010000 		.4byte	0x1d8
 795 019f 0E       		.uleb128 0xe
 796 01a0 5A010000 		.4byte	.LASF29
 797 01a4 01       		.byte	0x1
 798 01a5 42       		.byte	0x42
 799 01a6 0A010000 		.4byte	0x10a
 800 01aa 02       		.uleb128 0x2
 801 01ab 91       		.byte	0x91
 802 01ac 6C       		.sleb128 -20
 803 01ad 0E       		.uleb128 0xe
 804 01ae B2010000 		.4byte	.LASF30
 805 01b2 01       		.byte	0x1
 806 01b3 42       		.byte	0x42
 807 01b4 E3010000 		.4byte	0x1e3
 808 01b8 02       		.uleb128 0x2
 809 01b9 91       		.byte	0x91
 810 01ba 68       		.sleb128 -24
 811 01bb 0E       		.uleb128 0xe
ARM GAS  C:\Users\DEREKM~1\AppData\Local\Temp\ccBMzeMc.s 			page 23


 812 01bc 35020000 		.4byte	.LASF31
 813 01c0 01       		.byte	0x1
 814 01c1 42       		.byte	0x42
 815 01c2 45000000 		.4byte	0x45
 816 01c6 02       		.uleb128 0x2
 817 01c7 91       		.byte	0x91
 818 01c8 66       		.sleb128 -26
 819 01c9 10       		.uleb128 0x10
 820 01ca 56030000 		.4byte	.LASF36
 821 01ce 01       		.byte	0x1
 822 01cf 44       		.byte	0x44
 823 01d0 45000000 		.4byte	0x45
 824 01d4 02       		.uleb128 0x2
 825 01d5 91       		.byte	0x91
 826 01d6 76       		.sleb128 -10
 827 01d7 00       		.byte	0
 828 01d8 07       		.uleb128 0x7
 829 01d9 04       		.byte	0x4
 830 01da DE010000 		.4byte	0x1de
 831 01de 11       		.uleb128 0x11
 832 01df 25000000 		.4byte	0x25
 833 01e3 11       		.uleb128 0x11
 834 01e4 D8010000 		.4byte	0x1d8
 835 01e8 0D       		.uleb128 0xd
 836 01e9 44020000 		.4byte	.LASF33
 837 01ed 01       		.byte	0x1
 838 01ee 57       		.byte	0x57
 839 01ef 57000000 		.4byte	0x57
 840 01f3 00000000 		.4byte	.LFB70
 841 01f7 38000000 		.4byte	.LFE70-.LFB70
 842 01fb 01       		.uleb128 0x1
 843 01fc 9C       		.byte	0x9c
 844 01fd 3A020000 		.4byte	0x23a
 845 0201 0E       		.uleb128 0xe
 846 0202 5A010000 		.4byte	.LASF29
 847 0206 01       		.byte	0x1
 848 0207 57       		.byte	0x57
 849 0208 0A010000 		.4byte	0x10a
 850 020c 02       		.uleb128 0x2
 851 020d 91       		.byte	0x91
 852 020e 6C       		.sleb128 -20
 853 020f 0E       		.uleb128 0xe
 854 0210 00000000 		.4byte	.LASF34
 855 0214 01       		.byte	0x1
 856 0215 57       		.byte	0x57
 857 0216 3A020000 		.4byte	0x23a
 858 021a 02       		.uleb128 0x2
 859 021b 91       		.byte	0x91
 860 021c 68       		.sleb128 -24
 861 021d 0E       		.uleb128 0xe
 862 021e 53020000 		.4byte	.LASF35
 863 0222 01       		.byte	0x1
 864 0223 57       		.byte	0x57
 865 0224 E9000000 		.4byte	0xe9
 866 0228 02       		.uleb128 0x2
 867 0229 91       		.byte	0x91
 868 022a 64       		.sleb128 -28
ARM GAS  C:\Users\DEREKM~1\AppData\Local\Temp\ccBMzeMc.s 			page 24


 869 022b 10       		.uleb128 0x10
 870 022c 99030000 		.4byte	.LASF37
 871 0230 01       		.byte	0x1
 872 0231 59       		.byte	0x59
 873 0232 57000000 		.4byte	0x57
 874 0236 02       		.uleb128 0x2
 875 0237 91       		.byte	0x91
 876 0238 74       		.sleb128 -12
 877 0239 00       		.byte	0
 878 023a 07       		.uleb128 0x7
 879 023b 04       		.byte	0x4
 880 023c 25000000 		.4byte	0x25
 881 0240 0D       		.uleb128 0xd
 882 0241 A3010000 		.4byte	.LASF38
 883 0245 01       		.byte	0x1
 884 0246 64       		.byte	0x64
 885 0247 57000000 		.4byte	0x57
 886 024b 00000000 		.4byte	.LFB71
 887 024f 50000000 		.4byte	.LFE71-.LFB71
 888 0253 01       		.uleb128 0x1
 889 0254 9C       		.byte	0x9c
 890 0255 92020000 		.4byte	0x292
 891 0259 0E       		.uleb128 0xe
 892 025a 5A010000 		.4byte	.LASF29
 893 025e 01       		.byte	0x1
 894 025f 64       		.byte	0x64
 895 0260 0A010000 		.4byte	0x10a
 896 0264 02       		.uleb128 0x2
 897 0265 91       		.byte	0x91
 898 0266 6C       		.sleb128 -20
 899 0267 0E       		.uleb128 0xe
 900 0268 9A010000 		.4byte	.LASF39
 901 026c 01       		.byte	0x1
 902 026d 64       		.byte	0x64
 903 026e 25000000 		.4byte	0x25
 904 0272 02       		.uleb128 0x2
 905 0273 91       		.byte	0x91
 906 0274 6B       		.sleb128 -21
 907 0275 0E       		.uleb128 0xe
 908 0276 53020000 		.4byte	.LASF35
 909 027a 01       		.byte	0x1
 910 027b 64       		.byte	0x64
 911 027c E9000000 		.4byte	0xe9
 912 0280 02       		.uleb128 0x2
 913 0281 91       		.byte	0x91
 914 0282 64       		.sleb128 -28
 915 0283 10       		.uleb128 0x10
 916 0284 99030000 		.4byte	.LASF37
 917 0288 01       		.byte	0x1
 918 0289 66       		.byte	0x66
 919 028a 57000000 		.4byte	0x57
 920 028e 02       		.uleb128 0x2
 921 028f 91       		.byte	0x91
 922 0290 74       		.sleb128 -12
 923 0291 00       		.byte	0
 924 0292 0F       		.uleb128 0xf
 925 0293 2A020000 		.4byte	.LASF41
ARM GAS  C:\Users\DEREKM~1\AppData\Local\Temp\ccBMzeMc.s 			page 25


 926 0297 01       		.byte	0x1
 927 0298 7E       		.byte	0x7e
 928 0299 00000000 		.4byte	.LFB72
 929 029d 90000000 		.4byte	.LFE72-.LFB72
 930 02a1 01       		.uleb128 0x1
 931 02a2 9C       		.byte	0x9c
 932 02a3 26030000 		.4byte	0x326
 933 02a7 10       		.uleb128 0x10
 934 02a8 1F030000 		.4byte	.LASF42
 935 02ac 01       		.byte	0x1
 936 02ad 80       		.byte	0x80
 937 02ae 57000000 		.4byte	0x57
 938 02b2 02       		.uleb128 0x2
 939 02b3 91       		.byte	0x91
 940 02b4 64       		.sleb128 -28
 941 02b5 10       		.uleb128 0x10
 942 02b6 02020000 		.4byte	.LASF43
 943 02ba 01       		.byte	0x1
 944 02bb 81       		.byte	0x81
 945 02bc 26030000 		.4byte	0x326
 946 02c0 02       		.uleb128 0x2
 947 02c1 91       		.byte	0x91
 948 02c2 63       		.sleb128 -29
 949 02c3 10       		.uleb128 0x10
 950 02c4 7A020000 		.4byte	.LASF44
 951 02c8 01       		.byte	0x1
 952 02c9 82       		.byte	0x82
 953 02ca 25000000 		.4byte	0x25
 954 02ce 02       		.uleb128 0x2
 955 02cf 91       		.byte	0x91
 956 02d0 62       		.sleb128 -30
 957 02d1 10       		.uleb128 0x10
 958 02d2 86030000 		.4byte	.LASF45
 959 02d6 01       		.byte	0x1
 960 02d7 83       		.byte	0x83
 961 02d8 69000000 		.4byte	0x69
 962 02dc 02       		.uleb128 0x2
 963 02dd 91       		.byte	0x91
 964 02de 74       		.sleb128 -12
 965 02df 12       		.uleb128 0x12
 966 02e0 15010000 		.4byte	0x115
 967 02e4 34000000 		.4byte	.LBB10
 968 02e8 1A000000 		.4byte	.LBE10-.LBB10
 969 02ec 01       		.byte	0x1
 970 02ed 8F       		.byte	0x8f
 971 02ee 0D030000 		.4byte	0x30d
 972 02f2 13       		.uleb128 0x13
 973 02f3 34000000 		.4byte	.LBB11
 974 02f7 1A000000 		.4byte	.LBE11-.LBB11
 975 02fb 14       		.uleb128 0x14
 976 02fc 25010000 		.4byte	0x125
 977 0300 02       		.uleb128 0x2
 978 0301 91       		.byte	0x91
 979 0302 6C       		.sleb128 -20
 980 0303 14       		.uleb128 0x14
 981 0304 30010000 		.4byte	0x130
 982 0308 02       		.uleb128 0x2
ARM GAS  C:\Users\DEREKM~1\AppData\Local\Temp\ccBMzeMc.s 			page 26


 983 0309 91       		.byte	0x91
 984 030a 68       		.sleb128 -24
 985 030b 00       		.byte	0
 986 030c 00       		.byte	0
 987 030d 15       		.uleb128 0x15
 988 030e 3C010000 		.4byte	0x13c
 989 0312 62000000 		.4byte	.LBB12
 990 0316 06000000 		.4byte	.LBE12-.LBB12
 991 031a 01       		.byte	0x1
 992 031b 97       		.byte	0x97
 993 031c 16       		.uleb128 0x16
 994 031d 48010000 		.4byte	0x148
 995 0321 02       		.uleb128 0x2
 996 0322 91       		.byte	0x91
 997 0323 70       		.sleb128 -16
 998 0324 00       		.byte	0
 999 0325 00       		.byte	0
 1000 0326 17       		.uleb128 0x17
 1001 0327 37000000 		.4byte	0x37
 1002 032b 0F       		.uleb128 0xf
 1003 032c D8000000 		.4byte	.LASF46
 1004 0330 01       		.byte	0x1
 1005 0331 A5       		.byte	0xa5
 1006 0332 00000000 		.4byte	.LFB73
 1007 0336 B0000000 		.4byte	.LFE73-.LFB73
 1008 033a 01       		.uleb128 0x1
 1009 033b 9C       		.byte	0x9c
 1010 033c BF030000 		.4byte	0x3bf
 1011 0340 10       		.uleb128 0x10
 1012 0341 1F030000 		.4byte	.LASF42
 1013 0345 01       		.byte	0x1
 1014 0346 A7       		.byte	0xa7
 1015 0347 57000000 		.4byte	0x57
 1016 034b 02       		.uleb128 0x2
 1017 034c 91       		.byte	0x91
 1018 034d 64       		.sleb128 -28
 1019 034e 10       		.uleb128 0x10
 1020 034f 02020000 		.4byte	.LASF43
 1021 0353 01       		.byte	0x1
 1022 0354 A8       		.byte	0xa8
 1023 0355 26030000 		.4byte	0x326
 1024 0359 02       		.uleb128 0x2
 1025 035a 91       		.byte	0x91
 1026 035b 63       		.sleb128 -29
 1027 035c 10       		.uleb128 0x10
 1028 035d 9A010000 		.4byte	.LASF39
 1029 0361 01       		.byte	0x1
 1030 0362 A9       		.byte	0xa9
 1031 0363 25000000 		.4byte	0x25
 1032 0367 02       		.uleb128 0x2
 1033 0368 91       		.byte	0x91
 1034 0369 62       		.sleb128 -30
 1035 036a 10       		.uleb128 0x10
 1036 036b 86030000 		.4byte	.LASF45
 1037 036f 01       		.byte	0x1
 1038 0370 AA       		.byte	0xaa
 1039 0371 69000000 		.4byte	0x69
ARM GAS  C:\Users\DEREKM~1\AppData\Local\Temp\ccBMzeMc.s 			page 27


 1040 0375 02       		.uleb128 0x2
 1041 0376 91       		.byte	0x91
 1042 0377 74       		.sleb128 -12
 1043 0378 12       		.uleb128 0x12
 1044 0379 15010000 		.4byte	0x115
 1045 037d 36000000 		.4byte	.LBB14
 1046 0381 1A000000 		.4byte	.LBE14-.LBB14
 1047 0385 01       		.byte	0x1
 1048 0386 B3       		.byte	0xb3
 1049 0387 A6030000 		.4byte	0x3a6
 1050 038b 13       		.uleb128 0x13
 1051 038c 36000000 		.4byte	.LBB15
 1052 0390 1A000000 		.4byte	.LBE15-.LBB15
 1053 0394 14       		.uleb128 0x14
 1054 0395 25010000 		.4byte	0x125
 1055 0399 02       		.uleb128 0x2
 1056 039a 91       		.byte	0x91
 1057 039b 6C       		.sleb128 -20
 1058 039c 14       		.uleb128 0x14
 1059 039d 30010000 		.4byte	0x130
 1060 03a1 02       		.uleb128 0x2
 1061 03a2 91       		.byte	0x91
 1062 03a3 68       		.sleb128 -24
 1063 03a4 00       		.byte	0
 1064 03a5 00       		.byte	0
 1065 03a6 15       		.uleb128 0x15
 1066 03a7 3C010000 		.4byte	0x13c
 1067 03ab 84000000 		.4byte	.LBB16
 1068 03af 06000000 		.4byte	.LBE16-.LBB16
 1069 03b3 01       		.byte	0x1
 1070 03b4 C6       		.byte	0xc6
 1071 03b5 16       		.uleb128 0x16
 1072 03b6 48010000 		.4byte	0x148
 1073 03ba 02       		.uleb128 0x2
 1074 03bb 91       		.byte	0x91
 1075 03bc 70       		.sleb128 -16
 1076 03bd 00       		.byte	0
 1077 03be 00       		.byte	0
 1078 03bf 10       		.uleb128 0x10
 1079 03c0 37010000 		.4byte	.LASF47
 1080 03c4 01       		.byte	0x1
 1081 03c5 2A       		.byte	0x2a
 1082 03c6 F4000000 		.4byte	0xf4
 1083 03ca 05       		.uleb128 0x5
 1084 03cb 03       		.byte	0x3
 1085 03cc 00000000 		.4byte	xSerialTxQueue
 1086 03d0 10       		.uleb128 0x10
 1087 03d1 0A010000 		.4byte	.LASF48
 1088 03d5 01       		.byte	0x1
 1089 03d6 2B       		.byte	0x2b
 1090 03d7 F4000000 		.4byte	0xf4
 1091 03db 05       		.uleb128 0x5
 1092 03dc 03       		.byte	0x3
 1093 03dd 04000000 		.4byte	xSerialRxQueue
 1094 03e1 18       		.uleb128 0x18
 1095 03e2 D8010000 		.4byte	.LASF56
 1096 03e6 08       		.byte	0x8
ARM GAS  C:\Users\DEREKM~1\AppData\Local\Temp\ccBMzeMc.s 			page 28


 1097 03e7 1207     		.2byte	0x712
 1098 03e9 ED030000 		.4byte	0x3ed
 1099 03ed 17       		.uleb128 0x17
 1100 03ee 97000000 		.4byte	0x97
 1101 03f2 00       		.byte	0
 1102              		.section	.debug_abbrev,"",%progbits
 1103              	.Ldebug_abbrev0:
 1104 0000 01       		.uleb128 0x1
 1105 0001 11       		.uleb128 0x11
 1106 0002 01       		.byte	0x1
 1107 0003 25       		.uleb128 0x25
 1108 0004 0E       		.uleb128 0xe
 1109 0005 13       		.uleb128 0x13
 1110 0006 0B       		.uleb128 0xb
 1111 0007 03       		.uleb128 0x3
 1112 0008 0E       		.uleb128 0xe
 1113 0009 1B       		.uleb128 0x1b
 1114 000a 0E       		.uleb128 0xe
 1115 000b 55       		.uleb128 0x55
 1116 000c 17       		.uleb128 0x17
 1117 000d 11       		.uleb128 0x11
 1118 000e 01       		.uleb128 0x1
 1119 000f 10       		.uleb128 0x10
 1120 0010 17       		.uleb128 0x17
 1121 0011 00       		.byte	0
 1122 0012 00       		.byte	0
 1123 0013 02       		.uleb128 0x2
 1124 0014 24       		.uleb128 0x24
 1125 0015 00       		.byte	0
 1126 0016 0B       		.uleb128 0xb
 1127 0017 0B       		.uleb128 0xb
 1128 0018 3E       		.uleb128 0x3e
 1129 0019 0B       		.uleb128 0xb
 1130 001a 03       		.uleb128 0x3
 1131 001b 0E       		.uleb128 0xe
 1132 001c 00       		.byte	0
 1133 001d 00       		.byte	0
 1134 001e 03       		.uleb128 0x3
 1135 001f 16       		.uleb128 0x16
 1136 0020 00       		.byte	0
 1137 0021 03       		.uleb128 0x3
 1138 0022 0E       		.uleb128 0xe
 1139 0023 3A       		.uleb128 0x3a
 1140 0024 0B       		.uleb128 0xb
 1141 0025 3B       		.uleb128 0x3b
 1142 0026 0B       		.uleb128 0xb
 1143 0027 49       		.uleb128 0x49
 1144 0028 13       		.uleb128 0x13
 1145 0029 00       		.byte	0
 1146 002a 00       		.byte	0
 1147 002b 04       		.uleb128 0x4
 1148 002c 24       		.uleb128 0x24
 1149 002d 00       		.byte	0
 1150 002e 0B       		.uleb128 0xb
 1151 002f 0B       		.uleb128 0xb
 1152 0030 3E       		.uleb128 0x3e
 1153 0031 0B       		.uleb128 0xb
ARM GAS  C:\Users\DEREKM~1\AppData\Local\Temp\ccBMzeMc.s 			page 29


 1154 0032 03       		.uleb128 0x3
 1155 0033 08       		.uleb128 0x8
 1156 0034 00       		.byte	0
 1157 0035 00       		.byte	0
 1158 0036 05       		.uleb128 0x5
 1159 0037 16       		.uleb128 0x16
 1160 0038 00       		.byte	0
 1161 0039 03       		.uleb128 0x3
 1162 003a 0E       		.uleb128 0xe
 1163 003b 3A       		.uleb128 0x3a
 1164 003c 0B       		.uleb128 0xb
 1165 003d 3B       		.uleb128 0x3b
 1166 003e 05       		.uleb128 0x5
 1167 003f 49       		.uleb128 0x49
 1168 0040 13       		.uleb128 0x13
 1169 0041 00       		.byte	0
 1170 0042 00       		.byte	0
 1171 0043 06       		.uleb128 0x6
 1172 0044 0F       		.uleb128 0xf
 1173 0045 00       		.byte	0
 1174 0046 0B       		.uleb128 0xb
 1175 0047 0B       		.uleb128 0xb
 1176 0048 00       		.byte	0
 1177 0049 00       		.byte	0
 1178 004a 07       		.uleb128 0x7
 1179 004b 0F       		.uleb128 0xf
 1180 004c 00       		.byte	0
 1181 004d 0B       		.uleb128 0xb
 1182 004e 0B       		.uleb128 0xb
 1183 004f 49       		.uleb128 0x49
 1184 0050 13       		.uleb128 0x13
 1185 0051 00       		.byte	0
 1186 0052 00       		.byte	0
 1187 0053 08       		.uleb128 0x8
 1188 0054 13       		.uleb128 0x13
 1189 0055 00       		.byte	0
 1190 0056 03       		.uleb128 0x3
 1191 0057 0E       		.uleb128 0xe
 1192 0058 3C       		.uleb128 0x3c
 1193 0059 19       		.uleb128 0x19
 1194 005a 00       		.byte	0
 1195 005b 00       		.byte	0
 1196 005c 09       		.uleb128 0x9
 1197 005d 2E       		.uleb128 0x2e
 1198 005e 01       		.byte	0x1
 1199 005f 03       		.uleb128 0x3
 1200 0060 0E       		.uleb128 0xe
 1201 0061 3A       		.uleb128 0x3a
 1202 0062 0B       		.uleb128 0xb
 1203 0063 3B       		.uleb128 0x3b
 1204 0064 0B       		.uleb128 0xb
 1205 0065 27       		.uleb128 0x27
 1206 0066 19       		.uleb128 0x19
 1207 0067 49       		.uleb128 0x49
 1208 0068 13       		.uleb128 0x13
 1209 0069 20       		.uleb128 0x20
 1210 006a 0B       		.uleb128 0xb
ARM GAS  C:\Users\DEREKM~1\AppData\Local\Temp\ccBMzeMc.s 			page 30


 1211 006b 01       		.uleb128 0x1
 1212 006c 13       		.uleb128 0x13
 1213 006d 00       		.byte	0
 1214 006e 00       		.byte	0
 1215 006f 0A       		.uleb128 0xa
 1216 0070 34       		.uleb128 0x34
 1217 0071 00       		.byte	0
 1218 0072 03       		.uleb128 0x3
 1219 0073 0E       		.uleb128 0xe
 1220 0074 3A       		.uleb128 0x3a
 1221 0075 0B       		.uleb128 0xb
 1222 0076 3B       		.uleb128 0x3b
 1223 0077 0B       		.uleb128 0xb
 1224 0078 49       		.uleb128 0x49
 1225 0079 13       		.uleb128 0x13
 1226 007a 00       		.byte	0
 1227 007b 00       		.byte	0
 1228 007c 0B       		.uleb128 0xb
 1229 007d 2E       		.uleb128 0x2e
 1230 007e 01       		.byte	0x1
 1231 007f 03       		.uleb128 0x3
 1232 0080 0E       		.uleb128 0xe
 1233 0081 3A       		.uleb128 0x3a
 1234 0082 0B       		.uleb128 0xb
 1235 0083 3B       		.uleb128 0x3b
 1236 0084 0B       		.uleb128 0xb
 1237 0085 27       		.uleb128 0x27
 1238 0086 19       		.uleb128 0x19
 1239 0087 20       		.uleb128 0x20
 1240 0088 0B       		.uleb128 0xb
 1241 0089 01       		.uleb128 0x1
 1242 008a 13       		.uleb128 0x13
 1243 008b 00       		.byte	0
 1244 008c 00       		.byte	0
 1245 008d 0C       		.uleb128 0xc
 1246 008e 05       		.uleb128 0x5
 1247 008f 00       		.byte	0
 1248 0090 03       		.uleb128 0x3
 1249 0091 0E       		.uleb128 0xe
 1250 0092 3A       		.uleb128 0x3a
 1251 0093 0B       		.uleb128 0xb
 1252 0094 3B       		.uleb128 0x3b
 1253 0095 0B       		.uleb128 0xb
 1254 0096 49       		.uleb128 0x49
 1255 0097 13       		.uleb128 0x13
 1256 0098 00       		.byte	0
 1257 0099 00       		.byte	0
 1258 009a 0D       		.uleb128 0xd
 1259 009b 2E       		.uleb128 0x2e
 1260 009c 01       		.byte	0x1
 1261 009d 3F       		.uleb128 0x3f
 1262 009e 19       		.uleb128 0x19
 1263 009f 03       		.uleb128 0x3
 1264 00a0 0E       		.uleb128 0xe
 1265 00a1 3A       		.uleb128 0x3a
 1266 00a2 0B       		.uleb128 0xb
 1267 00a3 3B       		.uleb128 0x3b
ARM GAS  C:\Users\DEREKM~1\AppData\Local\Temp\ccBMzeMc.s 			page 31


 1268 00a4 0B       		.uleb128 0xb
 1269 00a5 27       		.uleb128 0x27
 1270 00a6 19       		.uleb128 0x19
 1271 00a7 49       		.uleb128 0x49
 1272 00a8 13       		.uleb128 0x13
 1273 00a9 11       		.uleb128 0x11
 1274 00aa 01       		.uleb128 0x1
 1275 00ab 12       		.uleb128 0x12
 1276 00ac 06       		.uleb128 0x6
 1277 00ad 40       		.uleb128 0x40
 1278 00ae 18       		.uleb128 0x18
 1279 00af 9642     		.uleb128 0x2116
 1280 00b1 19       		.uleb128 0x19
 1281 00b2 01       		.uleb128 0x1
 1282 00b3 13       		.uleb128 0x13
 1283 00b4 00       		.byte	0
 1284 00b5 00       		.byte	0
 1285 00b6 0E       		.uleb128 0xe
 1286 00b7 05       		.uleb128 0x5
 1287 00b8 00       		.byte	0
 1288 00b9 03       		.uleb128 0x3
 1289 00ba 0E       		.uleb128 0xe
 1290 00bb 3A       		.uleb128 0x3a
 1291 00bc 0B       		.uleb128 0xb
 1292 00bd 3B       		.uleb128 0x3b
 1293 00be 0B       		.uleb128 0xb
 1294 00bf 49       		.uleb128 0x49
 1295 00c0 13       		.uleb128 0x13
 1296 00c1 02       		.uleb128 0x2
 1297 00c2 18       		.uleb128 0x18
 1298 00c3 00       		.byte	0
 1299 00c4 00       		.byte	0
 1300 00c5 0F       		.uleb128 0xf
 1301 00c6 2E       		.uleb128 0x2e
 1302 00c7 01       		.byte	0x1
 1303 00c8 3F       		.uleb128 0x3f
 1304 00c9 19       		.uleb128 0x19
 1305 00ca 03       		.uleb128 0x3
 1306 00cb 0E       		.uleb128 0xe
 1307 00cc 3A       		.uleb128 0x3a
 1308 00cd 0B       		.uleb128 0xb
 1309 00ce 3B       		.uleb128 0x3b
 1310 00cf 0B       		.uleb128 0xb
 1311 00d0 27       		.uleb128 0x27
 1312 00d1 19       		.uleb128 0x19
 1313 00d2 11       		.uleb128 0x11
 1314 00d3 01       		.uleb128 0x1
 1315 00d4 12       		.uleb128 0x12
 1316 00d5 06       		.uleb128 0x6
 1317 00d6 40       		.uleb128 0x40
 1318 00d7 18       		.uleb128 0x18
 1319 00d8 9642     		.uleb128 0x2116
 1320 00da 19       		.uleb128 0x19
 1321 00db 01       		.uleb128 0x1
 1322 00dc 13       		.uleb128 0x13
 1323 00dd 00       		.byte	0
 1324 00de 00       		.byte	0
ARM GAS  C:\Users\DEREKM~1\AppData\Local\Temp\ccBMzeMc.s 			page 32


 1325 00df 10       		.uleb128 0x10
 1326 00e0 34       		.uleb128 0x34
 1327 00e1 00       		.byte	0
 1328 00e2 03       		.uleb128 0x3
 1329 00e3 0E       		.uleb128 0xe
 1330 00e4 3A       		.uleb128 0x3a
 1331 00e5 0B       		.uleb128 0xb
 1332 00e6 3B       		.uleb128 0x3b
 1333 00e7 0B       		.uleb128 0xb
 1334 00e8 49       		.uleb128 0x49
 1335 00e9 13       		.uleb128 0x13
 1336 00ea 02       		.uleb128 0x2
 1337 00eb 18       		.uleb128 0x18
 1338 00ec 00       		.byte	0
 1339 00ed 00       		.byte	0
 1340 00ee 11       		.uleb128 0x11
 1341 00ef 26       		.uleb128 0x26
 1342 00f0 00       		.byte	0
 1343 00f1 49       		.uleb128 0x49
 1344 00f2 13       		.uleb128 0x13
 1345 00f3 00       		.byte	0
 1346 00f4 00       		.byte	0
 1347 00f5 12       		.uleb128 0x12
 1348 00f6 1D       		.uleb128 0x1d
 1349 00f7 01       		.byte	0x1
 1350 00f8 31       		.uleb128 0x31
 1351 00f9 13       		.uleb128 0x13
 1352 00fa 11       		.uleb128 0x11
 1353 00fb 01       		.uleb128 0x1
 1354 00fc 12       		.uleb128 0x12
 1355 00fd 06       		.uleb128 0x6
 1356 00fe 58       		.uleb128 0x58
 1357 00ff 0B       		.uleb128 0xb
 1358 0100 59       		.uleb128 0x59
 1359 0101 0B       		.uleb128 0xb
 1360 0102 01       		.uleb128 0x1
 1361 0103 13       		.uleb128 0x13
 1362 0104 00       		.byte	0
 1363 0105 00       		.byte	0
 1364 0106 13       		.uleb128 0x13
 1365 0107 0B       		.uleb128 0xb
 1366 0108 01       		.byte	0x1
 1367 0109 11       		.uleb128 0x11
 1368 010a 01       		.uleb128 0x1
 1369 010b 12       		.uleb128 0x12
 1370 010c 06       		.uleb128 0x6
 1371 010d 00       		.byte	0
 1372 010e 00       		.byte	0
 1373 010f 14       		.uleb128 0x14
 1374 0110 34       		.uleb128 0x34
 1375 0111 00       		.byte	0
 1376 0112 31       		.uleb128 0x31
 1377 0113 13       		.uleb128 0x13
 1378 0114 02       		.uleb128 0x2
 1379 0115 18       		.uleb128 0x18
 1380 0116 00       		.byte	0
 1381 0117 00       		.byte	0
ARM GAS  C:\Users\DEREKM~1\AppData\Local\Temp\ccBMzeMc.s 			page 33


 1382 0118 15       		.uleb128 0x15
 1383 0119 1D       		.uleb128 0x1d
 1384 011a 01       		.byte	0x1
 1385 011b 31       		.uleb128 0x31
 1386 011c 13       		.uleb128 0x13
 1387 011d 11       		.uleb128 0x11
 1388 011e 01       		.uleb128 0x1
 1389 011f 12       		.uleb128 0x12
 1390 0120 06       		.uleb128 0x6
 1391 0121 58       		.uleb128 0x58
 1392 0122 0B       		.uleb128 0xb
 1393 0123 59       		.uleb128 0x59
 1394 0124 0B       		.uleb128 0xb
 1395 0125 00       		.byte	0
 1396 0126 00       		.byte	0
 1397 0127 16       		.uleb128 0x16
 1398 0128 05       		.uleb128 0x5
 1399 0129 00       		.byte	0
 1400 012a 31       		.uleb128 0x31
 1401 012b 13       		.uleb128 0x13
 1402 012c 02       		.uleb128 0x2
 1403 012d 18       		.uleb128 0x18
 1404 012e 00       		.byte	0
 1405 012f 00       		.byte	0
 1406 0130 17       		.uleb128 0x17
 1407 0131 35       		.uleb128 0x35
 1408 0132 00       		.byte	0
 1409 0133 49       		.uleb128 0x49
 1410 0134 13       		.uleb128 0x13
 1411 0135 00       		.byte	0
 1412 0136 00       		.byte	0
 1413 0137 18       		.uleb128 0x18
 1414 0138 34       		.uleb128 0x34
 1415 0139 00       		.byte	0
 1416 013a 03       		.uleb128 0x3
 1417 013b 0E       		.uleb128 0xe
 1418 013c 3A       		.uleb128 0x3a
 1419 013d 0B       		.uleb128 0xb
 1420 013e 3B       		.uleb128 0x3b
 1421 013f 05       		.uleb128 0x5
 1422 0140 49       		.uleb128 0x49
 1423 0141 13       		.uleb128 0x13
 1424 0142 3F       		.uleb128 0x3f
 1425 0143 19       		.uleb128 0x19
 1426 0144 3C       		.uleb128 0x3c
 1427 0145 19       		.uleb128 0x19
 1428 0146 00       		.byte	0
 1429 0147 00       		.byte	0
 1430 0148 00       		.byte	0
 1431              		.section	.debug_aranges,"",%progbits
 1432 0000 44000000 		.4byte	0x44
 1433 0004 0200     		.2byte	0x2
 1434 0006 00000000 		.4byte	.Ldebug_info0
 1435 000a 04       		.byte	0x4
 1436 000b 00       		.byte	0
 1437 000c 0000     		.2byte	0
 1438 000e 0000     		.2byte	0
ARM GAS  C:\Users\DEREKM~1\AppData\Local\Temp\ccBMzeMc.s 			page 34


 1439 0010 00000000 		.4byte	.LFB68
 1440 0014 74000000 		.4byte	.LFE68-.LFB68
 1441 0018 00000000 		.4byte	.LFB69
 1442 001c 56000000 		.4byte	.LFE69-.LFB69
 1443 0020 00000000 		.4byte	.LFB70
 1444 0024 38000000 		.4byte	.LFE70-.LFB70
 1445 0028 00000000 		.4byte	.LFB71
 1446 002c 50000000 		.4byte	.LFE71-.LFB71
 1447 0030 00000000 		.4byte	.LFB72
 1448 0034 90000000 		.4byte	.LFE72-.LFB72
 1449 0038 00000000 		.4byte	.LFB73
 1450 003c B0000000 		.4byte	.LFE73-.LFB73
 1451 0040 00000000 		.4byte	0
 1452 0044 00000000 		.4byte	0
 1453              		.section	.debug_ranges,"",%progbits
 1454              	.Ldebug_ranges0:
 1455 0000 00000000 		.4byte	.LFB68
 1456 0004 74000000 		.4byte	.LFE68
 1457 0008 00000000 		.4byte	.LFB69
 1458 000c 56000000 		.4byte	.LFE69
 1459 0010 00000000 		.4byte	.LFB70
 1460 0014 38000000 		.4byte	.LFE70
 1461 0018 00000000 		.4byte	.LFB71
 1462 001c 50000000 		.4byte	.LFE71
 1463 0020 00000000 		.4byte	.LFB72
 1464 0024 90000000 		.4byte	.LFE72
 1465 0028 00000000 		.4byte	.LFB73
 1466 002c B0000000 		.4byte	.LFE73
 1467 0030 00000000 		.4byte	0
 1468 0034 00000000 		.4byte	0
 1469              		.section	.debug_line,"",%progbits
 1470              	.Ldebug_line0:
 1471 0000 C9020000 		.section	.debug_str,"MS",%progbits,1
 1471      0200C601 
 1471      00000201 
 1471      FB0E0D00 
 1471      01010101 
 1472              	.LASF34:
 1473 0000 70635278 		.ascii	"pcRxedChar\000"
 1473      65644368 
 1473      617200
 1474              	.LASF32:
 1475 000b 78536572 		.ascii	"xSerialPortInitMinimal\000"
 1475      69616C50 
 1475      6F727449 
 1475      6E69744D 
 1475      696E696D 
 1476              	.LASF49:
 1477 0022 474E5520 		.ascii	"GNU C11 5.4.1 20160609 (release) [ARM/embedded-5-br"
 1477      43313120 
 1477      352E342E 
 1477      31203230 
 1477      31363036 
 1478 0055 616E6368 		.ascii	"anch revision 237715] -mcpu=cortex-m3 -mthumb -g -O"
 1478      20726576 
 1478      6973696F 
 1478      6E203233 
ARM GAS  C:\Users\DEREKM~1\AppData\Local\Temp\ccBMzeMc.s 			page 35


 1478      37373135 
 1479 0088 30202D66 		.ascii	"0 -ffunction-sections -ffat-lto-objects\000"
 1479      66756E63 
 1479      74696F6E 
 1479      2D736563 
 1479      74696F6E 
 1480              	.LASF53:
 1481 00b0 756C506F 		.ascii	"ulPortRaiseBASEPRI\000"
 1481      72745261 
 1481      69736542 
 1481      41534550 
 1481      524900
 1482              	.LASF22:
 1483 00c3 5469636B 		.ascii	"TickType_t\000"
 1483      54797065 
 1483      5F7400
 1484              	.LASF4:
 1485 00ce 5F5F7569 		.ascii	"__uint8_t\000"
 1485      6E74385F 
 1485      7400
 1486              	.LASF46:
 1487 00d8 76556172 		.ascii	"vUartTxISR\000"
 1487      74547849 
 1487      535200
 1488              	.LASF24:
 1489 00e3 78436F6D 		.ascii	"xComPortHandle\000"
 1489      506F7274 
 1489      48616E64 
 1489      6C6500
 1490              	.LASF5:
 1491 00f2 5F5F696E 		.ascii	"__int32_t\000"
 1491      7433325F 
 1491      7400
 1492              	.LASF23:
 1493 00fc 51756575 		.ascii	"QueueHandle_t\000"
 1493      6548616E 
 1493      646C655F 
 1493      7400
 1494              	.LASF48:
 1495 010a 78536572 		.ascii	"xSerialRxQueue\000"
 1495      69616C52 
 1495      78517565 
 1495      756500
 1496              	.LASF27:
 1497 0119 756C5761 		.ascii	"ulWantedBaud\000"
 1497      6E746564 
 1497      42617564 
 1497      00
 1498              	.LASF40:
 1499 0126 76536572 		.ascii	"vSerialPutString\000"
 1499      69616C50 
 1499      75745374 
 1499      72696E67 
 1499      00
 1500              	.LASF47:
 1501 0137 78536572 		.ascii	"xSerialTxQueue\000"
 1501      69616C54 
ARM GAS  C:\Users\DEREKM~1\AppData\Local\Temp\ccBMzeMc.s 			page 36


 1501      78517565 
 1501      756500
 1502              	.LASF16:
 1503 0146 666C6F61 		.ascii	"float\000"
 1503      7400
 1504              	.LASF1:
 1505 014c 756E7369 		.ascii	"unsigned char\000"
 1505      676E6564 
 1505      20636861 
 1505      7200
 1506              	.LASF29:
 1507 015a 7078506F 		.ascii	"pxPort\000"
 1507      727400
 1508              	.LASF7:
 1509 0161 5F5F7569 		.ascii	"__uint32_t\000"
 1509      6E743332 
 1509      5F7400
 1510              	.LASF8:
 1511 016c 6C6F6E67 		.ascii	"long unsigned int\000"
 1511      20756E73 
 1511      69676E65 
 1511      6420696E 
 1511      7400
 1512              	.LASF3:
 1513 017e 73686F72 		.ascii	"short unsigned int\000"
 1513      7420756E 
 1513      7369676E 
 1513      65642069 
 1513      6E7400
 1514              	.LASF6:
 1515 0191 6C6F6E67 		.ascii	"long int\000"
 1515      20696E74 
 1515      00
 1516              	.LASF39:
 1517 019a 634F7574 		.ascii	"cOutChar\000"
 1517      43686172 
 1517      00
 1518              	.LASF38:
 1519 01a3 78536572 		.ascii	"xSerialPutChar\000"
 1519      69616C50 
 1519      75744368 
 1519      617200
 1520              	.LASF30:
 1521 01b2 70635374 		.ascii	"pcString\000"
 1521      72696E67 
 1521      00
 1522              	.LASF17:
 1523 01bb 646F7562 		.ascii	"double\000"
 1523      6C6500
 1524              	.LASF26:
 1525 01c2 756C4E65 		.ascii	"ulNewBASEPRI\000"
 1525      77424153 
 1525      45505249 
 1525      00
 1526              	.LASF50:
 1527 01cf 53657269 		.ascii	"Serial.c\000"
 1527      616C2E63 
ARM GAS  C:\Users\DEREKM~1\AppData\Local\Temp\ccBMzeMc.s 			page 37


 1527      00
 1528              	.LASF56:
 1529 01d8 49544D5F 		.ascii	"ITM_RxBuffer\000"
 1529      52784275 
 1529      66666572 
 1529      00
 1530              	.LASF52:
 1531 01e5 51756575 		.ascii	"QueueDefinition\000"
 1531      65446566 
 1531      696E6974 
 1531      696F6E00 
 1532              	.LASF11:
 1533 01f5 756E7369 		.ascii	"unsigned int\000"
 1533      676E6564 
 1533      20696E74 
 1533      00
 1534              	.LASF43:
 1535 0202 75635374 		.ascii	"ucStatus\000"
 1535      61747573 
 1535      00
 1536              	.LASF10:
 1537 020b 6C6F6E67 		.ascii	"long long unsigned int\000"
 1537      206C6F6E 
 1537      6720756E 
 1537      7369676E 
 1537      65642069 
 1538              	.LASF12:
 1539 0222 75696E74 		.ascii	"uint8_t\000"
 1539      385F7400 
 1540              	.LASF41:
 1541 022a 76556172 		.ascii	"vUartRxISR\000"
 1541      74527849 
 1541      535200
 1542              	.LASF31:
 1543 0235 75735374 		.ascii	"usStringLength\000"
 1543      72696E67 
 1543      4C656E67 
 1543      746800
 1544              	.LASF33:
 1545 0244 78536572 		.ascii	"xSerialGetChar\000"
 1545      69616C47 
 1545      65744368 
 1545      617200
 1546              	.LASF35:
 1547 0253 78426C6F 		.ascii	"xBlockTime\000"
 1547      636B5469 
 1547      6D6500
 1548              	.LASF20:
 1549 025e 73697A65 		.ascii	"sizetype\000"
 1549      74797065 
 1549      00
 1550              	.LASF9:
 1551 0267 6C6F6E67 		.ascii	"long long int\000"
 1551      206C6F6E 
 1551      6720696E 
 1551      7400
 1552              	.LASF18:
ARM GAS  C:\Users\DEREKM~1\AppData\Local\Temp\ccBMzeMc.s 			page 38


 1553 0275 63686172 		.ascii	"char\000"
 1553      00
 1554              	.LASF44:
 1555 027a 63496E43 		.ascii	"cInChar\000"
 1555      68617200 
 1556              	.LASF25:
 1557 0282 756C4F72 		.ascii	"ulOriginalBASEPRI\000"
 1557      6967696E 
 1557      616C4241 
 1557      53455052 
 1557      4900
 1558              	.LASF51:
 1559 0294 433A5C55 		.ascii	"C:\\Users\\Derek Marsch\\Documents\\SIUE\\491\\Free"
 1559      73657273 
 1559      5C446572 
 1559      656B204D 
 1559      61727363 
 1560 02c1 52544F53 		.ascii	"RTOSv10.2.1_191129\\FreeRTOS\\Demo\\CORTEX_CY8C5588"
 1560      7631302E 
 1560      322E315F 
 1560      31393131 
 1560      32395C46 
 1561 02f1 5F50536F 		.ascii	"_PSoC_Creator_GCC\\FreeRTOS_Demo.cydsn\000"
 1561      435F4372 
 1561      6561746F 
 1561      725F4743 
 1561      435C4672 
 1562              	.LASF13:
 1563 0317 696E7433 		.ascii	"int32_t\000"
 1563      325F7400 
 1564              	.LASF42:
 1565 031f 78486967 		.ascii	"xHigherPriorityTaskWoken\000"
 1565      68657250 
 1565      72696F72 
 1565      69747954 
 1565      61736B57 
 1566              	.LASF2:
 1567 0338 73686F72 		.ascii	"short int\000"
 1567      7420696E 
 1567      7400
 1568              	.LASF15:
 1569 0342 75696E74 		.ascii	"uint8\000"
 1569      3800
 1570              	.LASF28:
 1571 0348 75785175 		.ascii	"uxQueueLength\000"
 1571      6575654C 
 1571      656E6774 
 1571      6800
 1572              	.LASF36:
 1573 0356 7573496E 		.ascii	"usIndex\000"
 1573      64657800 
 1574              	.LASF54:
 1575 035e 76506F72 		.ascii	"vPortSetBASEPRI\000"
 1575      74536574 
 1575      42415345 
 1575      50524900 
 1576              	.LASF14:
ARM GAS  C:\Users\DEREKM~1\AppData\Local\Temp\ccBMzeMc.s 			page 39


 1577 036e 75696E74 		.ascii	"uint32_t\000"
 1577      33325F74 
 1577      00
 1578              	.LASF55:
 1579 0377 756C4E65 		.ascii	"ulNewMaskValue\000"
 1579      774D6173 
 1579      6B56616C 
 1579      756500
 1580              	.LASF45:
 1581 0386 756C4D61 		.ascii	"ulMask\000"
 1581      736B00
 1582              	.LASF19:
 1583 038d 6C6F6E67 		.ascii	"long double\000"
 1583      20646F75 
 1583      626C6500 
 1584              	.LASF37:
 1585 0399 78526574 		.ascii	"xReturn\000"
 1585      75726E00 
 1586              	.LASF0:
 1587 03a1 7369676E 		.ascii	"signed char\000"
 1587      65642063 
 1587      68617200 
 1588              	.LASF21:
 1589 03ad 42617365 		.ascii	"BaseType_t\000"
 1589      54797065 
 1589      5F7400
 1590              		.ident	"GCC: (GNU Tools for ARM Embedded Processors) 5.4.1 20160609 (release) [ARM/embedded-5-bran
